{
  "id": "08978d49-d9fb-4a19-85d8-860a60b9fbc4",
  "_schema": "http://schemas.nationella-riktlinjer.se/nrb-concept.2.schema.json",
  "slug": "acceptanskriterier-ss-iso-222632008",
  "language": "sv",
  "term": "acceptanskriterier",
  "source": "SS-ISO 22263:2008",
  "source_long": "SS-ISO 22263:2008, Strukturering av information om byggnadsverk – Ramverk för hantering av processinformation (ISO 22263:2008, IDT), 2.1",
  "definition": "begärda bevis med avseende på kravuppfyllnad",
  "contributors": [
    {
      "name": "Klas Eckerberg",
      "linkedin": "https://www.linkedin.com/in/klaseckerberg/"
    }
  ],
  "synonyms": [
    "acceptanskriterier-ss-iso-222632008-en"
  ]
}