{
  "id": "ebbb4292-b980-b9f0-e50b-35759ef3dacc",
  "_schema": "http://schemas.nationella-riktlinjer.se/nrb-concept.2.schema.json",
  "slug": "administrativ-bestammelse-sis",
  "language": "sv",
  "term": "Administrativ bestämmelse",
  "source": "SIS",
  "definition": "Planbestämmelse som reglerar administrativa frågor.\n",
  "links": [
    {
      "name": "SIS",
      "uri": "https://www.sis.se/contentassets/f91a17f266bb49cebb42ee4fc3bc743f/ss-6370402016.pdf"
    }
  ]
}