{
  "id": "3e784584-1598-41a6-97ee-3454fb31543e",
  "_schema": "http://schemas.nationella-riktlinjer.se/nrb-concept.2.schema.json",
  "slug": "advance-payment-iso-6707-22017",
  "language": "en",
  "term": "advance payment",
  "source": "ISO 6707-2:2017",
  "source_long": "ISO 6707-2:2017 Buildings and civil engineering works – Vocabulary – Part 2: Contract and communication terms, 3.5.47",
  "definition": "payment made by the client (3.8.2) to a contractor (3.8.6) after the contract (3.1.1) has been signed but before construction work starts or goods or services are supplied",
  "contributors": [
    {
      "name": "Klas Eckerberg",
      "linkedin": "https://www.linkedin.com/in/klaseckerberg/"
    }
  ]
}