{
  "id": "31964439-6f90-40e3-a28e-9e43e701bf01",
  "_schema": "http://schemas.nationella-riktlinjer.se/nrb-concept.2.schema.json",
  "slug": "aktivitetsutrymme-iecfdis-81346-22017",
  "language": "sv",
  "term": "aktivitetsutrymme",
  "source": "IEC/FDIS 81346-2:2017",
  "source_long": "IEC/FDIS 81346-2:2017, Industrial systems, installations and equipment and industrial products – Structuring principles and reference designations – Part 2: Classification of objects and codes for classes, 3.7",
  "definition": "utrymme definierat av den rumsliga utsträckningen av en aktivitet",
  "comment": "Not 1: En rumslig utsträckning av en aktivitet, till exempel ett bord eller en säng, och aktivitetsutrymmet runt dem.",
  "contributors": [
    {
      "name": "Klas Eckerberg",
      "linkedin": "https://www.linkedin.com/in/klaseckerberg/"
    }
  ],
  "synonyms": [
    "aktivitetsutrymme-iecfdis-81346-22017-en"
  ]
}