{
  "id": "f6a917f8-937f-460d-8212-3eb5d6afbe3f",
  "_schema": "http://schemas.nationella-riktlinjer.se/nrb-concept.2.schema.json",
  "slug": "aldringsfel-ss-en-133062010-en",
  "language": "en",
  "term": "ageing failure",
  "source": "EN 13306:2010",
  "source_long": "EN 13306:2010 Maintenance – Maintenance terminology, 5.5",
  "definition": "failure whose probability of occurrence increases with the passage of calendar time",
  "comment": "NOTE 1 This time is independent of the operating time of the item.\r\nNOTE 2 Ageing is a physical phenomenon which involves a modification of the physical and/or chemical characteristics of the material.",
  "contributors": [
    {
      "name": "Klas Eckerberg",
      "linkedin": "https://www.linkedin.com/in/klaseckerberg/"
    }
  ],
  "synonyms": [
    "aldringsfel-ss-en-133062010"
  ]
}