{
  "id": "4613ba99-a242-4210-bc9e-fb2427930e67",
  "_schema": "http://schemas.nationella-riktlinjer.se/nrb-concept.2.schema.json",
  "slug": "andrad-markanvandning-iso-219302017",
  "language": "sv",
  "term": "ändrad markanvändning",
  "source": "ISO 21930:2017",
  "source_long": "ISO 21930:2017, Sustainability in buildings and civil engineering works – Core rules for environmental product declarations of construction products and services, 3.7.5",
  "definition": "",
  "contributors": [
    {
      "name": "Klas Eckerberg",
      "linkedin": "https://www.linkedin.com/in/klaseckerberg/"
    }
  ],
  "synonyms": [
    "andrad-markanvandning-iso-219302017-en"
  ]
}