{
  "id": "f7c6a4ea-f2a3-49ce-b5a2-a2488abb8b43",
  "_schema": "http://schemas.nationella-riktlinjer.se/nrb-concept.2.schema.json",
  "slug": "anlaggning-bygghandlingar-90-del-7-utgava-2",
  "language": "sv",
  "term": "Anläggning",
  "source": "Bygghandlingar 90 del 7 utgåva 2",
  "definition": "”Byggnadsverk som inte är hus.” (BSAB 96) I obestämd form samlingsbeteckning för fasta konstruktioner i mark, till exempel vägar, gator, järnvägar, broar, hamnar, kajer, flygplatser, parker, torg och bostadsgårdar. I bestämd form (”en anläggning”, ”anläggningen”) används begreppet inom Trafikverket för att beteckna en identifierbar väg- eller spårsträcka inklusive anslutningar, tekniska installationer med mera. I denna betydelse omfattar begreppet såväl BSAB-systemets infrastrukturell enhet som byggnadsverk.",
  "comment": "Exempel: väg E4, Södra Länken, Norrortsleden, Citytunneln, Botniabanan. När en väganläggning blir föremål för ett byggprojekt kallas den vanligen ”objektet”.",
  "links": [
    {
      "name": "Bygghandlingar 90 del 7 utgåva 2",
      "uri": "http://www.bygghandlingar90.se"
    }
  ]
}