{
  "id": "07751739-bc33-46dd-9e82-8d32ed2d768c",
  "_schema": "http://schemas.nationella-riktlinjer.se/nrb-concept.2.schema.json",
  "slug": "anlaggning-ss-en-61355-12009",
  "language": "sv",
  "term": "anläggning",
  "source": "SS-EN 61355-1:2009",
  "source_long": "SS-EN 61355-1:2009, Klassificering och beteckning av dokumentslag för anläggningar, system och utrustning – Del 1: Regler och klassificering, 3.10",
  "definition": "samling av olika system på en viss plats",
  "contributors": [
    {
      "name": "Klas Eckerberg",
      "linkedin": "https://www.linkedin.com/in/klaseckerberg/"
    }
  ],
  "synonyms": [
    "anlaggning-ss-en-61355-12009-en"
  ]
}