{
  "id": "c3561f8c-1970-43c8-a9c0-ac553c0b22c0",
  "_schema": "http://schemas.nationella-riktlinjer.se/nrb-concept.2.schema.json",
  "slug": "anlaggningsmodell-bygghandlingar-90-del-7-utgava-2",
  "language": "sv",
  "term": "Anläggningsmodell",
  "source": "Bygghandlingar 90 del 7 utgåva 2",
  "definition": "Sammansatt geometrimodell som beskriver projekterad anläggning. En anläggningsmodell kan beskriva samtliga byggdelar i projekterad anläggning; - ytobjekt som redovisar projekterade överytor samt vid behov underliggande lager av till exempel terrass, schaktbotten, bärlager och andra skikt i överbyggnaden - punktobjekt i form av brunnar, armaturer, signalstolpar, skyltar med mera - linjeobjekt i form av väggeometrier, murar, staket, ledningar, kablar, kabelrännor och så vidare \n - slutna linjeobjekt som beskriver underindelning av ytan, till exempel markanvändning \n - volymobjekt som beskriver byggda delar (broar, murar, hus med mera).\n Ingående objekt kan beskrivas med hjälp av kodning, attribut eller databaskopplingar; betydelse, fysiska egenskaper, kvalitet, aktualitet och så vidare.\n Anläggningsmodell för en vägkonstruktion innehåller väglinjer, vägprofiler och normalsektioner.\n Ur anläggningsmodellen kan tvärsektioner genereras i valfritt läge längs väglinjen.\n I vägprojektering kan väglinjer, vägprofiler och normalsektioner användas för att\n generera ytmodell(er) och/eller trådmodell( er ) som beskriver vägkroppen och hur den möter markmodell.\n Modeller kan beskriva överyta och underliggande lager. I annan anläggningsprojektering kan\n linjeobjekt och punktobjekt användas för att generera ytmodell(er) och/eller trådmodell(er) som \n beskriver anläggningen och hur den möter markmodell. Modeller kan beskriva överyta och underliggande lager.\n Anläggningsmodell kan utföras som databas, som en eller flera modellfiler, eller som kombinationer av dessa.",
  "links": [
    {
      "name": "Bygghandlingar 90 del 7 utgåva 2",
      "uri": "http://www.bygghandlingar90.se"
    }
  ]
}