{
  "id": "f55d3444-1e31-4779-b6f3-a0edc6a31ec0",
  "_schema": "http://schemas.nationella-riktlinjer.se/nrb-concept.2.schema.json",
  "slug": "apparatus-list-iso-298452011",
  "language": "en",
  "term": "apparatus list",
  "source": "ISO 29845:2011",
  "source_long": "ISO 29845:2011 Technical product documentation – Document types, 3.2.36",
  "definition": "list providing information about the constituent functional components included in a system",
  "contributors": [
    {
      "name": "Klas Eckerberg",
      "linkedin": "https://www.linkedin.com/in/klaseckerberg/"
    }
  ]
}