{
  "id": "5fe2226e-208b-4e26-944c-9cfea6c144c4",
  "_schema": "http://schemas.nationella-riktlinjer.se/nrb-concept.2.schema.json",
  "slug": "applikationsgranssnitt-smart-planering-for-byggande-bilaga-8",
  "language": "sv",
  "term": "Applikationsgränssnitt (API)",
  "source": "Smart planering för byggande bilaga 8",
  "definition": "Gränssnitt som program använder för att konsumera en tjänst. I tekniska sammanhang används ofta termen API. API används ibland i samma betydelse som bastjänst",
  "comment": "“För mer information, besök:”",
  "links": [
    {
      "name": "Smart Built Environment",
      "uri": "http://www.smartbuilt.se/library/4000/bilaga-8-180401-smart_planering-bilaga_8_levspecar.pdf"
    }
  ]
}