{
  "id": "79956736-836e-44b9-bf03-438ba4921a60",
  "_schema": "http://schemas.nationella-riktlinjer.se/nrb-concept.2.schema.json",
  "slug": "arbetsresultat-ss-iso-12006-22015-en",
  "language": "en",
  "term": "work result",
  "source": "ISO 12006-2:2015",
  "source_long": "ISO 12006-2:2015 Building construction – Organization of information about construction works – Part 2: Framework for classification, 3.4.8",
  "definition": "view of construction result (3.4.6) by type of work activity and resources used",
  "contributors": [
    {
      "name": "Klas Eckerberg",
      "linkedin": "https://www.linkedin.com/in/klaseckerberg/"
    }
  ],
  "synonyms": [
    "arbetsresultat-ss-iso-12006-22015"
  ]
}