{
  "id": "43e4701d-e93e-4d5c-a903-240653db75e8",
  "_schema": "http://schemas.nationella-riktlinjer.se/nrb-concept.2.schema.json",
  "slug": "architect-iso-6707-22017",
  "language": "en",
  "term": "architect",
  "source": "ISO 6707-2:2017",
  "source_long": "ISO 6707-2:2017 Buildings and civil engineering works – Vocabulary – Part 2: Contract and communication terms, 3.8.24",
  "definition": "person who designs buildings and superintends the carrying out of building works",
  "comment": "Note 1 to entry: In certain countries, there are limitations on the use of the title “architect”.",
  "contributors": [
    {
      "name": "Klas Eckerberg",
      "linkedin": "https://www.linkedin.com/in/klaseckerberg/"
    }
  ]
}