{
  "id": "91b8f4c7-0051-49ef-a8c9-a7c3c7b758fb",
  "_schema": "http://schemas.nationella-riktlinjer.se/nrb-concept.2.schema.json",
  "slug": "arkiv-for-modeller-smart-planering-for-byggande-bilaga-8",
  "language": "sv",
  "term": "Arkiv (för modeller)",
  "source": "Smart planering för byggande bilaga 8",
  "definition": "Namn för digitala arkiv där bland annat statisk (”fryst”) information sparas och finns tillgänglig för distribution och användning.(Smart planering för byggande)Kan till exempel vara Fastighetsbildningsmodell BIM/GIS och Bygglovsmodell BIM/GIS i olika skeden samt modeller från Analyser/utredningaravseendegeoteknik, buller med mera.",
  "comment": "“För mer information, besök:”",
  "links": [
    {
      "name": "Smart Built Environment",
      "uri": "http://www.smartbuilt.se/library/4000/bilaga-8-180401-smart_planering-bilaga_8_levspecar.pdf"
    }
  ]
}