{
  "id": "27c58665-69c5-4e60-9896-c783730783dc",
  "_schema": "http://schemas.nationella-riktlinjer.se/nrb-concept.2.schema.json",
  "slug": "articles-of-agreement-client-contractor-agreement-us-iso-6",
  "language": "en",
  "term": "articles of agreement\r\nclient-contractor agreement, US",
  "source": "ISO 6707-2:2017",
  "source_long": "ISO 6707-2:2017 Buildings and civil engineering works – Vocabulary – Part 2: Contract and communication terms, 3.4.27",
  "definition": "preliminary section of a contract (3.1.1), setting out the basic elements on which the parties have agreed",
  "comment": "Note 1 to entry: Examples of basic elements are the names of parties, location, scope, sums payable, etc.",
  "contributors": [
    {
      "name": "Klas Eckerberg",
      "linkedin": "https://www.linkedin.com/in/klaseckerberg/"
    }
  ]
}