{
  "id": "dcf08c4d-1b8b-4afd-8c5d-8caf6e7ea6b6",
  "_schema": "http://schemas.nationella-riktlinjer.se/nrb-concept.2.schema.json",
  "slug": "as-built-drawing-record-drawing-iso-102092012",
  "language": "en",
  "term": "as-built drawing record drawing",
  "source": "ISO 10209:2012",
  "source_long": "ISO 10209:2012 Technical product documentation – Vocabulary – Terms relating to technical drawings, product definition and related documentation, 11.8",
  "definition": "drawing used to record the details of a construction following its completion",
  "contributors": [
    {
      "name": "Klas Eckerberg",
      "linkedin": "https://www.linkedin.com/in/klaseckerberg/"
    }
  ]
}