{
  "id": "51292776-657d-4fd6-a6a0-6becb8861cdf",
  "_schema": "http://schemas.nationella-riktlinjer.se/nrb-concept.2.schema.json",
  "slug": "assembly-model-iso-298452011",
  "language": "en",
  "term": "assembly model",
  "source": "ISO 29845:2011",
  "source_long": "ISO 29845:2011 Technical product documentation – Document types, 3.2.15",
  "definition": "model in which the product described is an assembly of two or more items",
  "comment": "[ISO 16792:2006, 3.3]",
  "contributors": [
    {
      "name": "Klas Eckerberg",
      "linkedin": "https://www.linkedin.com/in/klaseckerberg/"
    }
  ]
}