{
  "id": "b0180263-6d61-40dc-a47a-b551f2ef4f0d",
  "_schema": "http://schemas.nationella-riktlinjer.se/nrb-concept.2.schema.json",
  "slug": "assembly-iso-6707-12017",
  "language": "en",
  "term": "assembly",
  "source": "ISO 6707-1:2017",
  "source_long": "ISO 6707-1:2017 Buildings and civil engineering works – Vocabulary – Part 1: General terms, 3.3.5.5",
  "definition": "set of related components (3.4.1.4) attached to each other",
  "contributors": [
    {
      "name": "Klas Eckerberg",
      "linkedin": "https://www.linkedin.com/in/klaseckerberg/"
    }
  ]
}