{
  "id": "7ace2765-c48a-4391-95a2-7ae6b964d50d",
  "_schema": "http://schemas.nationella-riktlinjer.se/nrb-concept.2.schema.json",
  "slug": "assigned-provisions-iso-6707-22017",
  "language": "en",
  "term": "assigned provisions",
  "source": "ISO 6707-2:2017",
  "source_long": "ISO 6707-2:2017 Buildings and civil engineering works – Vocabulary – Part 2: Contract and communication terms, 3.3.12",
  "definition": "products, materials and plant brought onto the site or identified at a place of manufacture or storage off the site for a specific project",
  "contributors": [
    {
      "name": "Klas Eckerberg",
      "linkedin": "https://www.linkedin.com/in/klaseckerberg/"
    }
  ]
}