{
  "id": "3b0e99ff-1816-45d9-8ba4-9f7bb04bf19d",
  "_schema": "http://schemas.nationella-riktlinjer.se/nrb-concept.2.schema.json",
  "slug": "aterstallning-ss-en-133062010",
  "language": "sv",
  "term": "återställning",
  "source": "SS-EN 13306:2010",
  "source_long": "SS-EN 13306:2010, Underhåll – Terminologi, 8.9",
  "definition": "händelse vid vilken förmågan att prestera enligt krav återupprättas efter ett fel",
  "contributors": [
    {
      "name": "Klas Eckerberg",
      "linkedin": "https://www.linkedin.com/in/klaseckerberg/"
    }
  ],
  "synonyms": [
    "aterstallning-ss-en-133062010-en"
  ]
}