{
  "id": "3b0e99ff-1816-45d9-8ba4-9f7bb04bf19d",
  "_schema": "http://schemas.nationella-riktlinjer.se/nrb-concept.2.schema.json",
  "slug": "aterstallning-ss-en-133062010-en",
  "language": "en",
  "term": "restoration",
  "source": "EN 13306:2010",
  "source_long": "EN 13306:2010 Maintenance – Maintenance terminology, 8.9",
  "definition": "event at which the ability to perform as required is re-established, after a failure",
  "contributors": [
    {
      "name": "Klas Eckerberg",
      "linkedin": "https://www.linkedin.com/in/klaseckerberg/"
    }
  ],
  "synonyms": [
    "aterstallning-ss-en-133062010"
  ]
}