{
  "id": "a480c399-863c-40e9-b82d-d1144ab77b9a",
  "_schema": "http://schemas.nationella-riktlinjer.se/nrb-concept.2.schema.json",
  "slug": "attached-pier-pilaster-us-iso-6707-12017",
  "language": "en",
  "term": "attached pier\r\npilaster, US",
  "source": "ISO 6707-1:2017",
  "source_long": "ISO 6707-1:2017 Buildings and civil engineering works – Vocabulary – Part 1: General terms, 3.3.1.53",
  "definition": "pier (3.3.1.50) that is an integral part of a wall (3.3.2.46) in the form of thickened sections placed at intervals along the wall",
  "comment": "Note 1 to entry: In the US, there is a homograph for the term “pilaster”. See 3.3.1.55.",
  "contributors": [
    {
      "name": "Klas Eckerberg",
      "linkedin": "https://www.linkedin.com/in/klaseckerberg/"
    }
  ]
}