{
  "id": "19b4d04b-db8d-4a34-a218-0843933913b8",
  "_schema": "http://schemas.nationella-riktlinjer.se/nrb-concept.2.schema.json",
  "slug": "attribute-iso-102092012",
  "language": "en",
  "term": "attribute",
  "source": "ISO 10209:2012",
  "source_long": "ISO 10209:2012 Technical product documentation – Vocabulary – Terms relating to technical drawings, product definition and related documentation, 9.7",
  "definition": "dimension, tolerance, note, text or symbol required to complete the product definition or model feature of the product that is not visible but available upon querying the model",
  "comment": "[ISO 16792:2006]",
  "contributors": [
    {
      "name": "Klas Eckerberg",
      "linkedin": "https://www.linkedin.com/in/klaseckerberg/"
    }
  ]
}