{
  "id": "e93bb485-62ae-417f-9469-03280f1278ca",
  "_schema": "http://schemas.nationella-riktlinjer.se/nrb-concept.2.schema.json",
  "slug": "authorization-iso-102092012",
  "language": "en",
  "term": "authorization",
  "source": "ISO 10209:2012",
  "source_long": "ISO 10209:2012 Technical product documentation – Vocabulary – Terms relating to technical drawings, product definition and related documentation, 2.8",
  "definition": "<of a user> privileges that give access to designated activities",
  "comment": "[ISO 11442:2006]",
  "contributors": [
    {
      "name": "Klas Eckerberg",
      "linkedin": "https://www.linkedin.com/in/klaseckerberg/"
    }
  ]
}