{
  "id": "9a1bec07-41c4-47e2-9d9d-5ab8e1ee6b32",
  "_schema": "http://schemas.nationella-riktlinjer.se/nrb-concept.2.schema.json",
  "slug": "avfall-isots-21929-22015-en",
  "language": "en",
  "term": "waste",
  "source": "ISO/TS 21929-2:2015",
  "source_long": "ISO/TS 21929-2:2015 Sustainability in building construction – Sustainability indicators – Part 2: Framework for the development of indicators for civil engineering works, 3.42",
  "definition": "substances or objects that the original holder has disposed of or intends to or is required to dispose of",
  "comment": "Note 1 to entry: In this part of ISO 21929 this concept is not confined to hazardous waste.\r\nNote 2 to entry: Adapted from the Basel Convention on the Control of Transboundary Movements of Hazardous Wastes and Their Disposal (22 March 1989), Article 2 Definitions, Item 1. The wording has been simplified and the reference to national law as the basis for any requirements has been removed.\r\n[SOURCE: ISO 21929-1:2011, 3.37]",
  "contributors": [
    {
      "name": "Klas Eckerberg",
      "linkedin": "https://www.linkedin.com/in/klaseckerberg/"
    }
  ],
  "synonyms": [
    "avfall-isots-21929-22015"
  ]
}