{
  "id": "02b4a2d0-3ea7-4812-b62c-e8f7ec914a34",
  "_schema": "http://schemas.nationella-riktlinjer.se/nrb-concept.2.schema.json",
  "slug": "avhjalpande-underhall-ss-en-133062010-en",
  "language": "en",
  "term": "corrective maintenance",
  "source": "EN 13306:2010",
  "source_long": "EN 13306:2010 Maintenance – Maintenance terminology, 7.5",
  "definition": "maintenance carried out after fault recognition and intended to put an item into a state in which it can perform a required function",
  "contributors": [
    {
      "name": "Klas Eckerberg",
      "linkedin": "https://www.linkedin.com/in/klaseckerberg/"
    }
  ],
  "synonyms": [
    "avhjalpande-underhall-ss-en-133062010"
  ]
}