{
  "id": "02b4a2d0-3ea7-4812-b62c-e8f7ec914a34",
  "_schema": "http://schemas.nationella-riktlinjer.se/nrb-concept.2.schema.json",
  "slug": "avhjalpande-underhall-ss-en-133062010",
  "language": "sv",
  "term": "avhjälpande underhåll",
  "source": "SS-EN 13306:2010",
  "source_long": "SS-EN 13306:2010, Underhåll – Terminologi, 7.5",
  "definition": "underhåll som genomförs efter det att ett funktionsfel upptäckts och med avsikt att få en enhet i ett sådant tillstånd att den kan utföra krävd funktion",
  "comment": "avhjälpande underhåll",
  "contributors": [
    {
      "name": "Klas Eckerberg",
      "linkedin": "https://www.linkedin.com/in/klaseckerberg/"
    }
  ],
  "synonyms": [
    "avhjalpande-underhall-ss-en-133062010-en"
  ]
}