{
  "id": "a8289229-821b-48bb-8037-dafe4c642598",
  "_schema": "http://schemas.nationella-riktlinjer.se/nrb-concept.2.schema.json",
  "slug": "avrinningsomrade-iso-219302017",
  "language": "sv",
  "term": "avrinningsområde",
  "source": "ISO 21930:2017",
  "source_long": "ISO 21930:2017, Sustainability in buildings and civil engineering works – Core rules for environmental product declarations of construction products and services, 3.6.8",
  "definition": "område från vilket ytvatten från nederbörd av gravitationen förs till ett vattenflöde eller annan vattensamling",
  "contributors": [
    {
      "name": "Klas Eckerberg",
      "linkedin": "https://www.linkedin.com/in/klaseckerberg/"
    }
  ],
  "synonyms": [
    "avrinningsomrade-iso-219302017-en"
  ]
}