{
  "id": "1f675944-ed47-4ded-ba88-228efab3a5bb",
  "_schema": "http://schemas.nationella-riktlinjer.se/nrb-concept.2.schema.json",
  "slug": "backflow-iso-6707-12017",
  "language": "en",
  "term": "backflow",
  "source": "ISO 6707-1:2017",
  "source_long": "ISO 6707-1:2017 Buildings and civil engineering works – Vocabulary – Part 1: General terms, 3.7.3.42",
  "definition": "flow (3.7.3.41) in a reverse direction from that intended",
  "contributors": [
    {
      "name": "Klas Eckerberg",
      "linkedin": "https://www.linkedin.com/in/klaseckerberg/"
    }
  ]
}