{
  "id": "812f68ba-1c9c-45c7-b206-c423ebb5fdd1",
  "_schema": "http://schemas.nationella-riktlinjer.se/nrb-concept.2.schema.json",
  "slug": "balcony-iso-6707-12017",
  "language": "en",
  "term": "balcony",
  "source": "ISO 6707-1:2017",
  "source_long": "ISO 6707-1:2017 Buildings and civil engineering works – Vocabulary – Part 1: General terms, 3.2.2.9",
  "definition": "upper accessible platform within a storey (3.2.1.2), not fully enclosed by walls (3.3.2.46)",
  "contributors": [
    {
      "name": "Klas Eckerberg",
      "linkedin": "https://www.linkedin.com/in/klaseckerberg/"
    }
  ]
}