{
  "id": "f0137f71-7946-475b-bf25-c64a5196953a",
  "_schema": "http://schemas.nationella-riktlinjer.se/nrb-concept.2.schema.json",
  "slug": "baseline-isoiecieee-152882015",
  "language": "en",
  "term": "baseline",
  "source": "ISO/IEC/IEEE 15288:2015",
  "source_long": "ISO/IEC/IEEE 15288:2015 Systems and software engineering – System life cycle processes, 4.1.10",
  "definition": "formally approved version of a configuration item, regardless of media, formally designated and fixed at a specific time during the configuration item's life cycle",
  "comment": "[SOURCE: IEEE Std 828-2012]",
  "contributors": [
    {
      "name": "Klas Eckerberg",
      "linkedin": "https://www.linkedin.com/in/klaseckerberg/"
    }
  ]
}