{
  "id": "82bf87a9-f5f4-48bc-9edd-fa7e18f06158",
  "_schema": "http://schemas.nationella-riktlinjer.se/nrb-concept.2.schema.json",
  "slug": "basement-access-areaway-us-iso-6707-12017",
  "language": "en",
  "term": "basement access\r\nareaway, US",
  "source": "ISO 6707-1:2017",
  "source_long": "ISO 6707-1:2017 Buildings and civil engineering works – Vocabulary – Part 1: General terms, 3.2.3.13",
  "definition": "unroofed space (3.2.1.1) below ground level (3.7.2.67) which provides access to one or more rooms (3.2.1.3) in a basement (3.2.2.13)",
  "contributors": [
    {
      "name": "Klas Eckerberg",
      "linkedin": "https://www.linkedin.com/in/klaseckerberg/"
    }
  ]
}