{
  "id": "cff6f0e6-b83d-4378-8ab3-a0a172f6ca68",
  "_schema": "http://schemas.nationella-riktlinjer.se/nrb-concept.2.schema.json",
  "slug": "beam-iso-6707-12017",
  "language": "en",
  "term": "beam",
  "source": "ISO 6707-1:2017",
  "source_long": "ISO 6707-1:2017 Buildings and civil engineering works – Vocabulary – Part 1: General terms, 3.3.1.11",
  "definition": "structural member (3.3.1.3) for carrying loads (3.7.3.19) between or beyond points of support, usually narrow in relation to its length (3.7.2.10) and horizontal or nearly so",
  "contributors": [
    {
      "name": "Klas Eckerberg",
      "linkedin": "https://www.linkedin.com/in/klaseckerberg/"
    }
  ]
}