{
  "id": "4d3784cc-2ace-4632-91c9-105f12c4cff7",
  "_schema": "http://schemas.nationella-riktlinjer.se/nrb-concept.2.schema.json",
  "slug": "bestallare-isoiecieee-152882015-en",
  "language": "en",
  "term": "acquirer",
  "source": "ISO/IEC/IEEE 15288:2015",
  "source_long": "ISO/IEC/IEEE 15288:2015 Systems and software engineering – System life cycle processes, 4.1.1",
  "definition": "stakeholder that acquires or procures a product or service from a supplier",
  "comment": "Note 1 to entry: Other terms commonly used for an acquirer are buyer, customer, owner, purchaser or internal/organizational sponsor.",
  "contributors": [
    {
      "name": "Klas Eckerberg",
      "linkedin": "https://www.linkedin.com/in/klaseckerberg/"
    }
  ],
  "synonyms": [
    "bestallare-isoiecieee-152882015"
  ]
}