{
  "id": "621d43d2-b789-4a0b-98f0-9536ae64be7b",
  "_schema": "http://schemas.nationella-riktlinjer.se/nrb-concept.2.schema.json",
  "slug": "bim-process-bygghandlingar-90-del-7-utgava-2",
  "language": "sv",
  "term": "BIM (process)",
  "source": "Bygghandlingar 90 del 7 utgåva 2",
  "definition": "Byggnadsinformationsmodellering: processen att generera, nyttja och förvalta information om ett byggnadsverk under dess livscykel.",
  "links": [
    {
      "name": "Bygghandlingar 90 del 7 utgåva 2",
      "uri": "http://www.bygghandlingar90.se"
    }
  ]
}