{
  "id": "9f52a390-c584-4506-b186-6f9f145430d0",
  "_schema": "http://schemas.nationella-riktlinjer.se/nrb-concept.2.schema.json",
  "slug": "biodegradable-material-iso-6707-12017",
  "language": "en",
  "term": "biodegradable material",
  "source": "ISO 6707-1:2017",
  "source_long": "ISO 6707-1:2017 Buildings and civil engineering works – Vocabulary – Part 1: General terms, 3.4.1.5",
  "definition": "material (3.4.1.2) capable of being broken down by microorganisms",
  "contributors": [
    {
      "name": "Klas Eckerberg",
      "linkedin": "https://www.linkedin.com/in/klaseckerberg/"
    }
  ]
}