{
  "id": "dd5cac71-a4f7-441b-b420-167ed557f833",
  "_schema": "http://schemas.nationella-riktlinjer.se/nrb-concept.2.schema.json",
  "slug": "biogeniskt-kol-iso-219302017-en",
  "language": "en",
  "term": "biogenic carbon",
  "source": "ISO 21930:2017",
  "source_long": "ISO 21930:2017 Sustainability in buildings and civil engineering works – Core rules for environmental product declarations of construction products and services, 3.7.2",
  "definition": "carbon derived from biomass",
  "comment": "[SOURCE: ISO/TS 14067:2013, 3.1.8.2]",
  "contributors": [
    {
      "name": "Klas Eckerberg",
      "linkedin": "https://www.linkedin.com/in/klaseckerberg/"
    }
  ],
  "synonyms": [
    "biogeniskt-kol-iso-219302017"
  ]
}