{
  "id": "ab72662f-4a83-45d5-87a6-19e66c50ab2f",
  "_schema": "http://schemas.nationella-riktlinjer.se/nrb-concept.2.schema.json",
  "slug": "blinding-iso-6707-12017",
  "language": "en",
  "term": "blinding",
  "source": "ISO 6707-1:2017",
  "source_long": "ISO 6707-1:2017 Buildings and civil engineering works – Vocabulary – Part 1: General terms, 3.4.4.46",
  "definition": "layer, usually of lean concrete (3.4.4.15) between 50 mm and 100 mm thick, put down on soil (3.4.2.2) to seal the ground (3.4.2.1) and provide a clean surface for construction work (3.5.1.1)",
  "contributors": [
    {
      "name": "Klas Eckerberg",
      "linkedin": "https://www.linkedin.com/in/klaseckerberg/"
    }
  ]
}