{
  "id": "b73935fb-f571-48eb-90af-3715e128452d",
  "_schema": "http://schemas.nationella-riktlinjer.se/nrb-concept.2.schema.json",
  "slug": "block-diagram-iso-298452011",
  "language": "en",
  "term": "block diagram",
  "source": "ISO 29845:2011",
  "source_long": "ISO 29845:2011 Technical product documentation – Document types, 3.2.22",
  "definition": "overview diagram predominantly using block symbols",
  "comment": "[ISO 10209-4:1999, 5.15.8.1]",
  "contributors": [
    {
      "name": "Klas Eckerberg",
      "linkedin": "https://www.linkedin.com/in/klaseckerberg/"
    }
  ]
}