{
  "id": "2a901be6-1c7b-466d-9965-563a24787cc5",
  "_schema": "http://schemas.nationella-riktlinjer.se/nrb-concept.2.schema.json",
  "slug": "bolt-iso-6707-12017",
  "language": "en",
  "term": "bolt",
  "source": "ISO 6707-1:2017",
  "source_long": "ISO 6707-1:2017 Buildings and civil engineering works – Vocabulary – Part 1: General terms, 3.3.5.85",
  "definition": "fastening (3.3.5.84) formed from a cylindrical metal rod (3.4.1.8) with a helical thread at one end",
  "contributors": [
    {
      "name": "Klas Eckerberg",
      "linkedin": "https://www.linkedin.com/in/klaseckerberg/"
    }
  ]
}