{
  "id": "3324bfd1-e18e-48db-b539-c52cf4608f2b",
  "_schema": "http://schemas.nationella-riktlinjer.se/nrb-concept.2.schema.json",
  "slug": "bonus-clause-iso-6707-22017",
  "language": "en",
  "term": "bonus clause",
  "source": "ISO 6707-2:2017",
  "source_long": "ISO 6707-2:2017 Buildings and civil engineering works – Vocabulary – Part 2: Contract and communication terms, 3.4.28",
  "definition": "provision in a contract (3.1.1) for additional payment to the contractor (3.8.6), for completion (3.5.23) of the construction work prior to the stipulated date or for exceeding the production target",
  "contributors": [
    {
      "name": "Klas Eckerberg",
      "linkedin": "https://www.linkedin.com/in/klaseckerberg/"
    }
  ]
}