{
  "id": "d165c06e-a4b0-43d0-9573-1b650e28d668",
  "_schema": "http://schemas.nationella-riktlinjer.se/nrb-concept.2.schema.json",
  "slug": "bored-cast-in-place-pile-iso-6707-12017",
  "language": "en",
  "term": "bored cast-in-place pile",
  "source": "ISO 6707-1:2017",
  "source_long": "ISO 6707-1:2017 Buildings and civil engineering works – Vocabulary – Part 1: General terms, 3.3.1.76",
  "definition": "bored pile (3.3.1.75) formed by continuous or discontinuous earthwork (3.5.1.6) methods where the hole is subsequently filled with concrete (3.4.4.15)",
  "contributors": [
    {
      "name": "Klas Eckerberg",
      "linkedin": "https://www.linkedin.com/in/klaseckerberg/"
    }
  ]
}