{
  "id": "4d43caf9-5467-4b77-9071-7bf57b26d108",
  "_schema": "http://schemas.nationella-riktlinjer.se/nrb-concept.2.schema.json",
  "slug": "building-loss-feature-iso-6707-12017",
  "language": "en",
  "term": "building loss feature",
  "source": "ISO 6707-1:2017",
  "source_long": "ISO 6707-1:2017 Buildings and civil engineering works – Vocabulary – Part 1: General terms, 3.7.2.35",
  "definition": "feature or part of a building (3.1.1.3) in which a portion of the floor (3.3.2.10) area is not available for an individual’s activities, or for furniture (3.3.5.3), equipment or circulation",
  "comment": "Note 1 to entry: Examples of places in which a portion might not be available because of a building loss feature are workplaces, corridors (3.2.4.3), etc.\r\nNote 2 to entry: A building loss feature can be a physical part such as a column (3.3.1.10), or a configuration of a fire escape route which is mandated by regulation but not needed for normal circulation.\r\n[SOURCE: ISO 9836:2011, 3.4, modified – “element” was changed to “part”.]",
  "contributors": [
    {
      "name": "Klas Eckerberg",
      "linkedin": "https://www.linkedin.com/in/klaseckerberg/"
    }
  ]
}