{
  "id": "66b0948f-a862-4dad-bf5b-ee4d804a806c",
  "_schema": "http://schemas.nationella-riktlinjer.se/nrb-concept.2.schema.json",
  "slug": "bungalow-iso-6707-12017",
  "language": "en",
  "term": "bungalow",
  "source": "ISO 6707-1:2017",
  "source_long": "ISO 6707-1:2017 Buildings and civil engineering works – Vocabulary – Part 1: General terms, 3.1.4.6",
  "definition": "small house (3.1.4.5) of one storey (3.2.1.2)",
  "contributors": [
    {
      "name": "Klas Eckerberg",
      "linkedin": "https://www.linkedin.com/in/klaseckerberg/"
    }
  ]
}