{
  "id": "24ad2cba-2c73-49a1-9681-6589e089a0d3",
  "_schema": "http://schemas.nationella-riktlinjer.se/nrb-concept.2.schema.json",
  "slug": "byggd-tillgang-coclass",
  "language": "sv",
  "term": "byggd tillgång",
  "source": "CoClass",
  "inflections": ["byggda tillgången", "byggda tillgångar"],
  "definition": "Tillgång som ingår i byggd miljö.",
  "synonyms": [
    "byggd-tillgang-coclass-en"
  ]
}