{
  "id": "f4faf1d8-ecc8-464e-8885-8f644cc28ed5",
  "_schema": "http://schemas.nationella-riktlinjer.se/nrb-concept.2.schema.json",
  "slug": "bygglovsmodell-bim-gis-smart-planering-for-byggande-bilaga-8",
  "language": "sv",
  "term": "Bygglovsmodell BIM/GIS",
  "source": "Smart planering för byggande bilaga 8",
  "definition": "Framtida modell med BIM-dataanpassad för bygglov och för konvertering till en förenklad geodatamodell i 3D för uppdatering av berörda geodatabaser.",
  "comment": "“För mer information, besök:”",
  "links": [
    {
      "name": "Smart Built Environment",
      "uri": "http://www.smartbuilt.se/library/4000/bilaga-8-180401-smart_planering-bilaga_8_levspecar.pdf"
    }
  ]
}