{
  "id": "5bfb82c2-9a62-4c15-b366-af90864542a7",
  "_schema": "http://schemas.nationella-riktlinjer.se/nrb-concept.2.schema.json",
  "slug": "byggdel-ss-iso-12006-22015-en",
  "language": "en",
  "term": "construction element",
  "source": "ISO 12006-2:2015",
  "source_long": "ISO 12006-2:2015 Building construction – Organization of information about construction works – Part 2: Framework for classification, 3.4.3",
  "definition": "constituent of a construction entity (3.4.2) with a characteristic function, form, or position",
  "comment": "Note 1 to entry: For practical purposes, such as when carrying out a cost analysis of a construction entity, it is vital that construction elements are mutually exclusive, in order to ensure that each part is counted once and only once.",
  "contributors": [
    {
      "name": "Klas Eckerberg",
      "linkedin": "https://www.linkedin.com/in/klaseckerberg/"
    }
  ],
  "synonyms": [
    "byggdel-ss-iso-12006-22015"
  ]
}