{
  "id": "2dd49aca-6a6b-40b2-a9b0-6545cc57cfd0",
  "_schema": "http://schemas.nationella-riktlinjer.se/nrb-concept.2.schema.json",
  "slug": "byggnadsverk-eu-3052011",
  "language": "sv",
  "term": "byggnadsverk",
  "source": "EU 305/2011",
  "definition": "byggnader och anläggningar",
  "contributors": [
    {
      "name": "Klas Eckerberg",
      "linkedin": "https://www.linkedin.com/in/klaseckerberg/"
    }
  ]
}