{
  "id": "19b2b9a7-f210-4efe-ad22-ff2b5ac78d4b",
  "_schema": "http://schemas.nationella-riktlinjer.se/nrb-concept.2.schema.json",
  "slug": "byggsats-eu-3052011",
  "language": "sv",
  "term": "byggsats",
  "source": "EU 305/2011",
  "definition": "byggprodukt som släppts ut på marknaden av en enda tillverkare som en uppsättning av minst två separata komponenter som måste sättas samman för att inkorporeras i byggnadsverk",
  "contributors": [
    {
      "name": "Klas Eckerberg",
      "linkedin": "https://www.linkedin.com/in/klaseckerberg/"
    }
  ]
}