{
  "id": "541fb0f1-6f75-4bd1-a3da-d6f7f74ef39e",
  "_schema": "http://schemas.nationella-riktlinjer.se/nrb-concept.2.schema.json",
  "slug": "bygginformation-ss-iso-12006-22015",
  "language": "sv",
  "term": "bygginformation",
  "source": "SS-ISO 12006-2:2015",
  "source_long": "SS-ISO 12006-2:2015, Strukturering av information om byggnadsverk – Del 2: Ramverk för klassificering (av information), 3.2.3",
  "definition": "information av intresse i en byggprocess (3.3.2)",
  "comment": "Not 1: Bygginformation kan ses både som en byggresurs och som ett byggresultat.",
  "contributors": [
    {
      "name": "Klas Eckerberg",
      "linkedin": "https://www.linkedin.com/in/klaseckerberg/"
    }
  ],
  "synonyms": [
    "bygginformation-ss-iso-12006-22015-en"
  ]
}