{
  "id": "1df6ef7b-dc4e-4709-801f-b76d4ae6973c",
  "_schema": "http://schemas.nationella-riktlinjer.se/nrb-concept.2.schema.json",
  "slug": "byggd-miljo-iso-153922008",
  "language": "sv",
  "term": "byggd miljö",
  "source": "ISO 15392:2008",
  "source_long": "ISO 15392:2008, Sustainability in building construction – General principles, 3.5",
  "definition": "uppsättning mänskligt tillverkade eller förorsakade fysiska objekt lokaliserade i ett specifikt område eller region",
  "comment": "Not 1: När betraktad som en helhet, inkluderar byggd miljö typiskt byggnader, anlagd mark, infrastruktur och andra anläggningar inom det aktuella området.\r\nNot 2: Utvecklad från definitionen för \"miljö\" i ISO 6707-1.",
  "contributors": [
    {
      "name": "Klas Eckerberg",
      "linkedin": "https://www.linkedin.com/in/klaseckerberg/"
    }
  ],
  "synonyms": [
    "byggd-miljo-iso-153922008-en"
  ]
}