{
  "id": "3671fec0-473c-4f66-9996-4c7101479f2f",
  "_schema": "http://schemas.nationella-riktlinjer.se/nrb-concept.2.schema.json",
  "slug": "byggnadsverk-iso-153922008",
  "language": "sv",
  "term": "byggnadsverk",
  "source": "ISO 15392:2008",
  "source_long": "ISO 15392:2008, Sustainability in building construction – General principles, 3.8",
  "definition": "allt som är byggt eller som är resultatet av byggverksamhet",
  "comment": "[KÄLLA: ISO 6707-1:2004, definition 3.1.1]",
  "contributors": [
    {
      "name": "Klas Eckerberg",
      "linkedin": "https://www.linkedin.com/in/klaseckerberg/"
    }
  ],
  "synonyms": [
    "byggnadsverk-iso-153922008-en"
  ]
}