{
  "id": "9c55892c-eb62-4c5d-afb7-626ad092d120",
  "_schema": "http://schemas.nationella-riktlinjer.se/nrb-concept.2.schema.json",
  "slug": "byggdel-ifc-4",
  "language": "sv",
  "term": "byggdel",
  "source": "IFC 4",
  "source_long": "IFC 4, Industry Foundation Classes Release 4",
  "definition": "materiell produkt som kan beskrivas genom representation av form, material och andra egenskaper",
  "comment": "Not: En specialisering av den generella termen produkt.",
  "contributors": [
    {
      "name": "Klas Eckerberg",
      "linkedin": "https://www.linkedin.com/in/klaseckerberg/"
    }
  ],
  "synonyms": [
    "byggdel-ifc-4-en"
  ]
}