{
  "id": "6ecd9ce9-72cd-49bb-99e4-89192f13ee83",
  "_schema": "http://schemas.nationella-riktlinjer.se/nrb-concept.2.schema.json",
  "slug": "bygg-och-anlaggningsarbete-isots-21929-22015",
  "language": "sv",
  "term": "bygg- och anläggningsarbete",
  "source": "ISO/TS 21929-2:2015",
  "source_long": "ISO/TS 21929-2:2015, Sustainability in building construction – Sustainability indicators – Part 2: Framework for the development of indicators for civil engineering works, 3.8",
  "definition": "",
  "contributors": [
    {
      "name": "Klas Eckerberg",
      "linkedin": "https://www.linkedin.com/in/klaseckerberg/"
    }
  ],
  "synonyms": [
    "bygg-och-anlaggningsarbete-isots-21929-22015-en"
  ]
}