{
  "id": "541fb0f1-6f75-4bd1-a3da-d6f7f74ef39e",
  "_schema": "http://schemas.nationella-riktlinjer.se/nrb-concept.2.schema.json",
  "slug": "bygginformation-ss-iso-12006-22015-en",
  "language": "en",
  "term": "construction information",
  "source": "ISO 12006-2:2015",
  "source_long": "ISO 12006-2:2015 Building construction – Organization of information about construction works – Part 2: Framework for classification, 3.2.3",
  "definition": "information of interest in a construction process (3.3.2)",
  "comment": "Note 1 to entry: Construction information may be seen both as a construction resource and as a construction result.",
  "contributors": [
    {
      "name": "Klas Eckerberg",
      "linkedin": "https://www.linkedin.com/in/klaseckerberg/"
    }
  ],
  "synonyms": [
    "bygginformation-ss-iso-12006-22015"
  ]
}