{
  "id": "03293d17-92d1-4a58-bb5a-bbd513fcfc00",
  "_schema": "http://schemas.nationella-riktlinjer.se/nrb-concept.2.schema.json",
  "slug": "byggd-miljo-isots-21929-22015",
  "language": "sv",
  "term": "byggd miljö",
  "source": "ISO/TS 21929-2:2015",
  "source_long": "ISO/TS 21929-2:2015, Sustainability in building construction – Sustainability indicators – Part 2: Framework for the development of indicators for civil engineering works, 3.4",
  "definition": "uppsättning mänskligt tillverkade eller förorsakade fysiska objekt lokaliserade i ett specifikt område eller region",
  "comment": "Not 1: När betraktad som en helhet, inkluderar byggd miljö typiskt byggnader, anlagd mark, infrastruktur och andra anläggningar inom det aktuella området.\r\nNot 2: Utvecklad från definitionen för \"miljö\" i ISO 6707-1.",
  "contributors": [
    {
      "name": "Klas Eckerberg",
      "linkedin": "https://www.linkedin.com/in/klaseckerberg/"
    }
  ],
  "synonyms": [
    "byggd-miljo-isots-21929-22015-en"
  ]
}