{
  "id": "0977fd05-4207-40ef-8895-cdc5bbdc72c8",
  "_schema": "http://schemas.nationella-riktlinjer.se/nrb-concept.2.schema.json",
  "slug": "ceiling-drawing-iso-102092012",
  "language": "en",
  "term": "ceiling drawing",
  "source": "ISO 10209:2012",
  "source_long": "ISO 10209:2012 Technical product documentation – Vocabulary – Terms relating to technical drawings, product definition and related documentation, 11.25",
  "definition": "drawing which specifies the scope and workmanship of the ceilings of a storey of a building, and which is normally in mirrored projection",
  "contributors": [
    {
      "name": "Klas Eckerberg",
      "linkedin": "https://www.linkedin.com/in/klaseckerberg/"
    }
  ]
}