{
  "id": "f6d99768-26e3-4b41-a788-2e25859eae9c",
  "_schema": "http://schemas.nationella-riktlinjer.se/nrb-concept.2.schema.json",
  "slug": "ceiling-iso-6707-12017",
  "language": "en",
  "term": "ceiling",
  "source": "ISO 6707-1:2017",
  "source_long": "ISO 6707-1:2017 Buildings and civil engineering works – Vocabulary – Part 1: General terms, 3.3.2.18",
  "definition": "construction (3.3.5.6) covering the underside of a floor (3.3.2.10) or roof (3.3.2.21) and providing the overhead surface of an enclosed space (3.2.1.1), often to conceal structural members (3.3.1.3) or services (3.3.4.1)",
  "contributors": [
    {
      "name": "Klas Eckerberg",
      "linkedin": "https://www.linkedin.com/in/klaseckerberg/"
    }
  ]
}