{
  "id": "1fae086c-52d7-4a4d-b9ed-4433680dcd54",
  "_schema": "http://schemas.nationella-riktlinjer.se/nrb-concept.2.schema.json",
  "slug": "centrifugal-pump-iso-6707-12017",
  "language": "en",
  "term": "centrifugal pump",
  "source": "ISO 6707-1:2017",
  "source_long": "ISO 6707-1:2017 Buildings and civil engineering works – Vocabulary – Part 1: General terms, 3.3.4.51",
  "definition": "pump (3.3.4.50) into which fluid enters axially and from which, by the action of a rotating impeller, it is discharged tangentially",
  "contributors": [
    {
      "name": "Klas Eckerberg",
      "linkedin": "https://www.linkedin.com/in/klaseckerberg/"
    }
  ]
}