{
  "id": "a6554b36-5b85-4384-8b79-1c0b19e87ae1",
  "_schema": "http://schemas.nationella-riktlinjer.se/nrb-concept.2.schema.json",
  "slug": "characteristic-en-61987-102010",
  "language": "en",
  "term": "characteristic",
  "source": "EN 61987-10:2010",
  "source_long": "EN 61987-10:2010 Industrial-process measurement and control – Data structures and elements in process equipment catalogues – Part 10: Lists of properties (LOPs) for industrial-process measurement and control for electronic data exchange – Fundamentals, 3.1.6",
  "definition": "abstraction of a property of an object or of a set of objects [ISO 1087-1:2000, 3.2.4]",
  "comment": "NOTE 1 Characteristics are used for describing concepts.\r\nNOTE 2 This standard uses properties to describe devices, their operating environment (ambient conditions) or other aspects.",
  "contributors": [
    {
      "name": "Klas Eckerberg",
      "linkedin": "https://www.linkedin.com/in/klaseckerberg/"
    }
  ]
}