{
  "id": "09a025df-3320-485a-9d00-0306574bf568",
  "_schema": "http://schemas.nationella-riktlinjer.se/nrb-concept.2.schema.json",
  "slug": "character-spacing-factor-iso-102092012",
  "language": "en",
  "term": "character spacing factor",
  "source": "ISO 10209:2012",
  "source_long": "ISO 10209:2012 Technical product documentation – Vocabulary – Terms relating to technical drawings, product definition and related documentation, 7.5",
  "definition": "space between sequent character bodies",
  "comment": "[IEC 81714-2:2006]",
  "contributors": [
    {
      "name": "Klas Eckerberg",
      "linkedin": "https://www.linkedin.com/in/klaseckerberg/"
    }
  ]
}