{
  "id": "a87e5836-6cfd-4ea0-adea-69f4a46a6350",
  "_schema": "http://schemas.nationella-riktlinjer.se/nrb-concept.2.schema.json",
  "slug": "closing-pressure-iso-6707-12017",
  "language": "en",
  "term": "closing pressure",
  "source": "ISO 6707-1:2017",
  "source_long": "ISO 6707-1:2017 Buildings and civil engineering works – Vocabulary – Part 1: General terms, 3.7.3.48",
  "definition": "pressure at which a valve (3.3.4.54) closes after having reached the rating pressure (3.7.3.47)",
  "contributors": [
    {
      "name": "Klas Eckerberg",
      "linkedin": "https://www.linkedin.com/in/klaseckerberg/"
    }
  ]
}