{
  "id": "be71ab67-87c9-48f3-b872-d9856ec47e94",
  "_schema": "http://schemas.nationella-riktlinjer.se/nrb-concept.2.schema.json",
  "slug": "coating-iso-6707-12017",
  "language": "en",
  "term": "coating",
  "source": "ISO 6707-1:2017",
  "source_long": "ISO 6707-1:2017 Buildings and civil engineering works – Vocabulary – Part 1: General terms, 3.5.1.34",
  "definition": "process (3.5.2.3) that leads to the production of a coat (3.4.4.36)",
  "contributors": [
    {
      "name": "Klas Eckerberg",
      "linkedin": "https://www.linkedin.com/in/klaseckerberg/"
    }
  ]
}