{
  "id": "310b256b-8978-4e4e-be97-2a5cca124306",
  "_schema": "http://schemas.nationella-riktlinjer.se/nrb-concept.2.schema.json",
  "slug": "coat-iso-6707-12017",
  "language": "en",
  "term": "coat",
  "source": "ISO 6707-1:2017",
  "source_long": "ISO 6707-1:2017 Buildings and civil engineering works – Vocabulary – Part 1: General terms, 3.4.4.36",
  "definition": "layer of a coating material (3.4.4.37) resulting from a single application",
  "comment": "[SOURCE: ISO 4618:2014, 2.49, modified — Note 1 to entry was deleted.]",
  "contributors": [
    {
      "name": "Klas Eckerberg",
      "linkedin": "https://www.linkedin.com/in/klaseckerberg/"
    }
  ]
}