{
  "id": "c56e626c-0b48-4ece-9d2c-3169dbef4b18",
  "_schema": "http://schemas.nationella-riktlinjer.se/nrb-concept.2.schema.json",
  "slug": "column-pillar-gb-iso-6707-12017",
  "language": "en",
  "term": "column\r\npillar, GB",
  "source": "ISO 6707-1:2017",
  "source_long": "ISO 6707-1:2017 Buildings and civil engineering works – Vocabulary – Part 1: General terms, 3.3.1.10",
  "definition": "structural member (3.3.1.3) of slender form, usually vertical, that transmits to its base the forces (3.7.3.22), primarily in compression (3.7.3.32), that are applied to it",
  "contributors": [
    {
      "name": "Klas Eckerberg",
      "linkedin": "https://www.linkedin.com/in/klaseckerberg/"
    }
  ]
}