{
  "id": "f5d6fd48-f8dd-42db-bc3e-dfc7c179601e",
  "_schema": "http://schemas.nationella-riktlinjer.se/nrb-concept.2.schema.json",
  "slug": "component-iso-102092012",
  "language": "en",
  "term": "component",
  "source": "ISO 10209:2012",
  "source_long": "ISO 10209:2012 Technical product documentation – Vocabulary – Terms relating to technical drawings, product definition and related documentation, 2.14",
  "definition": "constituent part of equipment that cannot be physically divided into smaller parts without losing its character",
  "comment": "[ISO 14617-1:2005]",
  "contributors": [
    {
      "name": "Klas Eckerberg",
      "linkedin": "https://www.linkedin.com/in/klaseckerberg/"
    }
  ]
}