{
  "id": "754333d5-16a1-4ca7-8cab-6d729d453140",
  "_schema": "http://schemas.nationella-riktlinjer.se/nrb-concept.2.schema.json",
  "slug": "composite-board-iso-6707-12017",
  "language": "en",
  "term": "composite board",
  "source": "ISO 6707-1:2017",
  "source_long": "ISO 6707-1:2017 Buildings and civil engineering works – Vocabulary – Part 1: General terms, 3.4.3.31",
  "definition": "board produced by assembling and bonding (3.7.3.7) together sheets (3.4.1.12) of more than one type of wood-based panel (3.4.3.26) or sheets of wood-based panels and other materials (3.4.1.2)",
  "contributors": [
    {
      "name": "Klas Eckerberg",
      "linkedin": "https://www.linkedin.com/in/klaseckerberg/"
    }
  ]
}