{
  "id": "2fd52b65-71cd-4d85-ad37-acaf7263c7cd",
  "_schema": "http://schemas.nationella-riktlinjer.se/nrb-concept.2.schema.json",
  "slug": "concentration-iso-6707-12017",
  "language": "en",
  "term": "concentration",
  "source": "ISO 6707-1:2017",
  "source_long": "ISO 6707-1:2017 Buildings and civil engineering works – Vocabulary – Part 1: General terms, 3.7.3.64",
  "definition": "measure (3.7.1.7) of the quantity of a substance in unit quantity of a liquid or gaseous mixture or solution as a proportion of the total quantity",
  "contributors": [
    {
      "name": "Klas Eckerberg",
      "linkedin": "https://www.linkedin.com/in/klaseckerberg/"
    }
  ]
}