{
  "id": "48f74992-4c23-4cdc-a120-e6ddb726fb6d",
  "_schema": "http://schemas.nationella-riktlinjer.se/nrb-concept.2.schema.json",
  "slug": "concrete-mix-iso-6707-12017",
  "language": "en",
  "term": "concrete mix",
  "source": "ISO 6707-1:2017",
  "source_long": "ISO 6707-1:2017 Buildings and civil engineering works – Vocabulary – Part 1: General terms, 3.4.4.19",
  "definition": "combination of materials (3.4.1.2) required to make concrete (3.4.4.15)",
  "contributors": [
    {
      "name": "Klas Eckerberg",
      "linkedin": "https://www.linkedin.com/in/klaseckerberg/"
    }
  ]
}