{
  "id": "e0a5ce03-f2cf-4278-b698-c055570ffe82",
  "_schema": "http://schemas.nationella-riktlinjer.se/nrb-concept.2.schema.json",
  "slug": "configuration-iso-102092012",
  "language": "en",
  "term": "configuration",
  "source": "ISO 10209:2012",
  "source_long": "ISO 10209:2012 Technical product documentation – Vocabulary – Terms relating to technical drawings, product definition and related documentation, 12.5",
  "definition": "arrangement of the elements of a system",
  "comment": "[IEC 82045-1:2001]",
  "contributors": [
    {
      "name": "Klas Eckerberg",
      "linkedin": "https://www.linkedin.com/in/klaseckerberg/"
    }
  ]
}