{
  "id": "5fd84e01-906d-4c5a-b4e2-d0861d69a8f8",
  "_schema": "http://schemas.nationella-riktlinjer.se/nrb-concept.2.schema.json",
  "slug": "connection-table-iso-298452011",
  "language": "en",
  "term": "connection table",
  "source": "ISO 29845:2011",
  "source_long": "ISO 29845:2011 Technical product documentation – Document types, 3.2.37",
  "definition": "connection table lists the connections on different levels, internal and external, of the installation",
  "contributors": [
    {
      "name": "Klas Eckerberg",
      "linkedin": "https://www.linkedin.com/in/klaseckerberg/"
    }
  ]
}