{
  "id": "e965af2a-6ab2-488d-b6c3-d09138b48f90",
  "_schema": "http://schemas.nationella-riktlinjer.se/nrb-concept.2.schema.json",
  "slug": "connecting-line-directions-iso-102092012",
  "language": "en",
  "term": "connecting line directions",
  "source": "ISO 10209:2012",
  "source_long": "ISO 10209:2012 Technical product documentation – Vocabulary – Terms relating to technical drawings, product definition and related documentation, 8.5",
  "definition": "specification of directions under which connecting lines may be drawn onto a schematic connect node",
  "comment": "[IEC 81714-2:2006]",
  "contributors": [
    {
      "name": "Klas Eckerberg",
      "linkedin": "https://www.linkedin.com/in/klaseckerberg/"
    }
  ]
}