{
  "id": "c86411fb-7e92-445d-8587-e3496bce0cfe",
  "_schema": "http://schemas.nationella-riktlinjer.se/nrb-concept.2.schema.json",
  "slug": "contractor-consortium-member-iso-6707-22017",
  "language": "en",
  "term": "contractor consortium member",
  "source": "ISO 6707-2:2017",
  "source_long": "ISO 6707-2:2017 Buildings and civil engineering works – Vocabulary – Part 2: Contract and communication terms, 3.8.11",
  "definition": "one of the contractors (3.8.6) in a contractor consortium (3.8.10)",
  "contributors": [
    {
      "name": "Klas Eckerberg",
      "linkedin": "https://www.linkedin.com/in/klaseckerberg/"
    }
  ]
}