{
  "id": "8a4bfa51-af3e-495f-8358-0c31f6ffe4d5",
  "_schema": "http://schemas.nationella-riktlinjer.se/nrb-concept.2.schema.json",
  "slug": "contractual-claim-iso-6707-22017",
  "language": "en",
  "term": "contractual claim",
  "source": "ISO 6707-2:2017",
  "source_long": "ISO 6707-2:2017 Buildings and civil engineering works – Vocabulary – Part 2: Contract and communication terms, 3.5.54",
  "definition": "claim (3.5.53) that can be settled within the terms of the contract (3.1.1)",
  "contributors": [
    {
      "name": "Klas Eckerberg",
      "linkedin": "https://www.linkedin.com/in/klaseckerberg/"
    }
  ]
}