{
  "id": "3e5f3f43-401b-470e-9e50-5d333755f19a",
  "_schema": "http://schemas.nationella-riktlinjer.se/nrb-concept.2.schema.json",
  "slug": "coordinate-data-list-iso-298452011",
  "language": "en",
  "term": "coordinate data list",
  "source": "ISO 29845:2011",
  "source_long": "ISO 29845:2011 Technical product documentation – Document types, 3.2.35",
  "definition": "list providing information about certain positions on a part represented in a Cartesian coordinate system",
  "contributors": [
    {
      "name": "Klas Eckerberg",
      "linkedin": "https://www.linkedin.com/in/klaseckerberg/"
    }
  ]
}