{
  "id": "1907c8df-f670-4936-a6ec-cbaac450803e",
  "_schema": "http://schemas.nationella-riktlinjer.se/nrb-concept.2.schema.json",
  "slug": "courtyard-iso-6707-12017",
  "language": "en",
  "term": "courtyard",
  "source": "ISO 6707-1:2017",
  "source_long": "ISO 6707-1:2017 Buildings and civil engineering works – Vocabulary – Part 1: General terms, 3.2.2.17",
  "definition": "external space (3.2.1.1) bounded by buildings (3.1.1.3), walls (3.3.2.46), or fences (3.3.5.86)",
  "contributors": [
    {
      "name": "Klas Eckerberg",
      "linkedin": "https://www.linkedin.com/in/klaseckerberg/"
    }
  ]
}