{
  "id": "bc5b84bb-5098-47bd-9065-eb1d7071abfd",
  "_schema": "http://schemas.nationella-riktlinjer.se/nrb-concept.2.schema.json",
  "slug": "cove-coving-gb-iso-6707-12017",
  "language": "en",
  "term": "cove\r\ncoving, GB",
  "source": "ISO 6707-1:2017",
  "source_long": "ISO 6707-1:2017 Buildings and civil engineering works – Vocabulary – Part 1: General terms, 3.3.5.70",
  "definition": "concave moulding at, or fitted to, the internal angle between two surfaces",
  "contributors": [
    {
      "name": "Klas Eckerberg",
      "linkedin": "https://www.linkedin.com/in/klaseckerberg/"
    }
  ]
}