{
  "id": "c2798997-4305-4583-8b32-57abff405e9b",
  "_schema": "http://schemas.nationella-riktlinjer.se/nrb-concept.2.schema.json",
  "slug": "cubic-measurement-iso-6707-22017",
  "language": "en",
  "term": "cubic measurement",
  "source": "ISO 6707-2:2017",
  "source_long": "ISO 6707-2:2017 Buildings and civil engineering works – Vocabulary – Part 2: Contract and communication terms, 3.6.16",
  "definition": "measurement by volume",
  "contributors": [
    {
      "name": "Klas Eckerberg",
      "linkedin": "https://www.linkedin.com/in/klaseckerberg/"
    }
  ]
}