{
  "id": "1e372312-0470-4c5e-ad65-0a37f71af9ce",
  "_schema": "http://schemas.nationella-riktlinjer.se/nrb-concept.2.schema.json",
  "slug": "culvert-iso-6707-12017",
  "language": "en",
  "term": "culvert",
  "source": "ISO 6707-1:2017",
  "source_long": "ISO 6707-1:2017 Buildings and civil engineering works – Vocabulary – Part 1: General terms, 3.1.2.33",
  "definition": "transverse drain (3.3.4.38) or waterway structure (3.1.1.4) under a road (3.1.3.1), railway (3.1.3.3), or canal (3.1.3.61), or through an embankment (3.1.2.3), in the form of a large pipe (3.3.4.17) or enclosed channel (3.3.4.16)",
  "contributors": [
    {
      "name": "Klas Eckerberg",
      "linkedin": "https://www.linkedin.com/in/klaseckerberg/"
    }
  ]
}