{
  "id": "6fa978de-6866-4d92-bb33-50a8270c05ff",
  "_schema": "http://schemas.nationella-riktlinjer.se/nrb-concept.2.schema.json",
  "slug": "curtain-iso-6707-12017",
  "language": "en",
  "term": "curtain",
  "source": "ISO 6707-1:2017",
  "source_long": "ISO 6707-1:2017 Buildings and civil engineering works – Vocabulary – Part 1: General terms, 3.3.5.77",
  "definition": "movable blind or shutter (3.3.3.25) or mobile part thereof, constituted of fabric, a panel, or ensemble of slats",
  "contributors": [
    {
      "name": "Klas Eckerberg",
      "linkedin": "https://www.linkedin.com/in/klaseckerberg/"
    }
  ]
}