{
  "id": "f0338199-6f6a-45eb-a132-7278d69fea39",
  "_schema": "http://schemas.nationella-riktlinjer.se/nrb-concept.2.schema.json",
  "slug": "data-iso-102092012",
  "language": "en",
  "term": "data",
  "source": "ISO 10209:2012",
  "source_long": "ISO 10209:2012 Technical product documentation – Vocabulary – Terms relating to technical drawings, product definition and related documentation, 11.44.3",
  "definition": "<document management> reinterpretable presentation of information in a formalized manner suitable for communication, interpretation or processing",
  "comment": "[IEC 82045-1:2001]",
  "contributors": [
    {
      "name": "Klas Eckerberg",
      "linkedin": "https://www.linkedin.com/in/klaseckerberg/"
    }
  ]
}