{
  "id": "f76c4538-f71a-43f2-bfd2-6d2019dc8d38",
  "_schema": "http://schemas.nationella-riktlinjer.se/nrb-concept.2.schema.json",
  "slug": "data-transfer-iso-102092012",
  "language": "en",
  "term": "data transfer",
  "source": "ISO 10209:2012",
  "source_long": "ISO 10209:2012 Technical product documentation – Vocabulary – Terms relating to technical drawings, product definition and related documentation, 12.8",
  "definition": "moving of data from one computer process to another in an ordered form",
  "comment": "[ISO 7200:2004]",
  "contributors": [
    {
      "name": "Klas Eckerberg",
      "linkedin": "https://www.linkedin.com/in/klaseckerberg/"
    }
  ]
}