{
  "id": "b20f32bd-cbe2-4204-a6df-bc671f72f04a",
  "_schema": "http://schemas.nationella-riktlinjer.se/nrb-concept.2.schema.json",
  "slug": "de-facto-class-iso-15926-12005",
  "language": "en",
  "term": "de facto class",
  "source": "ISO 15926-1:2005",
  "source_long": "ISO 15926-1:2005 Industrial automation systems and integration – Integration of life-cycle data for process plants including oil and gas production facilitates – Part 2: Data model (ISO 15926-2:2003, IDT), 3.1.8",
  "definition": "class corresponding to common natures that are widely recognized but not formally agreed or defined",
  "comment": "NOTE De facto classes may be formalized by international, national, or industry agreement.\r\nEXAMPLE 1 A manufacturer may choose to make a product of similar specification to that of another manufacturer in order to compete for the market share by choosing to conform to some characteristics of the other product.\r\nEXAMPLE 2 3.5 floppy disk and HB pencil are de facto classes.",
  "contributors": [
    {
      "name": "Klas Eckerberg",
      "linkedin": "https://www.linkedin.com/in/klaseckerberg/"
    }
  ]
}