{
  "id": "c052a506-54fb-48b1-93b5-7499d0f717ca",
  "_schema": "http://schemas.nationella-riktlinjer.se/nrb-concept.2.schema.json",
  "slug": "deck-iso-6707-12017",
  "language": "en",
  "term": "deck",
  "source": "ISO 6707-1:2017",
  "source_long": "ISO 6707-1:2017 Buildings and civil engineering works – Vocabulary – Part 1: General terms, 3.3.2.17",
  "definition": "elevated, unenclosed platform without a roof (3.3.2.21)",
  "comment": "Note 1 to entry: There is a homograph for the term “deck”. See 3.3.1.35.",
  "contributors": [
    {
      "name": "Klas Eckerberg",
      "linkedin": "https://www.linkedin.com/in/klaseckerberg/"
    }
  ]
}