{
  "id": "36dca8b3-fadf-4ebe-8d01-92b01336bc8e",
  "_schema": "http://schemas.nationella-riktlinjer.se/nrb-concept.2.schema.json",
  "slug": "defect-iso-6707-12017",
  "language": "en",
  "term": "defect",
  "source": "ISO 6707-1:2017",
  "source_long": "ISO 6707-1:2017 Buildings and civil engineering works – Vocabulary – Part 1: General terms, 3.7.3.76",
  "definition": "fault (3.7.3.78) or deviation (3.7.2.6) from the intended condition of a material (3.4.1.1), assembly (3.3.5.5), or component (3.4.1.4)",
  "contributors": [
    {
      "name": "Klas Eckerberg",
      "linkedin": "https://www.linkedin.com/in/klaseckerberg/"
    }
  ]
}