{
  "id": "d4530379-753f-4323-aafc-5c8834943232",
  "_schema": "http://schemas.nationella-riktlinjer.se/nrb-concept.2.schema.json",
  "slug": "degradering-ss-en-133062010",
  "language": "sv",
  "term": "degradering",
  "source": "SS-EN 13306:2010",
  "source_long": "SS-EN 13306:2010, Underhåll – Terminologi, 5.6",
  "definition": "skadlig förändring i en enhets fysiskt tillstånd på grund av tid, användning eller yttre orsaker",
  "comment": "Anm. 1 till termpost: Degradering kan leda till fel.\r\nAnm. 2 till termpost: I ett systemsammanhang kan degradering också förorsakas av fel i systemet. (Se \"degraderat tillstånd\").",
  "contributors": [
    {
      "name": "Klas Eckerberg",
      "linkedin": "https://www.linkedin.com/in/klaseckerberg/"
    }
  ],
  "synonyms": [
    "degradering-ss-en-133062010-en"
  ]
}