{
  "id": "02c760df-e8b3-4c97-b860-342521fb8bb5",
  "_schema": "http://schemas.nationella-riktlinjer.se/nrb-concept.2.schema.json",
  "slug": "design-process-iso-6707-22017",
  "language": "en",
  "term": "design process",
  "source": "ISO 6707-2:2017",
  "source_long": "ISO 6707-2:2017 Buildings and civil engineering works – Vocabulary – Part 2: Contract and communication terms, 3.2.36",
  "definition": "process determining properties for an intended construction works before it is made physical",
  "comment": "[SOURCE: ISO 12006-2:2015, 3.3.5, modified – “the built environment” was replaced by “an intended construction works”]",
  "contributors": [
    {
      "name": "Klas Eckerberg",
      "linkedin": "https://www.linkedin.com/in/klaseckerberg/"
    }
  ]
}