{
  "id": "8a7eb031-2859-480f-8c34-3e7eab9a1fa0",
  "_schema": "http://schemas.nationella-riktlinjer.se/nrb-concept.2.schema.json",
  "slug": "detaljmatning-bygghandlingar-90-del-7-utgava-2",
  "language": "sv",
  "term": "Detaljmätning",
  "source": "Bygghandlingar 90 del 7 utgåva 2",
  "definition": "”Inmätning eller utsättning av geografiska objekt.” (GIS-ordboken) (Jfr inmätning.)",
  "links": [
    {
      "name": "Bygghandlingar 90 del 7 utgåva 2",
      "uri": "http://www.bygghandlingar90.se"
    }
  ]
}