{
  "id": "21ffab31-563a-4b35-bce9-d61d08b1f313",
  "_schema": "http://schemas.nationella-riktlinjer.se/nrb-concept.2.schema.json",
  "slug": "detailed-design-iso-102092012",
  "language": "en",
  "term": "detailed design",
  "source": "ISO 10209:2012",
  "source_long": "ISO 10209:2012 Technical product documentation – Vocabulary – Terms relating to technical drawings, product definition and related documentation, 2.29",
  "definition": "part of the product development process which includes the preparation of the final product definition",
  "comment": "[ISO 11442:2006]",
  "contributors": [
    {
      "name": "Klas Eckerberg",
      "linkedin": "https://www.linkedin.com/in/klaseckerberg/"
    }
  ]
}