{
  "id": "821e28a2-b7c7-4d78-9288-ae3e99d798dd",
  "_schema": "http://schemas.nationella-riktlinjer.se/nrb-concept.2.schema.json",
  "slug": "dimension-iso-102092012",
  "language": "en",
  "term": "dimension",
  "source": "ISO 10209:2012",
  "source_long": "ISO 10209:2012 Technical product documentation – Vocabulary – Terms relating to technical drawings, product definition and related documentation, 4.6",
  "definition": "distance between two features or the size of a feature of size",
  "comment": "[ISO 129-1:2004]",
  "contributors": [
    {
      "name": "Klas Eckerberg",
      "linkedin": "https://www.linkedin.com/in/klaseckerberg/"
    }
  ]
}