{
  "id": "0a95b0b0-1f94-467f-bb78-4c722124bfdc",
  "_schema": "http://schemas.nationella-riktlinjer.se/nrb-concept.2.schema.json",
  "slug": "dimensional-coordination-iso-6707-12017",
  "language": "en",
  "term": "dimensional coordination",
  "source": "ISO 6707-1:2017",
  "source_long": "ISO 6707-1:2017 Buildings and civil engineering works – Vocabulary – Part 1: General terms, 3.5.1.55",
  "definition": "adoption of a convention on related sizes (3.7.2.2) for the coordinating dimensions (3.7.2.1) of components (3.4.1.4) and the construction works (3.1.1.1) incorporating them, for their design, manufacture and assembly",
  "comment": "Note 1 to entry: The purposes of dimensional coordination are to permit the assembly of components on site (3.1.1.6) without cutting or fitting and to permit the interchangeability of different components.",
  "contributors": [
    {
      "name": "Klas Eckerberg",
      "linkedin": "https://www.linkedin.com/in/klaseckerberg/"
    }
  ]
}