{
  "id": "e5f5497e-bd0e-45b2-81a0-3dce7665161f",
  "_schema": "http://schemas.nationella-riktlinjer.se/nrb-concept.2.schema.json",
  "slug": "displacement-pile-iso-6707-12017",
  "language": "en",
  "term": "displacement pile",
  "source": "ISO 6707-1:2017",
  "source_long": "ISO 6707-1:2017 Buildings and civil engineering works – Vocabulary – Part 1: General terms, 3.3.1.77",
  "definition": "pile (3.3.1.75) which is installed in the ground without excavation of material from the ground, except for limiting heave, vibration, removal of obstructions, or to assist penetration",
  "comment": "[SOURCE: EN 12699:2000, 3.1, modified — “or removal” after the word “excavation” was deleted.]",
  "contributors": [
    {
      "name": "Klas Eckerberg",
      "linkedin": "https://www.linkedin.com/in/klaseckerberg/"
    }
  ]
}