{
  "id": "b17f9806-92c2-463b-81b1-2186ad955477",
  "_schema": "http://schemas.nationella-riktlinjer.se/nrb-concept.2.schema.json",
  "slug": "dokument-ss-en-61355-12009-en",
  "language": "en",
  "term": "document",
  "source": "EN 61355-1:2009",
  "source_long": "EN 61355-1:2009 Classification and designation of documents for plants, systems and equipment – Part 1: Rules and classification tables, 3.2",
  "definition": "",
  "contributors": [
    {
      "name": "Klas Eckerberg",
      "linkedin": "https://www.linkedin.com/in/klaseckerberg/"
    }
  ],
  "synonyms": [
    "dokument-ss-en-61355-12009"
  ]
}