{
  "id": "0727f22e-5acd-46d6-b4e9-bc03b79c9bf9",
  "_schema": "http://schemas.nationella-riktlinjer.se/nrb-concept.2.schema.json",
  "slug": "drainage-drawing-iso-102092012",
  "language": "en",
  "term": "drainage drawing",
  "source": "ISO 10209:2012",
  "source_long": "ISO 10209:2012 Technical product documentation – Vocabulary – Terms relating to technical drawings, product definition and related documentation, 11.62",
  "definition": "drawing which shows the scope and workmanship of drainage works",
  "contributors": [
    {
      "name": "Klas Eckerberg",
      "linkedin": "https://www.linkedin.com/in/klaseckerberg/"
    }
  ]
}