{
  "id": "70757150-6388-4e26-b365-e382685b554f",
  "_schema": "http://schemas.nationella-riktlinjer.se/nrb-concept.2.schema.json",
  "slug": "effektivitet-ss-iso-550002014",
  "language": "sv",
  "term": "effektivitet",
  "source": "SS-ISO 55000:2014",
  "source_long": "SS-ISO 55000:2014, Ledningssystem för tillgångar – Översikt, principer och terminologi, 3.1.7",
  "definition": "den omfattning i vilken planerade åtgärder utförs och planerade resultat uppnås",
  "contributors": [
    {
      "name": "Klas Eckerberg",
      "linkedin": "https://www.linkedin.com/in/klaseckerberg/"
    }
  ],
  "synonyms": [
    "effektivitet-ss-iso-550002014-en"
  ]
}