{
  "id": "b36ff915-6a09-43da-aaa5-fe3677c99122",
  "_schema": "http://schemas.nationella-riktlinjer.se/nrb-concept.2.schema.json",
  "slug": "egenskap-dataelementtyp-ss-en-61360-12017",
  "language": "sv",
  "term": "egenskap\r\ndataelementtyp",
  "source": "SS-EN 61360-1:2017",
  "source_long": "SS-EN 61360-1:2017, Dataelementtyper för elkomponenter med tillhörande klassificeringsschema – Del 1: Principer och metoder, 3.1.24",
  "definition": "uppsättning data i vilket dess identifkationsnummer samt beskrivning och format för ett releterat egenskapsvärde har definierats",
  "contributors": [
    {
      "name": "Klas Eckerberg",
      "linkedin": "https://www.linkedin.com/in/klaseckerberg/"
    }
  ],
  "synonyms": [
    "egenskap-dataelementtyp-ss-en-61360-12017-en"
  ]
}