{
  "id": "dec212a1-9534-47bb-8fcc-c015c25fff65",
  "_schema": "http://schemas.nationella-riktlinjer.se/nrb-concept.2.schema.json",
  "slug": "ekonomisk-indikator-iso-21929-12011-en",
  "language": "en",
  "term": "economic indicator",
  "source": "ISO 21929-1:2011",
  "source_long": "ISO 21929-1:2011 Sustainability in building construction – Sustainability indicators – Part 1: Framework for the development of indicators and a core set of indicators for buildings, 3.1",
  "definition": "sustainability indicator related to an economic impact",
  "contributors": [
    {
      "name": "Klas Eckerberg",
      "linkedin": "https://www.linkedin.com/in/klaseckerberg/"
    }
  ],
  "synonyms": [
    "ekonomisk-indikator-iso-21929-12011"
  ]
}