{
  "id": "54416c2e-7237-4d60-a643-185bce147c89",
  "_schema": "http://schemas.nationella-riktlinjer.se/nrb-concept.2.schema.json",
  "slug": "energiforbattring-iso-219302017-en",
  "language": "en",
  "term": "energy retrofit\r\nbuilding energy saving retrofit",
  "source": "ISO 21930:2017",
  "source_long": "ISO 21930:2017 Sustainability in buildings and civil engineering works – Core rules for environmental product declarations of construction products and services, 3.4.15",
  "definition": "installation and/or implementation of energy conservation measure in an existing building or civil engineering works",
  "contributors": [
    {
      "name": "Klas Eckerberg",
      "linkedin": "https://www.linkedin.com/in/klaseckerberg/"
    }
  ],
  "synonyms": [
    "energiforbattring-iso-219302017"
  ]
}