{
  "id": "a8c3ce45-35ce-44de-b821-9782f6974a4d",
  "_schema": "http://schemas.nationella-riktlinjer.se/nrb-concept.2.schema.json",
  "slug": "environmental-improvement-iso-6707-12017",
  "language": "en",
  "term": "environmental improvement",
  "source": "ISO 6707-1:2017",
  "source_long": "ISO 6707-1:2017 Buildings and civil engineering works – Vocabulary – Part 1: General terms, 3.8.4",
  "definition": "rehabilitation (3.5.1.43) of an area",
  "contributors": [
    {
      "name": "Klas Eckerberg",
      "linkedin": "https://www.linkedin.com/in/klaseckerberg/"
    }
  ]
}