{
  "id": "6b66c237-04fd-4ba4-979c-38594913c430",
  "_schema": "http://schemas.nationella-riktlinjer.se/nrb-concept.2.schema.json",
  "slug": "equipment-iso-102092012",
  "language": "en",
  "term": "equipment",
  "source": "ISO 10209:2012",
  "source_long": "ISO 10209:2012 Technical product documentation – Vocabulary – Terms relating to technical drawings, product definition and related documentation, 2.35",
  "definition": "single parts of a plant, such as vessels, columns, heat exchangers, pumps, compressors",
  "comment": "[ISO 10628:1997]",
  "contributors": [
    {
      "name": "Klas Eckerberg",
      "linkedin": "https://www.linkedin.com/in/klaseckerberg/"
    }
  ]
}