{
  "id": "484edf0d-19fd-477d-b353-6816a3dc7fbf",
  "_schema": "http://schemas.nationella-riktlinjer.se/nrb-concept.2.schema.json",
  "slug": "etim-nrb",
  "language": "sv",
  "term": "european technical information model",
  "abbrevation": "ETIM",
  "source": "Nationella Riktlinjer",
  "definition": "ETIM (European Technical Information Model) är ett internationellt system och används av både tillverkare och grossister, för att på ett strukturerat och språkoberoende sätt klassificera egenskaper hos el, VVS- och byggprodukter och dess värden. Syftet med ETIM-modellen är att produkten på ett leverantörsneutralt sätt, dvs. utan hierarkisk innebörd ska beskriva en produkt, vilket underlättar kommunikation mellan olika branschaktörer utan missförstånd. ETIM definierar de viktigaste tekniska egenskaperna hos varje produktklass för att enklare kunna hitta det man söker."
}