{
  "id": "b69850c4-05fa-480e-aa50-1a366f8b75c6",
  "_schema": "http://schemas.nationella-riktlinjer.se/nrb-concept.2.schema.json",
  "slug": "europeiskt-bedomningsdokument-eu-3052011",
  "language": "sv",
  "term": "europeiskt bedömningsdokument",
  "source": "EU 305/2011",
  "definition": "dokument som antagits av de tekniska\r\nbedömningsorganens organisation i syfte att utfärda europeiska tekniska bedömningar",
  "contributors": [
    {
      "name": "Klas Eckerberg",
      "linkedin": "https://www.linkedin.com/in/klaseckerberg/"
    }
  ]
}