{
  "id": "b798eaea-f308-440e-984b-322e3b6bf059",
  "_schema": "http://schemas.nationella-riktlinjer.se/nrb-concept.2.schema.json",
  "slug": "exit-iso-6707-12017",
  "language": "en",
  "term": "exit",
  "source": "ISO 6707-1:2017",
  "source_long": "ISO 6707-1:2017 Buildings and civil engineering works – Vocabulary – Part 1: General terms, 3.2.4.18",
  "definition": "designated point of departure from a building (3.1.1.3)",
  "comment": "Note 1 to entry: There is a homograph for the term “exit”. See 3.1.3.2",
  "contributors": [
    {
      "name": "Klas Eckerberg",
      "linkedin": "https://www.linkedin.com/in/klaseckerberg/"
    }
  ]
}