{
  "id": "0c2b4115-3549-4524-b591-ff9642ab8717",
  "_schema": "http://schemas.nationella-riktlinjer.se/nrb-concept.2.schema.json",
  "slug": "extern-referens-ifc-4",
  "language": "sv",
  "term": "extern referens",
  "source": "IFC 4",
  "source_long": "IFC 4, Industry Foundation Classes Release 4",
  "definition": "länk till information utanför datauppsättningen, med direkt relevans för den specifika informationen som länken utgår från inuti datauppsättningen",
  "contributors": [
    {
      "name": "Klas Eckerberg",
      "linkedin": "https://www.linkedin.com/in/klaseckerberg/"
    }
  ],
  "synonyms": [
    "extern-referens-ifc-4-en"
  ]
}