{
  "id": "0c2b4115-3549-4524-b591-ff9642ab8717",
  "_schema": "http://schemas.nationella-riktlinjer.se/nrb-concept.2.schema.json",
  "slug": "extern-referens-ifc-4-en",
  "language": "en",
  "term": "external reference",
  "source": "IFC 4",
  "source_long": "IFC 4 Industry Foundation Classes Release 4, ",
  "definition": "link to information outside the data set, with direct relevance to the specific information the link originates from inside the data set",
  "contributors": [
    {
      "name": "Klas Eckerberg",
      "linkedin": "https://www.linkedin.com/in/klaseckerberg/"
    }
  ],
  "synonyms": [
    "extern-referens-ifc-4"
  ]
}