{
  "id": "275a7bf3-eb2d-43dc-ae1c-03f563122879",
  "_schema": "http://schemas.nationella-riktlinjer.se/nrb-concept.2.schema.json",
  "slug": "externa-kostnader-isots-21929-22015",
  "language": "sv",
  "term": "externa kostnader",
  "source": "ISO/TS 21929-2:2015",
  "source_long": "ISO/TS 21929-2:2015, Sustainability in building construction – Sustainability indicators – Part 2: Framework for the development of indicators for civil engineering works, 3.15",
  "definition": "",
  "contributors": [
    {
      "name": "Klas Eckerberg",
      "linkedin": "https://www.linkedin.com/in/klaseckerberg/"
    }
  ],
  "synonyms": [
    "externa-kostnader-isots-21929-22015-en"
  ]
}