{
  "id": "0b85e908-c38b-4b8e-a907-9297f6cad7ff",
  "_schema": "http://schemas.nationella-riktlinjer.se/nrb-concept.2.schema.json",
  "slug": "false-ceiling-suspended-ceiling-us-dropped-ceiling-us-is",
  "language": "en",
  "term": "false ceiling\r\nsuspended ceiling, US\r\ndropped ceiling, US",
  "source": "ISO 6707-1:2017",
  "source_long": "ISO 6707-1:2017 Buildings and civil engineering works – Vocabulary – Part 1: General terms, 3.3.2.19",
  "definition": "ceiling (3.3.2.18) that reduces the height (3.7.2.36) of a space (3.2.1.1) or provides space for services (3.3.4.1)",
  "comment": "Note 1 to entry: In the US, there is a homograph for the entry “suspended ceiling”. See 3.3.2.20.\r\nNote 2 to entry: In the US, there is a homograph for the entry “dropped ceiling”. See 3.3.2.20.",
  "contributors": [
    {
      "name": "Klas Eckerberg",
      "linkedin": "https://www.linkedin.com/in/klaseckerberg/"
    }
  ]
}