{
  "id": "17850be5-6d10-493b-a728-8e57aea9786d",
  "_schema": "http://schemas.nationella-riktlinjer.se/nrb-concept.2.schema.json",
  "slug": "fastighetstjanster-iso-16745-12017",
  "language": "sv",
  "term": "fastighetstjänster",
  "source": "ISO 16745-1:2017",
  "source_long": "ISO 16745-1:2017, Sustainability in buildings and civil engineering works – Carbon metric of an existing building during use stage – Part 1: Calculation, reporting and communication, 3.1",
  "definition": "",
  "contributors": [
    {
      "name": "Klas Eckerberg",
      "linkedin": "https://www.linkedin.com/in/klaseckerberg/"
    }
  ],
  "synonyms": [
    "fastighetstjanster-iso-16745-12017-en"
  ]
}