{
  "id": "17850be5-6d10-493b-a728-8e57aea9786d",
  "_schema": "http://schemas.nationella-riktlinjer.se/nrb-concept.2.schema.json",
  "slug": "fastighetstjanster-iso-16745-12017-en",
  "language": "en",
  "term": "building service",
  "source": "ISO 16745-1:2017",
  "source_long": "ISO 16745-1:2017 Sustainability in buildings and civil engineering works – Carbon metric of an existing building during use stage – Part 1: Calculation, reporting and communication, 3.1",
  "definition": "service provided by technical building systems and by appliances to provide acceptable indoor environmental conditions, domestic hot water, illumination levels, and other services related to the use of the building",
  "comment": "Note 1 to entry: For the purposes of this document, the following terms are used as per their definitions in the following reference documents: appliances (ISO 6707-1:2004, 5.4.7) and building (ISO 6707-1:2004, 3.1.3)\r\n[SOURCE: ISO 52000-1:2017, 3.3.3, modified – Note 1 to entry has been added]",
  "contributors": [
    {
      "name": "Klas Eckerberg",
      "linkedin": "https://www.linkedin.com/in/klaseckerberg/"
    }
  ],
  "synonyms": [
    "fastighetstjanster-iso-16745-12017"
  ]
}