{
  "id": "4af0fad9-3fdb-446f-9099-bc818fd4fa6d",
  "_schema": "http://schemas.nationella-riktlinjer.se/nrb-concept.2.schema.json",
  "slug": "fellokalisering-ss-en-133062010",
  "language": "sv",
  "term": "fellokalisering",
  "source": "SS-EN 13306:2010",
  "source_long": "SS-EN 13306:2010, Underhåll – Terminologi, 8.8",
  "definition": "åtgärder för att identifiera en avgränsad enhet med funktionsfel vid avtalade nivån",
  "comment": "Anm. till termpost: Dessa åtgärder kan omfatta black box-test (en testmetod där provfallen väljs genom att endast\r\r\nenhetens funktionsspecifikation används).",
  "contributors": [
    {
      "name": "Klas Eckerberg",
      "linkedin": "https://www.linkedin.com/in/klaseckerberg/"
    }
  ],
  "synonyms": [
    "fellokalisering-ss-en-133062010-en"
  ]
}