{
  "id": "2758ba2d-2825-4801-af6a-17f628d35a8a",
  "_schema": "http://schemas.nationella-riktlinjer.se/nrb-concept.2.schema.json",
  "slug": "fine-texture-iso-6707-12017",
  "language": "en",
  "term": "fine texture",
  "source": "ISO 6707-1:2017",
  "source_long": "ISO 6707-1:2017 Buildings and civil engineering works – Vocabulary – Part 1: General terms, 3.4.3.8",
  "definition": "texture in sawn timber (3.4.3.18) with relatively small cells, or relatively narrow, regular growth rings, or both",
  "comment": "Note 1 to entry: For limits of these features, see the relevant rule(s) for grading. \r\n[SOURCE: ISO 24294:2013, 11.12, modified — Note 1 to entry was deleted.] ",
  "contributors": [
    {
      "name": "Klas Eckerberg",
      "linkedin": "https://www.linkedin.com/in/klaseckerberg/"
    }
  ]
}