{
  "id": "c02aa700-78f0-47d8-9dd7-83dd1e9cd21e",
  "_schema": "http://schemas.nationella-riktlinjer.se/nrb-concept.2.schema.json",
  "slug": "float-operated-valve-iso-6707-12017",
  "language": "en",
  "term": "float-operated valve",
  "source": "ISO 6707-1:2017",
  "source_long": "ISO 6707-1:2017 Buildings and civil engineering works – Vocabulary – Part 1: General terms, 3.3.4.56",
  "definition": "valve (3.3.4.54) that controls the flow (3.7.3.41) of liquid into a vessel and is operated by an arm connected to a float",
  "contributors": [
    {
      "name": "Klas Eckerberg",
      "linkedin": "https://www.linkedin.com/in/klaseckerberg/"
    }
  ]
}