{
  "id": "f2519680-5c58-4591-953d-12ed6d291380",
  "_schema": "http://schemas.nationella-riktlinjer.se/nrb-concept.2.schema.json",
  "slug": "footbridge-iso-6707-12017",
  "language": "en",
  "term": "footbridge",
  "source": "ISO 6707-1:2017",
  "source_long": "ISO 6707-1:2017 Buildings and civil engineering works – Vocabulary – Part 1: General terms, 3.1.3.32",
  "definition": "bridge (3.1.3.19) for the use of pedestrians",
  "contributors": [
    {
      "name": "Klas Eckerberg",
      "linkedin": "https://www.linkedin.com/in/klaseckerberg/"
    }
  ]
}