{
  "id": "75dd40fa-2661-4f64-90c0-d507774d47ac",
  "_schema": "http://schemas.nationella-riktlinjer.se/nrb-concept.2.schema.json",
  "slug": "forebyggande-underhall-ss-en-133062010",
  "language": "sv",
  "term": "förebyggande underhåll",
  "source": "SS-EN 13306:2010",
  "source_long": "SS-EN 13306:2010, Underhåll – Terminologi, 7.1",
  "definition": "underhåll som genomförs vid förutbestämda intervall eller enligt förutbestämda kriterier och i avsikt att minska sannolikheten för fel eller degradering av en enhets funktion",
  "contributors": [
    {
      "name": "Klas Eckerberg",
      "linkedin": "https://www.linkedin.com/in/klaseckerberg/"
    }
  ],
  "synonyms": [
    "forebyggande-underhall-ss-en-133062010-en"
  ]
}