{
  "id": "c46eb5f6-a766-4b7f-b804-af2a79dbd0e4",
  "_schema": "http://schemas.nationella-riktlinjer.se/nrb-concept.2.schema.json",
  "slug": "fornybar-resurs-iso-219302017",
  "language": "sv",
  "term": "förnybar resurs",
  "source": "ISO 21930:2017",
  "source_long": "ISO 21930:2017, Sustainability in buildings and civil engineering works – Core rules for environmental product declarations of construction products and services, 3.6.2",
  "definition": "",
  "contributors": [
    {
      "name": "Klas Eckerberg",
      "linkedin": "https://www.linkedin.com/in/klaseckerberg/"
    }
  ],
  "synonyms": [
    "fornybar-resurs-iso-219302017-en"
  ]
}