{
  "id": "0d1c4da8-320f-431c-b743-dd939b7eeea9",
  "_schema": "http://schemas.nationella-riktlinjer.se/nrb-concept.2.schema.json",
  "slug": "fornybar-resurs-iso-21929-12011-en",
  "language": "en",
  "term": "renewable resource",
  "source": "ISO 21929-1:2011",
  "source_long": "ISO 21929-1:2011 Sustainability in building construction – Sustainability indicators – Part 1: Framework for the development of indicators and a core set of indicators for buildings, 3.28",
  "definition": "resource that is grown, naturally replenished or cleansed on a human time scale",
  "comment": "EXAMPLE: Trees in forests, grasses in grasslands and fertile soil. \r\nNote 1 to entry: A renewable resource is capable of being exhausted but can last indefinitely with proper stewardship. \r\n[SOURCE: ISO 21930:2007]",
  "contributors": [
    {
      "name": "Klas Eckerberg",
      "linkedin": "https://www.linkedin.com/in/klaseckerberg/"
    }
  ],
  "synonyms": [
    "fornybar-resurs-iso-21929-12011"
  ]
}