{
  "id": "c46eb5f6-a766-4b7f-b804-af2a79dbd0e4",
  "_schema": "http://schemas.nationella-riktlinjer.se/nrb-concept.2.schema.json",
  "slug": "fornybar-resurs-iso-219302017-en",
  "language": "en",
  "term": "renewable resource",
  "source": "ISO 21930:2017",
  "source_long": "ISO 21930:2017 Sustainability in buildings and civil engineering works – Core rules for environmental product declarations of construction products and services, 3.6.2",
  "definition": "resource that is grown, naturally replenished or cleansed on a human time scale",
  "comment": "EXAMPLE: Trees in forests, grasses in grasslands and fertile soil, wind.\r\nNote 1 to entry: A renewable resource is capable of being exhausted but can last indefinitely with proper stewardship.\r\nNote 2 to entry: Activities that occur in the technosphere such as recycling are not considered natural replenishment or cleansing. Note 3 to entry: In this context, human time scale refers to the typical life time of a human rather than the time humans have been in existence.\r\n[SOURCE: ISO 21931-1:2010, 3.12, modified - Notes 2 and 3 to entry have been added.",
  "contributors": [
    {
      "name": "Klas Eckerberg",
      "linkedin": "https://www.linkedin.com/in/klaseckerberg/"
    }
  ],
  "synonyms": [
    "fornybar-resurs-iso-219302017"
  ]
}