{
  "id": "297c144c-ee42-4bb3-ac5c-d0f99d296973",
  "_schema": "http://schemas.nationella-riktlinjer.se/nrb-concept.2.schema.json",
  "slug": "forsakringsreservdel-ss-en-133062010",
  "language": "sv",
  "term": "försäkringsreservdel",
  "source": "SS-EN 13306:2010",
  "source_long": "SS-EN 13306:2010, Underhåll – Terminologi, 3.6",
  "definition": "reservdel som normalt inte behöver användas under den tänkta livslängden för en enhet men vars avsaknad skulle innebära en oacceptabel stilleståndstid vid anskaffning",
  "comment": "Anm. till termpost: Om försäkringsreservdelen är kostsam så kan den för bokföringsändamål betraktas som en kapitaltillgång.",
  "contributors": [
    {
      "name": "Klas Eckerberg",
      "linkedin": "https://www.linkedin.com/in/klaseckerberg/"
    }
  ],
  "synonyms": [
    "forsakringsreservdel-ss-en-133062010-en"
  ]
}