{
  "id": "3338c560-f467-4b6e-acfc-ea77df713471",
  "_schema": "http://schemas.nationella-riktlinjer.se/nrb-concept.2.schema.json",
  "slug": "framework-isots-129112012",
  "language": "en",
  "term": "framework",
  "source": "ISO/TS 12911:2012",
  "source_long": "ISO/TS 12911:2012 Framework for building information\r modelling (BIM) guidance, 3.1",
  "definition": "structure of processes and specifications designed to support the accomplishment of a specific task",
  "comment": "[ISO/IEEE 11073-10201:2004, definition 3.22]",
  "contributors": [
    {
      "name": "Klas Eckerberg",
      "linkedin": "https://www.linkedin.com/in/klaseckerberg/"
    }
  ]
}