{
  "id": "c5fa012b-80b6-4aab-bb1c-9fa8e1f61d8c",
  "_schema": "http://schemas.nationella-riktlinjer.se/nrb-concept.2.schema.json",
  "slug": "framed-building-curtain-wall-building-us-iso-6707-12017",
  "language": "en",
  "term": "framed building\r\ncurtain wall building, US",
  "source": "ISO 6707-1:2017",
  "source_long": "ISO 6707-1:2017 Buildings and civil engineering works – Vocabulary – Part 1: General terms, 3.1.4.14",
  "definition": "building (3.1.1.3) that relies wholly or mainly on a frame (3.3.1.70) rather than on loadbearing walls (3.3.2.46) for strength and stability",
  "contributors": [
    {
      "name": "Klas Eckerberg",
      "linkedin": "https://www.linkedin.com/in/klaseckerberg/"
    }
  ]
}