{
  "id": "f481f171-df21-4d6e-95dc-4ea85cde9a66",
  "_schema": "http://schemas.nationella-riktlinjer.se/nrb-concept.2.schema.json",
  "slug": "frogs-eye-perspective-iso-102092012",
  "language": "en",
  "term": "frog's eye perspective",
  "source": "ISO 10209:2012",
  "source_long": "ISO 10209:2012 Technical product documentation – Vocabulary – Terms relating to technical drawings, product definition and related documentation, 3.2",
  "definition": "one-point perspective, seen from beneath, on a horizontal projection plane",
  "contributors": [
    {
      "name": "Klas Eckerberg",
      "linkedin": "https://www.linkedin.com/in/klaseckerberg/"
    }
  ]
}