{
  "id": "bb7731de-993e-4184-b5dc-8b152639e476",
  "_schema": "http://schemas.nationella-riktlinjer.se/nrb-concept.2.schema.json",
  "slug": "function-diagram-iso-298452011",
  "language": "en",
  "term": "function diagram",
  "source": "ISO 29845:2011",
  "source_long": "ISO 29845:2011 Technical product documentation – Document types, 3.2.25",
  "definition": "diagram providing information about the functional behaviour of a system",
  "comment": "[ISO 15519-1:2010, 3.2.7]",
  "contributors": [
    {
      "name": "Klas Eckerberg",
      "linkedin": "https://www.linkedin.com/in/klaseckerberg/"
    }
  ]
}