{
  "id": "be265cc6-f999-4608-ad57-8e5ea5c36187",
  "_schema": "http://schemas.nationella-riktlinjer.se/nrb-concept.2.schema.json",
  "slug": "funktionell-ekvivalent-iso-21931-12010-en",
  "language": "en",
  "term": "functional equivalent",
  "source": "ISO 21931-1:2010",
  "source_long": "ISO 21931-1:2010 Sustainability in building construction – Framework for methods of assessment of the environmental performance of construction works – Part 1: Buildings, 3.9",
  "definition": "quantified fuctional requirements and/or technical requirements for a civil engineering works for use as a reference unit",
  "contributors": [
    {
      "name": "Klas Eckerberg",
      "linkedin": "https://www.linkedin.com/in/klaseckerberg/"
    }
  ],
  "synonyms": [
    "funktionell-ekvivalent-iso-21931-12010"
  ]
}