{
  "id": "d22b8cad-cd18-43d8-b32b-917e36c7290d",
  "_schema": "http://schemas.nationella-riktlinjer.se/nrb-concept.2.schema.json",
  "slug": "general-specification-iso-6707-22017",
  "language": "en",
  "term": "general specification",
  "source": "ISO 6707-2:2017",
  "source_long": "ISO 6707-2:2017 Buildings and civil engineering works – Vocabulary – Part 2: Contract and communication terms, 3.2.24",
  "definition": "assembly of standard specifications (3.2.22) for buildings and civil engineering works, setting out the technical performance and characteristics required for the generality of projects",
  "contributors": [
    {
      "name": "Klas Eckerberg",
      "linkedin": "https://www.linkedin.com/in/klaseckerberg/"
    }
  ]
}