{
  "id": "32a7050c-99cc-4c46-b3dd-919644f5e394",
  "_schema": "http://schemas.nationella-riktlinjer.se/nrb-concept.2.schema.json",
  "slug": "genomsnittsdata-iso-219302017",
  "language": "sv",
  "term": "genomsnittsdata",
  "source": "ISO 21930:2017",
  "source_long": "ISO 21930:2017, Sustainability in buildings and civil engineering works – Core rules for environmental product declarations of construction products and services, 3.5.6",
  "definition": "data baserat på ett fullt representativt prov eller urval för en byggprodukt eller byggtjänst, erhållet av en eller fler leverantörer, antingen från flera tillverkningsplatser eller baserat på flera liknande byggprodukter från leverantören",
  "contributors": [
    {
      "name": "Klas Eckerberg",
      "linkedin": "https://www.linkedin.com/in/klaseckerberg/"
    }
  ],
  "synonyms": [
    "genomsnittsdata-iso-219302017-en"
  ]
}