{
  "id": "2870dbdd-ac9d-e261-43e8-971145b65f11",
  "_schema": "http://schemas.nationella-riktlinjer.se/nrb-concept.2.schema.json",
  "slug": "geodesi-lantmateriet",
  "language": "sv",
  "term": "geodesi",
  "source": "Lantmäteriet",
  "definition": "Läran om jordens form och uppmätning.",
  "links": [
    {
      "name": "Lantmäteriet",
      "uri": "https://www.lantmateriet.se/contentassets/09beca90518544ec8ba14f17305e7f6f/ramverk-for-nationella-geodata-i-3d.pdf"
    }
  ]
}