{
  "id": "1fe29c7f-340b-e9f5-58f2-f463edf9cbb7",
  "_schema": "http://schemas.nationella-riktlinjer.se/nrb-concept.2.schema.json",
  "slug": "geodataradet-lantmateriet-ramverk-nationella-geodata-i-3d",
  "language": "sv",
  "term": "geodatarådet",
  "source": "Lantmäteriet",
  "definition": "Geodatarådet ger råd i frågor som rör Lantmäteriets samordningsroll för geodata.",
  "comment": "Lantmäteriet, Ramverk Nationella geodata i 3D",
  "links": [
    {
      "name": "Lantmäteriet",
      "uri": "https://www.lantmateriet.se/contentassets/09beca90518544ec8ba14f17305e7f6f/ramverk-for-nationella-geodata-i-3d.pdf"
    }
  ]
}