{
  "id": "cabdafac-69c9-b2a0-cd96-9c6c8fdb2d1f",
  "_schema": "http://schemas.nationella-riktlinjer.se/nrb-concept.2.schema.json",
  "slug": "geometrimodell-bygghandlingar-90-del-8-en",
  "language": "en",
  "term": "Geometry model",
  "source": "Bygghandlingar 90 del 8, omarbetad utgåva",
  "definition": "Model based on graphics to be shown on drawings and on screen. They can be planar models (2-dimensional), which depict plans, facades or sections or volume models (3-dimensional), which may consist of threads, surfaces or solids.",
  "links": [
    {
      "name": "Bygghandlingar 90 del 8, omarbetad utgåva",
      "uri": "http://www.bygghandlingar90.se"
    }
  ],
  "synonyms": [
    "geometrimodell-bygghandlingar-90-del-8"
  ]
}