{
  "id": "4a64e9c4-fc37-45eb-8382-b3bad15157d5",
  "_schema": "http://schemas.nationella-riktlinjer.se/nrb-concept.2.schema.json",
  "slug": "godkannande-ss-en-82045-12001",
  "language": "sv",
  "term": "godkännande",
  "source": "SS-EN 82045-1:2001",
  "source_long": "SS-EN 82045-1:2001, Dokumenthantering – Del 1: Principer och metoder, 3.4.3",
  "definition": "behörig bekräftelse att någonting överensstämmer med förut angivna fordringar",
  "contributors": [
    {
      "name": "Klas Eckerberg",
      "linkedin": "https://www.linkedin.com/in/klaseckerberg/"
    }
  ],
  "synonyms": [
    "godkannande-ss-en-82045-12001-en"
  ]
}