{
  "id": "cd876312-6761-440c-b47b-d79d990a5faa",
  "_schema": "http://schemas.nationella-riktlinjer.se/nrb-concept.2.schema.json",
  "slug": "graded-filter-filter-bed-us-leaching-field-us-iso-6707-1",
  "language": "en",
  "term": "graded filter\r\nfilter bed, US\r\nleaching field, US",
  "source": "ISO 6707-1:2017",
  "source_long": "ISO 6707-1:2017 Buildings and civil engineering works – Vocabulary – Part 1: General terms, 3.3.4.45",
  "definition": "filter that consists of layers of coarse gravel, fine gravel, coarse sand, and fine sand arranged over one another so that a liquid flowing through one material (3.4.1.2) does not carry it into the next to clog it",
  "contributors": [
    {
      "name": "Klas Eckerberg",
      "linkedin": "https://www.linkedin.com/in/klaseckerberg/"
    }
  ]
}