{
  "id": "ac17f239-c624-4857-a54b-b9318408a122",
  "_schema": "http://schemas.nationella-riktlinjer.se/nrb-concept.2.schema.json",
  "slug": "gtin-gs1",
  "language": "sv",
  "term": "global trade item number",
  "inflections": ["GTIN-koder", "artikelnummer", "GTIN-koderna"],
  "abbrevation": "GTIN",
  "source": "GS1",
  "definition": "GTIN (Global Trade Item Number, GS1-artikelnummer) används för att ge artiklar, förpackningar och tjänster unika artikelnummer. Genom att överföra GTIN till en streckkod kan numret läsas av med en skanner. Artikelnumret kan öven kopplas samman med med information om artikeln i en databas. När en artikel numreras med GTIN får den ett unikt artikelnummer som aldrig är detsamma som ett artikelnummer från en annan leverantör.",
  "links": [
    {
      "name": "GS1",
      "uri": "https://www.gs1.se/"
    }
  ]
}