{
  "id": "ea0ae495-bcb6-4da7-941d-7c596cd80e4f",
  "_schema": "http://schemas.nationella-riktlinjer.se/nrb-concept.2.schema.json",
  "slug": "heating-ventilation-and-air-conditioning-drawing-hvac-draw",
  "language": "en",
  "term": "heating, ventilation and air-conditioning drawing, HVAC drawing",
  "source": "ISO 10209:2012",
  "source_long": "ISO 10209:2012 Technical product documentation – Vocabulary – Terms relating to technical drawings, product definition and related documentation, 11.87",
  "definition": "drawing which shows systems for heating, ventilation, air-conditioning, cooling and heating pump, etc.",
  "contributors": [
    {
      "name": "Klas Eckerberg",
      "linkedin": "https://www.linkedin.com/in/klaseckerberg/"
    }
  ]
}