{
  "id": "79657018-6465-4296-a1da-3f5f1ff3567b",
  "_schema": "http://schemas.nationella-riktlinjer.se/nrb-concept.2.schema.json",
  "slug": "height-iso-6707-12017",
  "language": "en",
  "term": "height",
  "source": "ISO 6707-1:2017",
  "source_long": "ISO 6707-1:2017 Buildings and civil engineering works – Vocabulary – Part 1: General terms, 3.7.2.36",
  "definition": "vertical dimension (3.7.2.1) above a horizontal reference level (3.7.2.39)",
  "contributors": [
    {
      "name": "Klas Eckerberg",
      "linkedin": "https://www.linkedin.com/in/klaseckerberg/"
    }
  ]
}