{
  "id": "9a233310-fc63-431e-a8b2-912fda9ccd90",
  "_schema": "http://schemas.nationella-riktlinjer.se/nrb-concept.2.schema.json",
  "slug": "highway-parkway-us-freeway-us-iso-6707-12017",
  "language": "en",
  "term": "highway\r\nparkway, US\r\nfreeway, US",
  "source": "ISO 6707-1:2017",
  "source_long": "ISO 6707-1:2017 Buildings and civil engineering works – Vocabulary – Part 1: General terms, 3.1.3.34",
  "definition": "way over which the public has the right to pass, this right possibly being restricted to specific classes of traffic (3.8.5)",
  "comment": "Note 1 to entry: In the US, there is a homograph for the term “parkway”. See 3.1.3.37.\r\nNote 2 to entry: In the US, there is a homograph for the term “freeway”. See 3.1.3.37.",
  "contributors": [
    {
      "name": "Klas Eckerberg",
      "linkedin": "https://www.linkedin.com/in/klaseckerberg/"
    }
  ]
}