{
  "id": "728469c1-c9d8-4472-8bc9-16f2d94e4e1c",
  "_schema": "http://schemas.nationella-riktlinjer.se/nrb-concept.2.schema.json",
  "slug": "huvudplan-for-informationsleveranser-isodis-19650-222018-en",
  "language": "en",
  "term": "master information delivery plan\r\nMIDP",
  "source": "ISO/DIS 19650-2.2:2018",
  "source_long": "ISO/DIS 19650-2.2:2018 Information management using building information modelling –\r Part 2: Delivery phase of the assets, 3.3.2",
  "definition": "plan incorporating all relevant task information delivery plans",
  "contributors": [
    {
      "name": "Klas Eckerberg",
      "linkedin": "https://www.linkedin.com/in/klaseckerberg/"
    }
  ],
  "synonyms": [
    "huvudplan-for-informationsleveranser-isodis-19650-222018"
  ]
}