{
  "id": "919b1a23-28c9-41fa-a4f4-079ad8cfd37a",
  "_schema": "http://schemas.nationella-riktlinjer.se/nrb-concept.2.schema.json",
  "slug": "hydraulic-gradient-iso-6707-12017",
  "language": "en",
  "term": "hydraulic gradient",
  "source": "ISO 6707-1:2017",
  "source_long": "ISO 6707-1:2017 Buildings and civil engineering works – Vocabulary – Part 1: General terms, 3.7.3.55",
  "definition": "profile of the free surface of flowing water in a channel (3.3.4.16) or of a line connecting points to which flowing water in a closed conduit (3.3.4.14) would rise in open pipes (3.3.4.17), extending upwards from the conduit",
  "contributors": [
    {
      "name": "Klas Eckerberg",
      "linkedin": "https://www.linkedin.com/in/klaseckerberg/"
    }
  ]
}