{
  "id": "768e26a7-575c-4f22-a9c6-8bcc42c422f6",
  "_schema": "http://schemas.nationella-riktlinjer.se/nrb-concept.2.schema.json",
  "slug": "icke-fornybar-resurs-iso-219302017",
  "language": "sv",
  "term": "icke förnybar resurs",
  "source": "ISO 21930:2017",
  "source_long": "ISO 21930:2017, Sustainability in buildings and civil engineering works – Core rules for environmental product declarations of construction products and services, 3.6.3",
  "definition": "",
  "contributors": [
    {
      "name": "Klas Eckerberg",
      "linkedin": "https://www.linkedin.com/in/klaseckerberg/"
    }
  ],
  "synonyms": [
    "icke-fornybar-resurs-iso-219302017-en"
  ]
}