{
  "id": "11cfd414-f186-43c3-a889-4c657fec2262",
  "_schema": "http://schemas.nationella-riktlinjer.se/nrb-concept.2.schema.json",
  "slug": "identification-system-en-62507-12011",
  "language": "en",
  "term": "identification system",
  "source": "EN 62507-1:2011",
  "source_long": "EN 62507-1:2011 Identification systems enabling unambiguous information interchange – Requirements – Part 1: Principles and methods, 3.7",
  "definition": "system of defined and documented rules and procedures within an organization aiming at the unambiguous identification and retrieval of any object of interest by applying an identification scheme",
  "contributors": [
    {
      "name": "Klas Eckerberg",
      "linkedin": "https://www.linkedin.com/in/klaseckerberg/"
    }
  ]
}