{
  "id": "d2325f11-4f67-433b-a778-b19412b09998",
  "_schema": "http://schemas.nationella-riktlinjer.se/nrb-concept.2.schema.json",
  "slug": "identity-en-62507-12011",
  "language": "en",
  "term": "identity",
  "source": "EN 62507-1:2011",
  "source_long": "EN 62507-1:2011 Identification systems enabling unambiguous information interchange – Requirements – Part 1: Principles and methods, 3.9",
  "definition": "established relation between an object and an identification number",
  "contributors": [
    {
      "name": "Klas Eckerberg",
      "linkedin": "https://www.linkedin.com/in/klaseckerberg/"
    }
  ]
}