{
  "id": "91c2c603-4160-4051-ac14-454d9712a8f0",
  "_schema": "http://schemas.nationella-riktlinjer.se/nrb-concept.2.schema.json",
  "slug": "identifierare-ss-en-81346-12010",
  "language": "sv",
  "term": "identifierare",
  "source": "SS-EN 81346-1:2010",
  "source_long": "SS-EN 81346-1:2010, Industriella system, installationer och utrustning och industriella produkter – Struktureringsprinciper och referensbeteckningar – Del 1: Grundläggande regler, 3.10",
  "definition": "attribut förknippat med ett objekt för att entydigt skilja det från andra objekt inom en angiven domän",
  "contributors": [
    {
      "name": "Klas Eckerberg",
      "linkedin": "https://www.linkedin.com/in/klaseckerberg/"
    }
  ],
  "synonyms": [
    "identifierare-ss-en-81346-12010-en"
  ]
}