{
  "id": "c75f5eae-2adb-4aec-ac67-145c3bcbb5fb",
  "_schema": "http://schemas.nationella-riktlinjer.se/nrb-concept.2.schema.json",
  "slug": "identifikation-ifc-4-en",
  "language": "en",
  "term": "identification",
  "source": "IFC 4",
  "source_long": "IFC 4 Industry Foundation Classes Release 4, ",
  "definition": "capability to find, retrieve, report, change, or delete specific instances without ambiguity",
  "contributors": [
    {
      "name": "Klas Eckerberg",
      "linkedin": "https://www.linkedin.com/in/klaseckerberg/"
    }
  ],
  "synonyms": [
    "identifikation-ifc-4"
  ]
}