{
  "id": "cedf7754-348d-4438-a881-0925692ad49c",
  "_schema": "http://schemas.nationella-riktlinjer.se/nrb-concept.2.schema.json",
  "slug": "impact-load-iso-6707-12017",
  "language": "en",
  "term": "impact load",
  "source": "ISO 6707-1:2017",
  "source_long": "ISO 6707-1:2017 Buildings and civil engineering works – Vocabulary – Part 1: General terms, 3.7.3.27",
  "definition": "imposed load (3.7.3.19) suddenly applied",
  "contributors": [
    {
      "name": "Klas Eckerberg",
      "linkedin": "https://www.linkedin.com/in/klaseckerberg/"
    }
  ]
}