{
  "id": "49da6ed9-acde-47d7-b5b7-2da9b97280c4",
  "_schema": "http://schemas.nationella-riktlinjer.se/nrb-concept.2.schema.json",
  "slug": "indikator-isots-21929-22015-en",
  "language": "en",
  "term": "indicator",
  "source": "ISO/TS 21929-2:2015",
  "source_long": "ISO/TS 21929-2:2015 Sustainability in building construction – Sustainability indicators – Part 2: Framework for the development of indicators for civil engineering works, 3.18",
  "definition": "quantitative, qualitative or descriptive measure representing one or more impact categories",
  "comment": "Note 1 to entry: Periodic evaluation and monitoring using indicators can show direction of any impact. [SOURCE: ISO 14040:2006, 3.40; modified and adapted to civil engineering works]",
  "contributors": [
    {
      "name": "Klas Eckerberg",
      "linkedin": "https://www.linkedin.com/in/klaseckerberg/"
    }
  ],
  "synonyms": [
    "indikator-isots-21929-22015"
  ]
}