{
  "id": "2475ecb2-5120-4d61-8414-6c74032e7545",
  "_schema": "http://schemas.nationella-riktlinjer.se/nrb-concept.2.schema.json",
  "slug": "individ-ss-en-81346-12010",
  "language": "sv",
  "term": "individ",
  "source": "SS-EN 81346-1:2010",
  "source_long": "SS-EN 81346-1:2010, Industriella system, installationer och utrustning och industriella produkter – Struktureringsprinciper och referensbeteckningar – Del 1: Grundläggande regler, -",
  "definition": "ett exemplar av en typ, oberoende av var den används",
  "comment": "Individer identifieras genom serienummer, som hänger samman med tillverkningen av individerna eller genom inventarienummer som hänger samman med den organisation som använder dem.\r\nANM 1 – Även om det vid ett visst tillfälle bara finns ett exemplar av en typ, är det för att underlätta framtida återanvändning ofta fördelaktigt att skilja mellan den information som associeras till den möjliga typen och den som associeras till det faktiska exemplaret.\r\nANM 2 – Varje anläggning eller system som är sammansatt till en förekomst har potentialen att i framtiden också bli en typ. Så är fallet när den kopieras och sätts samman till en andra förekomst.\r\nANM 3 – Beteckningar för en individ följer objektet och är därför fästa vid detta.\r\n[Beskrivet under 4.8, men ej som formell definition.]",
  "contributors": [
    {
      "name": "Klas Eckerberg",
      "linkedin": "https://www.linkedin.com/in/klaseckerberg/"
    }
  ],
  "synonyms": [
    "individ-ss-en-81346-12010-en"
  ]
}