{
  "id": "56488bcb-6f6e-4e6d-a27e-3f0fe8ea54a5",
  "_schema": "http://schemas.nationella-riktlinjer.se/nrb-concept.2.schema.json",
  "slug": "industry-foundation-classes-iso-16739-12018-en",
  "language": "en",
  "term": "industry foundation classes",
  "abbrevation" : "IFC",
  "source": "ISO 16739-1:2018",
  "definition": "The Industry Foundation Classes, IFC, are an open international standard for Building Information Model (BIM) data that are exchanged and shared among software applications used by the various participants in the construction or facility management industry sector. The standard includes definitions that cover data required for buildings over their life cycle. This release, and upcoming releases, extend the scope to include data definitions for infrastructure assets over their life cycle as well.",
  "synonyms": [
    "industry-foundation-classes-iso-16739-12018"
  ]
}