{
  "id": "631fdf4c-8b57-7526-ba13-aa5040558ff5",
  "_schema": "http://schemas.nationella-riktlinjer.se/nrb-concept.2.schema.json",
  "slug": "informationsprocess-bygghandlings-90-del-8-en",
  "language": "en",
  "term": "Information process",
  "source": "Bygghandlingar 90 del 8, omarbetad utgåva",
  "definition": "Process where input and outcome are data in the form of models or documents (information amounts)",
  "links": [
    {
      "name": "Bygghandlingar 90 del 8, omarbetad utgåva",
      "uri": "http://www.bygghandlingar90.se"
    }
  ],
  "synonyms": [
    "informationsprocess-bygghandlings-90-del-8"
  ]
}