{
  "id": "ae704088-fcdb-3d70-cd6f-72016aef7596",
  "_schema": "http://schemas.nationella-riktlinjer.se/nrb-concept.2.schema.json",
  "slug": "informationsleverans-bygghandlingar-90-del-8",
  "language": "sv",
  "term": "Informationsleverans",
  "source": "Bygghandlingar 90 del 8, omarbetad utgåva",
  "definition": "Innebär utväxling av ett antal informationsmängder med bestämt innehåll.",
  "links": [
    {
      "name": "Bygghandlingar 90 del 8, omarbetad utgåva",
      "uri": "http://www.bygghandlingar90.se"
    }
  ],
  "synonyms": [
    "informationsleverans-bygghandlingar-90-del-8-en"
  ]
}