{
  "id": "0fab5ac7-5f01-4f55-8388-98b4ab8acef8",
  "_schema": "http://schemas.nationella-riktlinjer.se/nrb-concept.2.schema.json",
  "slug": "information-delivery-manual-idm-isots-129112012",
  "language": "en",
  "term": "information delivery manual\r\nIDM",
  "source": "ISO/TS 12911:2012",
  "source_long": "ISO/TS 12911:2012 Framework for building information\r modelling (BIM) guidance, 3.4",
  "definition": "strategy for identifying the processes, exchange requirements, business rules and functional parts for information exchanges in facility projects",
  "comment": "NOTE See ISO 29481-1:2010.",
  "contributors": [
    {
      "name": "Klas Eckerberg",
      "linkedin": "https://www.linkedin.com/in/klaseckerberg/"
    }
  ]
}