{
  "id": "89333902-f0bd-4cea-a4aa-b2b816398cf5",
  "_schema": "http://schemas.nationella-riktlinjer.se/nrb-concept.2.schema.json",
  "slug": "information-ss-iso-222632008",
  "language": "sv",
  "term": "information",
  "source": "SS-ISO 22263:2008",
  "source_long": "SS-ISO 22263:2008, Strukturering av information om byggnadsverk – Ramverk för hantering av processinformation (ISO 22263:2008, IDT), 2.6",
  "definition": "meningsfulla data",
  "comment": "(ISO 9000:2005, 3.7.1)",
  "contributors": [
    {
      "name": "Klas Eckerberg",
      "linkedin": "https://www.linkedin.com/in/klaseckerberg/"
    }
  ],
  "synonyms": [
    "information-ss-iso-222632008-en"
  ]
}