{
  "id": "1210428b-77e6-430f-b62e-15599ce66865",
  "_schema": "http://schemas.nationella-riktlinjer.se/nrb-concept.2.schema.json",
  "slug": "information-unit-iso-6707-22017",
  "language": "en",
  "term": "information unit",
  "source": "ISO 6707-2:2017",
  "source_long": "ISO 6707-2:2017 Buildings and civil engineering works – Vocabulary – Part 2: Contract and communication terms, 3.2.1",
  "definition": "single piece of information",
  "comment": "EXAMPLE Window identifier (3.2.43), room depth.",
  "contributors": [
    {
      "name": "Klas Eckerberg",
      "linkedin": "https://www.linkedin.com/in/klaseckerberg/"
    }
  ]
}