{
  "id": "2c2e4933-736f-4f84-a11e-5eb52df7cd96",
  "_schema": "http://schemas.nationella-riktlinjer.se/nrb-concept.2.schema.json",
  "slug": "information-constraint-iso-29481-12016",
  "language": "en",
  "term": "information constraint",
  "source": "ISO 29481-1:2016",
  "source_long": "ISO 29481-1:2016 Building information models – Information delivery manual – Part 1:\r\nMethodology and format, 3.5",
  "definition": "statement that formally defines or constrains the scope of a piece of information due to some aspect of\r\nthe business, a rule under which an organisation operates or a policy or decision that influences a process",
  "contributors": [
    {
      "name": "Klas Eckerberg",
      "linkedin": "https://www.linkedin.com/in/klaseckerberg/"
    }
  ]
}