{
  "id": "8d7af599-ba99-4825-96ea-fc5739d0bba9",
  "_schema": "http://schemas.nationella-riktlinjer.se/nrb-concept.2.schema.json",
  "slug": "initial-phase-contract-iso-6707-22017",
  "language": "en",
  "term": "initial phase contract",
  "source": "ISO 6707-2:2017",
  "source_long": "ISO 6707-2:2017 Buildings and civil engineering works – Vocabulary – Part 2: Contract and communication terms, 3.4.9",
  "definition": "contract (3.1.1) for the carrying out of the first phase (3.3.5) of a project in which, if further phases proceed, the same contractor (3.8.6) will be required to carry them out",
  "contributors": [
    {
      "name": "Klas Eckerberg",
      "linkedin": "https://www.linkedin.com/in/klaseckerberg/"
    }
  ]
}