{
  "id": "373e3fe8-fa23-4689-8d5e-819e7b56c331",
  "_schema": "http://schemas.nationella-riktlinjer.se/nrb-concept.2.schema.json",
  "slug": "inmatningstolerans-ti-sis-ts-211442016",
  "language": "sv",
  "term": "inmätningstolerans, Ti",
  "source": "SIS-TS 21144:2016",
  "source_long": "SIS-TS 21144:2016, Byggmätning – Specifikationer vid framställning och kontroll av digitala markmodeller, 3.4",
  "definition": "toleranser vid inmätning enligt principer i HMK-Ge:D.F.",
  "contributors": [
    {
      "name": "Klas Eckerberg",
      "linkedin": "https://www.linkedin.com/in/klaseckerberg/"
    }
  ]
}