{
  "id": "6d997973-646a-4992-b804-0da1927dead1",
  "_schema": "http://schemas.nationella-riktlinjer.se/nrb-concept.2.schema.json",
  "slug": "interim-valuation-iso-6707-22017",
  "language": "en",
  "term": "interim valuation",
  "source": "ISO 6707-2:2017",
  "source_long": "ISO 6707-2:2017 Buildings and civil engineering works – Vocabulary – Part 2: Contract and communication terms, 3.5.50",
  "definition": "interim statement agreed between the parties of the value of construction work carried out or materials recorded at a certain date and sums of money payable as a result",
  "contributors": [
    {
      "name": "Klas Eckerberg",
      "linkedin": "https://www.linkedin.com/in/klaseckerberg/"
    }
  ]
}