{
  "id": "04d6210e-3936-4193-8133-db7dd1d20a1b",
  "_schema": "http://schemas.nationella-riktlinjer.se/nrb-concept.2.schema.json",
  "slug": "interconnection-diagram-iso-102092012",
  "language": "en",
  "term": "interconnection diagram",
  "source": "ISO 10209:2012",
  "source_long": "ISO 10209:2012 Technical product documentation – Vocabulary – Terms relating to technical drawings, product definition and related documentation, 11.9",
  "definition": "diagram representing the connections between the different units of an installation",
  "comment": "[ISO 3511-3:1984]",
  "contributors": [
    {
      "name": "Klas Eckerberg",
      "linkedin": "https://www.linkedin.com/in/klaseckerberg/"
    }
  ]
}