{
  "id": "6d768ff2-dcfa-4141-ad00-5c952984d7da",
  "_schema": "http://schemas.nationella-riktlinjer.se/nrb-concept.2.schema.json",
  "slug": "integrerade-tekniska-system-iso-219302017-en",
  "language": "en",
  "term": "integrated technical systems",
  "source": "ISO 21930:2017",
  "source_long": "ISO 21930:2017 Sustainability in buildings and civil engineering works – Core rules for environmental product declarations of construction products and services, 3.2.4",
  "definition": "installed technical equipment to support the operation of construction works",
  "comment": "Note 1 to entry: This includes technical equipment for heating, cooling, ventilation, domestic hot water, lighting and electricity production.\r\nNote 2 to entry: This can include technical systems that are integrated into construction products, such as interfaces for electronic controls.\r\nNote 3 to entry: Derived from the definition of \"technical building systems\" in ISO 16818:2008, 3.225.",
  "contributors": [
    {
      "name": "Klas Eckerberg",
      "linkedin": "https://www.linkedin.com/in/klaseckerberg/"
    }
  ],
  "synonyms": [
    "integrerade-tekniska-system-iso-219302017"
  ]
}