{
  "id": "8f6e3b5c-a6b1-4de7-a1c7-f09c7c9cc716",
  "_schema": "http://schemas.nationella-riktlinjer.se/nrb-concept.2.schema.json",
  "slug": "interaction-framework-iso-29481-12016",
  "language": "en",
  "term": "interaction framework",
  "source": "ISO 29481-1:2016",
  "source_long": "ISO 29481-1:2016 Building information models – Information delivery manual – Part 1:\r\nMethodology and format, 3.14",
  "definition": "formal description of the elements of interaction, including definition of roles, transactions, messages in transaction, and data elements in messages",
  "contributors": [
    {
      "name": "Klas Eckerberg",
      "linkedin": "https://www.linkedin.com/in/klaseckerberg/"
    }
  ]
}