{
  "id": "31afd611-6791-40f8-be56-2bc252e2ef7e",
  "_schema": "http://schemas.nationella-riktlinjer.se/nrb-concept.2.schema.json",
  "slug": "intressent-iso-21929-12011",
  "language": "sv",
  "term": "intressent",
  "source": "ISO 21929-1:2011",
  "source_long": "ISO 21929-1:2011, Sustainability in building construction – Sustainability indicators – Part 1: Framework for the development of indicators and a core set of indicators for buildings, 3.32",
  "definition": "",
  "contributors": [
    {
      "name": "Klas Eckerberg",
      "linkedin": "https://www.linkedin.com/in/klaseckerberg/"
    }
  ],
  "synonyms": [
    "intressent-iso-21929-12011-en"
  ]
}