{
  "id": "93663ba0-7669-4733-ace6-631d309509b9",
  "_schema": "http://schemas.nationella-riktlinjer.se/nrb-concept.2.schema.json",
  "slug": "intresseomraden-iso-153922008-en",
  "language": "en",
  "term": "areas of concern",
  "source": "ISO 15392:2008",
  "source_long": "ISO 15392:2008 Sustainability in building construction – General principles, 3.3",
  "definition": "aspect(s) of the economy, the environment or the society that can be impacted by construction works, goods or services",
  "comment": "EXAMPLE: Asset value, cultural heritage, resources, human health and comfort, social infrastructure.",
  "contributors": [
    {
      "name": "Klas Eckerberg",
      "linkedin": "https://www.linkedin.com/in/klaseckerberg/"
    }
  ],
  "synonyms": [
    "intresseomraden-iso-153922008"
  ]
}