{
  "id": "13ebb901-6fab-4a4e-8ac4-53fc39304cd3",
  "_schema": "http://schemas.nationella-riktlinjer.se/nrb-concept.2.schema.json",
  "slug": "intressent-ss-iso-550002014",
  "language": "sv",
  "term": "intressent",
  "source": "SS-ISO 55000:2014",
  "source_long": "SS-ISO 55000:2014, Ledningssystem för tillgångar – Översikt, principer och terminologi, 3.1.22",
  "definition": "person eller organisation (3.1.13) som kan påverka, bli påverkad av eller uppfatta sig bli påverkad av ett beslut eller en åtgärd",
  "comment": "Anm. 1 till termpost: En ”intressent” kan även kallas en ”intresserad part”.",
  "contributors": [
    {
      "name": "Klas Eckerberg",
      "linkedin": "https://www.linkedin.com/in/klaseckerberg/"
    }
  ],
  "synonyms": [
    "intressent-ss-iso-550002014-en"
  ]
}