{
  "id": "608d1f9d-bc6e-daea-c761-881472b7bd36",
  "_schema": "http://schemas.nationella-riktlinjer.se/nrb-concept.2.schema.json",
  "slug": "isotc-211-lantmateriet-ramverk-nationella-geodata-i-3d",
  "language": "sv",
  "term": "ISO/TC 211",
  "source": "Lantmäteriet",
  "definition": "ISO, International Organization for Standardization, är den största utvecklaren av frivilliga internationella standarder. ISO/TC211 - Technical committee, Geographic information/Geomatics där SIS/TK323 är svensk representant.",
  "comment": "Lantmäteriet, Ramverk Nationella geodata i 3D",
  "links": [
    {
      "name": "Lantmäteriet",
      "uri": "http://www.lantmateriet.se/globalassets/om-lantmateriet/var-samverkan-med-andra/3d-projektet/ramverk-for-nationella-geodata-i-3d.pdf"
    }
  ]
}