{
  "id": "e15d2c6a-bda3-4f08-8929-19cd52a65d08",
  "_schema": "http://schemas.nationella-riktlinjer.se/nrb-concept.2.schema.json",
  "slug": "jarnvag-isots-21929-22015",
  "language": "sv",
  "term": "järnväg",
  "source": "ISO/TS 21929-2:2015",
  "source_long": "ISO/TS 21929-2:2015, Sustainability in building construction – Sustainability indicators – Part 2: Framework for the development of indicators for civil engineering works, 3.31",
  "definition": "",
  "contributors": [
    {
      "name": "Klas Eckerberg",
      "linkedin": "https://www.linkedin.com/in/klaseckerberg/"
    }
  ],
  "synonyms": [
    "jarnvag-isots-21929-22015-en"
  ]
}