{
  "id": "1f01d657-eae4-4860-85d1-3b035a7a989a",
  "_schema": "http://schemas.nationella-riktlinjer.se/nrb-concept.2.schema.json",
  "slug": "jointing-connecting-us-iso-6707-12017",
  "language": "en",
  "term": "jointing connecting, US",
  "source": "ISO 6707-1:2017",
  "source_long": "ISO 6707-1:2017 Buildings and civil engineering works – Vocabulary – Part 1: General terms, 3.5.1.35",
  "definition": "process (3.5.2.3) of forming a joint (3.3.5.34)",
  "contributors": [
    {
      "name": "Klas Eckerberg",
      "linkedin": "https://www.linkedin.com/in/klaseckerberg/"
    }
  ]
}