{
  "id": "d107ba6f-8b4d-49cd-8233-abad9de4d746",
  "_schema": "http://schemas.nationella-riktlinjer.se/nrb-concept.2.schema.json",
  "slug": "joint-margin-iso-6707-12017",
  "language": "en",
  "term": "joint margin",
  "source": "ISO 6707-1:2017",
  "source_long": "ISO 6707-1:2017 Buildings and civil engineering works – Vocabulary – Part 1: General terms, 3.7.2.32",
  "definition": "theoretical distance between the joint face (3.3.5.37) of a component (3.4.1.4) and the chosen joint reference plane (3.3.5.40)",
  "contributors": [
    {
      "name": "Klas Eckerberg",
      "linkedin": "https://www.linkedin.com/in/klaseckerberg/"
    }
  ]
}