{
  "id": "3b3a9894-fe71-4bfb-a372-ed20a60d82d6",
  "_schema": "http://schemas.nationella-riktlinjer.se/nrb-concept.2.schema.json",
  "slug": "jordart-statens-geotekniska-institut",
  "language": "sv",
  "term": "Jordart",
  "source": "SGI, Statens Geotekniska Institut",
  "definition": "Mineraljordarnas sammansättning varierar och man delar in dem i jordarter efter kornstorleksfördelning. Vanligen består en jordart av flera kornfraktioner (lera, silt, sand, grus, sten eller block). I exempelvis jordarten \"siltig sand\" dominerar sandfraktionen och silt är näst största fraktion. Man delar även in mineraljord efter konsistens (plasticitet) och tjälfarlighet m.m.",
  "comment": "För mer information, besök:",
  "links": [
    {
      "name": "Statens Geotekniska Institut",
      "uri": "http://www.swedgeo.se/sv/kunskapscentrum/om-geoteknik-och-miljogeoteknik/geoteknik-och-markmiljo/jordmateriallara/lera-och-kvicklera/"
    }
  ]
}