{
  "id": "05028f25-4cc4-474a-8135-d610fc3cc7fc",
  "_schema": "http://schemas.nationella-riktlinjer.se/nrb-concept.2.schema.json",
  "slug": "kapacitet-isodis-19650-122018-en",
  "language": "en",
  "term": "capacity",
  "source": "SS-EN ISO 19650-1:2019",
  "source_long": "ISO/DIS 19650-1.2:2018 Information management using building information modelling –\r Part 1: Concepts and principles, 3.3.19",
  "definition": "means, resources and procedures to manage information",
  "comment": "Note: definitions from existing standards include: “current amount of resource available” [SOURCE ISO/IEC 10164-11:1994, 3.7.1 (adapted)], “resources necessary to execute organizational commitments” [SOURCE ISO 30400:2016, 4.3 (adapted)]",
  "contributors": [
    {
      "name": "Klas Eckerberg",
      "linkedin": "https://www.linkedin.com/in/klaseckerberg/"
    }
  ],
  "synonyms": [
    "kapacitet-isodis-19650-122018"
  ]
}