{
  "id": "75521afc-002c-4009-996a-30db7c45cc27",
  "_schema": "http://schemas.nationella-riktlinjer.se/nrb-concept.2.schema.json",
  "slug": "klass-eu-3052011",
  "language": "sv",
  "term": "klass",
  "source": "EU 305/2011",
  "definition": "en uppsättning nivåer som avgränsas av lägsta och högsta värden för en byggprodukts prestanda",
  "contributors": [
    {
      "name": "Klas Eckerberg",
      "linkedin": "https://www.linkedin.com/in/klaseckerberg/"
    }
  ]
}