{
  "id": "ef1eb07f-f5f3-4e62-89b9-ac4824a71881",
  "_schema": "http://schemas.nationella-riktlinjer.se/nrb-concept.2.schema.json",
  "slug": "knowledge-library-iso-6707-22017",
  "language": "en",
  "term": "knowledge library",
  "source": "ISO 6707-2:2017",
  "source_long": "ISO 6707-2:2017 Buildings and civil engineering works – Vocabulary – Part 2: Contract and communication terms, 3.2.49",
  "definition": "collection of information models (3.2.35) that express knowledge about kinds of things (concepts) and that are stored and retrieved as electronic information",
  "comment": "Note 1 to entry: A knowledge library may include definition models (3.2.34) and requirements models.\r\n[SOURCE: ISO 16354:2013, 3.1.1, modified – Note 1 to entry was deleted; the reference to definition models and requirements models was transferred from the definition to the new Note 1 to entry.]",
  "contributors": [
    {
      "name": "Klas Eckerberg",
      "linkedin": "https://www.linkedin.com/in/klaseckerberg/"
    }
  ]
}