{
  "id": "8a8a23a9-6fe4-4ea8-b228-635ffa9428e6",
  "_schema": "http://schemas.nationella-riktlinjer.se/nrb-concept.2.schema.json",
  "slug": "koldioxidmatt-iso-16745-12017-en",
  "language": "en",
  "term": "carbon metric",
  "source": "ISO 16745-1:2017",
  "source_long": "ISO 16745-1:2017 Sustainability in buildings and civil engineering works – Carbon metric of an existing building during use stage – Part 1: Calculation, reporting and communication, 3.3",
  "definition": "sum of annual greenhouse gas emissions and removals, expressed as CO2 equivalents, associated with the use stage of a building",
  "comment": "Note 1 to entry: For the purposes of this definition, the following terms are used as per their definitions in the following reference documents: greenhouse gas emissions (ISO 14064-1:2006, 2.5), removals (ISO 14064-1:2006, 2.6), CO2 equivalents (ISO 14064-1:2006, 2.19), and building (ISO 6707-1:2004, 3.1.3).",
  "contributors": [
    {
      "name": "Klas Eckerberg",
      "linkedin": "https://www.linkedin.com/in/klaseckerberg/"
    }
  ],
  "synonyms": [
    "koldioxidmatt-iso-16745-12017"
  ]
}