{
  "id": "91315c98-b94f-4ce6-98e0-f1c7b2930553",
  "_schema": "http://schemas.nationella-riktlinjer.se/nrb-concept.2.schema.json",
  "slug": "koldioxidekvivalent-iso-219302017-en",
  "language": "en",
  "term": "CO2 equivalent",
  "source": "ISO 21930:2017",
  "source_long": "ISO 21930:2017 Sustainability in buildings and civil engineering works – Core rules for environmental product declarations of construction products and services, 3.3.7",
  "definition": "unit for comparing tthat he radiative forcing of a greenhouse gas to that of carbon dioxide",
  "comment": "Note 1 to entry: Mass of a greenhouse gas is converted into CO2e using global warming potentials.\r\nNote 2 to entry: The shortened term, CO2e, is used as the primary preferred term in this document.\r\n[SOURCE: ISO 14050:2009, 9.3.5, modified - Original Note 1 to entry has been clarified and Note 2 to entry has been added.]",
  "contributors": [
    {
      "name": "Klas Eckerberg",
      "linkedin": "https://www.linkedin.com/in/klaseckerberg/"
    }
  ],
  "synonyms": [
    "koldioxidekvivalent-iso-219302017"
  ]
}