{
  "id": "a6c1894a-394a-4d9f-841c-e244e1d044e6",
  "_schema": "http://schemas.nationella-riktlinjer.se/nrb-concept.2.schema.json",
  "slug": "komplementfil-bygghandlingar-90-del-7-utgava-2",
  "language": "sv",
  "term": "Komplementfil",
  "source": "Bygghandlingar 90 del 7 utgåva 2",
  "definition": "Samlingsbeteckning för ritningskomplementfiler och inställningsfiler som knyts till ritningsdefinitionsfil.",
  "links": [
    {
      "name": "Bygghandlingar 90 del 7 utgåva 2",
      "uri": "http://www.bygghandlingar90.se"
    }
  ]
}