{
  "id": "4f7b19f0-4a01-444b-b071-13c6371bcb13",
  "_schema": "http://schemas.nationella-riktlinjer.se/nrb-concept.2.schema.json",
  "slug": "konfiguration-ss-en-82045-12001-en",
  "language": "en",
  "term": "configuration",
  "source": "EN 82045-1:2001",
  "source_long": "EN 82045-1:2001 Document management – Part 1: Principles and methods, 3.4.5",
  "definition": "arrangement of the elements of a system",
  "comment": "[ISO 9000:2000]",
  "contributors": [
    {
      "name": "Klas Eckerberg",
      "linkedin": "https://www.linkedin.com/in/klaseckerberg/"
    }
  ],
  "synonyms": [
    "konfiguration-ss-en-82045-12001"
  ]
}