{
  "id": "4f7b19f0-4a01-444b-b071-13c6371bcb13",
  "_schema": "http://schemas.nationella-riktlinjer.se/nrb-concept.2.schema.json",
  "slug": "konfiguration-ss-en-82045-12001",
  "language": "sv",
  "term": "konfiguration",
  "source": "SS-EN 82045-1:2001",
  "source_long": "SS-EN 82045-1:2001, Dokumenthantering – Del 1: Principer och metoder, 3.4.5",
  "definition": "ordnande av element i ett system ",
  "comment": "[ISO 9000:2000]\r\nANM - Ytterligare definitioner och vägledning beträffande principer och förfaranden avseende konfiguration finns i ISO 10007.",
  "contributors": [
    {
      "name": "Klas Eckerberg",
      "linkedin": "https://www.linkedin.com/in/klaseckerberg/"
    }
  ],
  "synonyms": [
    "konfiguration-ss-en-82045-12001-en"
  ]
}