{
  "id": "f437784e-8743-42e0-9cf1-756b9e4ec196",
  "_schema": "http://schemas.nationella-riktlinjer.se/nrb-concept.2.schema.json",
  "slug": "konsekvens-iso-153922008-en",
  "language": "en",
  "term": "impact",
  "source": "ISO 15392:2008",
  "source_long": "ISO 15392:2008 Sustainability in building construction – General principles, 3.13",
  "definition": "any change that may be adverse or beneficial",
  "contributors": [
    {
      "name": "Klas Eckerberg",
      "linkedin": "https://www.linkedin.com/in/klaseckerberg/"
    }
  ],
  "synonyms": [
    "konsekvens-iso-153922008"
  ]
}