{
  "id": "1780fe83-d5e7-4ea7-97e9-f89cb2b2d55e",
  "_schema": "http://schemas.nationella-riktlinjer.se/nrb-concept.2.schema.json",
  "slug": "konsekvens-isots-21929-22015",
  "language": "sv",
  "term": "konsekvens",
  "source": "ISO/TS 21929-2:2015",
  "source_long": "ISO/TS 21929-2:2015, Sustainability in building construction – Sustainability indicators – Part 2: Framework for the development of indicators for civil engineering works, 3.16",
  "definition": "",
  "contributors": [
    {
      "name": "Klas Eckerberg",
      "linkedin": "https://www.linkedin.com/in/klaseckerberg/"
    }
  ],
  "synonyms": [
    "konsekvens-isots-21929-22015-en"
  ]
}