{
  "id": "fcce6d85-7d54-45a5-b8c8-b60bda714456",
  "_schema": "http://schemas.nationella-riktlinjer.se/nrb-concept.2.schema.json",
  "slug": "konstbyggnad-bygghandlingar-90-del-7-utgava-2",
  "language": "sv",
  "term": "Konstbyggnad",
  "source": "Bygghandlingar 90 del 7 utgåva 2",
  "definition": "Äldre benämning på byggnadsverk vid väg- och vattenbyggnadsarbeten, till exempel broar, kajer, tunnlar, ledningskulvertar, stödmurar, fribärande trappor.",
  "links": [
    {
      "name": "Bygghandlingar 90 del 7 utgåva 2",
      "uri": "http://www.bygghandlingar90.se"
    }
  ]
}