{
  "id": "b230244a-ab05-40ae-926b-203922070ef7",
  "_schema": "http://schemas.nationella-riktlinjer.se/nrb-concept.2.schema.json",
  "slug": "kravd-livslangd-iso-219302017",
  "language": "sv",
  "term": "krävd livslängd",
  "source": "ISO 21930:2017",
  "source_long": "ISO 21930:2017, Sustainability in buildings and civil engineering works – Core rules for environmental product declarations of construction products and services, 3.2.14",
  "definition": "",
  "contributors": [
    {
      "name": "Klas Eckerberg",
      "linkedin": "https://www.linkedin.com/in/klaseckerberg/"
    }
  ],
  "synonyms": [
    "kravd-livslangd-iso-219302017-en"
  ]
}