{
  "id": "ec73a9a2-e7bf-4b41-bc2c-2a7db8298cfa",
  "_schema": "http://schemas.nationella-riktlinjer.se/nrb-concept.2.schema.json",
  "slug": "kritisk-tillgang-ss-iso-550002014-en",
  "language": "en",
  "term": "critical asset",
  "source": "ISO 55000:2014",
  "source_long": "ISO 55000:2014 Asset management – Overview, principles and terminology, 3.2.7",
  "definition": "asset (3.2.1) having potential to significantly impact on the achievement of the organization’s (3.1.13) objectives (3.1.12)",
  "comment": "Note 1 to entry: Assets can be safety-critical, environment-critical or performance-critical (3.1.17) and can relate to legal, regulatory or statutory requirements (3.1.20).\r\nNote 2 to entry: Critical assets can refer to those assets necessary to provide services to critical customers.\r\nNote 3 to entry: Asset systems (3.2.5) can be distinguished as being critical in a similar manner to individual assets.",
  "contributors": [
    {
      "name": "Klas Eckerberg",
      "linkedin": "https://www.linkedin.com/in/klaseckerberg/"
    }
  ],
  "synonyms": [
    "kritisk-tillgang-ss-iso-550002014"
  ]
}