{
  "id": "d562bd1c-47c1-2f58-b5c8-ba16f12369f0",
  "_schema": "http://schemas.nationella-riktlinjer.se/nrb-concept.2.schema.json",
  "slug": "laga-kraft-sis",
  "language": "sv",
  "term": "Laga kraft",
  "source": "SIS",
  "definition": "Tillstånd som innebär att ett beslut av en myndighet eller en domstol inte längre kan överklagas.",
  "links": [
    {
      "name": "SIS",
      "uri": "https://www.sis.se/contentassets/f91a17f266bb49cebb42ee4fc3bc743f/ss-6370402016.pdf"
    }
  ]
}