{
  "id": "3ccf801a-ac0b-418e-bc08-89ad165026c2",
  "_schema": "http://schemas.nationella-riktlinjer.se/nrb-concept.2.schema.json",
  "slug": "landskapsinformation-trafikverket",
  "language": "sv",
  "term": "Landskapsinformation",
  "source": "Trafikverket",
  "definition": "Lägesbestämd information om landskapets naturgivna innehåll och egenskaper på eller under markytan, konstgjorda företeelser, markanvändning, geodetiska data, geografiska namn, gränser och institutionella förhållanden m.m.",
  "links": [
    {
      "name": "Trafikverket hemsida",
      "uri": "http://www.trafikverket.se/contentassets/73c90fd69e134b4fa820849d5fd6a801/ordlista-bim-1702152.pdf"
    }
  ]
}