{
  "id": "9b483071-b663-4306-a13d-f191ae0390a3",
  "_schema": "http://schemas.nationella-riktlinjer.se/nrb-concept.2.schema.json",
  "slug": "ledningssystem-ss-iso-550002014-en",
  "language": "en",
  "term": "management system",
  "source": "ISO 55000:2014",
  "source_long": "ISO 55000:2014 Asset management – Overview, principles and terminology, 3.4.2",
  "definition": "set of interrelated or interacting elements of an organization (3.1.13) to establish policies (3.1.18) and objectives (3.1.12) and processes (3.1.19) to achieve those objectives",
  "comment": "Note 1 to entry: A management system can address a single discipline or several disciplines.\r\nNote 2 to entry: The system elements include the organization’s structure, roles and responsibilities, planning, operation, etc.\r\nNote 3 to entry: The scope of a management system may include the whole of the organization, specific and identified functions of the organization, specific and identified sections of the organization, or one or more functions across a group of organizations.",
  "contributors": [
    {
      "name": "Klas Eckerberg",
      "linkedin": "https://www.linkedin.com/in/klaseckerberg/"
    }
  ],
  "synonyms": [
    "ledningssystem-ss-iso-550002014"
  ]
}