{
  "id": "ae491df0-776b-dea2-8ade-ecc98cfbed24",
  "_schema": "http://schemas.nationella-riktlinjer.se/nrb-concept.2.schema.json",
  "slug": "leveransmeddelande-bygghandlingar-90-del-8-en",
  "language": "en",
  "term": "Delivery notification",
  "source": "Bygghandlingar 90 del 8, omarbetad utgåva",
  "definition": "Used to document a completed delivery.",
  "links": [
    {
      "name": "Bygghandlingar 90 del 8, omarbetad utgåva",
      "uri": "http://www.bygghandlingar90.se"
    }
  ],
  "synonyms": [
    "leveransmeddelande-bygghandlingar-90-del-8"
  ]
}