{
  "id": "2d049aac-761d-4f8a-a938-ab27a63cffd0",
  "_schema": "http://schemas.nationella-riktlinjer.se/nrb-concept.2.schema.json",
  "slug": "leveransskede-isodis-19650-122018-en",
  "language": "en",
  "term": "delivery phase",
  "source": "SS-EN ISO 19650-1:2019",
  "source_long": "ISO/DIS 19650-1.2:2018 Information management using building information modelling –\r Part 1: Concepts and principles, 3.2.11",
  "definition": "the part of the asset life cycle, during which, the asset is designed, constructed and commissioned",
  "comment": "Note 1 to entry: Delivery phase is normally associated with the project as a stage-based approach.",
  "contributors": [
    {
      "name": "Klas Eckerberg",
      "linkedin": "https://www.linkedin.com/in/klaseckerberg/"
    }
  ],
  "synonyms": [
    "leveransskede-isodis-19650-122018"
  ]
}