{
  "id": "f391c436-5ca9-4e7b-bfde-452fffa3eab4",
  "_schema": "http://schemas.nationella-riktlinjer.se/nrb-concept.2.schema.json",
  "slug": "lexikon-ifc-4-en",
  "language": "en",
  "term": "dictionary",
  "source": "IFC 4",
  "source_long": "IFC 4 Industry Foundation Classes Release 4, ",
  "definition": "collection of words, terms or concepts, with their definition",
  "contributors": [
    {
      "name": "Klas Eckerberg",
      "linkedin": "https://www.linkedin.com/in/klaseckerberg/"
    }
  ],
  "synonyms": [
    "lexikon-ifc-4"
  ]
}