{
  "id": "e2639504-945b-4f04-9e11-5cf11c923ad1",
  "_schema": "http://schemas.nationella-riktlinjer.se/nrb-concept.2.schema.json",
  "slug": "lift-car-elevator-cab-us-iso-6707-12017",
  "language": "en",
  "term": "lift car\r\nelevator cab, US",
  "source": "ISO 6707-1:2017",
  "source_long": "ISO 6707-1:2017 Buildings and civil engineering works – Vocabulary – Part 1: General terms, 3.3.4.30",
  "definition": "part of a lift (3.3.4.29) that carries persons and/or other loads",
  "contributors": [
    {
      "name": "Klas Eckerberg",
      "linkedin": "https://www.linkedin.com/in/klaseckerberg/"
    }
  ]
}