{
  "id": "2dd998f8-e7ce-421a-93b9-e9e9a90c5edf",
  "_schema": "http://schemas.nationella-riktlinjer.se/nrb-concept.2.schema.json",
  "slug": "lineal-measurement-iso-6707-22017",
  "language": "en",
  "term": "lineal measurement",
  "source": "ISO 6707-2:2017",
  "source_long": "ISO 6707-2:2017 Buildings and civil engineering works – Vocabulary – Part 2: Contract and communication terms, 3.6.14",
  "definition": "measurement by length",
  "contributors": [
    {
      "name": "Klas Eckerberg",
      "linkedin": "https://www.linkedin.com/in/klaseckerberg/"
    }
  ]
}