{
  "id": "ab833303-67ac-4a07-b235-3f9459abeb3f",
  "_schema": "http://schemas.nationella-riktlinjer.se/nrb-concept.2.schema.json",
  "slug": "line-distance-factor-iso-102092012",
  "language": "en",
  "term": "line distance factor",
  "source": "ISO 10209:2012",
  "source_long": "ISO 10209:2012 Technical product documentation – Vocabulary – Terms relating to technical drawings, product definition and related documentation, 2.48",
  "definition": "factor defining the distance between succeeding base lines of a text in relation to the lettering height of the characters",
  "comment": "[IEC 81714-2:2006]",
  "contributors": [
    {
      "name": "Klas Eckerberg",
      "linkedin": "https://www.linkedin.com/in/klaseckerberg/"
    }
  ]
}