{
  "id": "39eeb866-17bb-404f-909a-5c991d9c3dfa",
  "_schema": "http://schemas.nationella-riktlinjer.se/nrb-concept.2.schema.json",
  "slug": "livscykel-isodis-19650-122018-en",
  "language": "en",
  "term": "life cycle",
  "source": "SS-EN ISO 19650-1:2019",
  "source_long": "ISO/DIS 19650-1.2:2018 Information management using building information modelling –\r Part 1: Concepts and principles, 3.2.10",
  "definition": "life of the asset from the definition of its requirements to the termination of its use, covering its conception, development, operation, maintenance support and disposal",
  "comment": "[SOURCE: ISO/TS 12911:2012, 3.13 – modified]",
  "contributors": [
    {
      "name": "Klas Eckerberg",
      "linkedin": "https://www.linkedin.com/in/klaseckerberg/"
    }
  ],
  "synonyms": [
    "livscykel-isodis-19650-122018"
  ]
}