{
  "id": "a090b6f8-c932-412f-9810-794c32772771",
  "_schema": "http://schemas.nationella-riktlinjer.se/nrb-concept.2.schema.json",
  "slug": "livscykel-for-en-produkt-ss-en-82045-12001",
  "language": "sv",
  "term": "livscykel /för en produkt)",
  "source": "SS-EN 82045-1:2001",
  "source_long": "SS-EN 82045-1:2001, Dokumenthantering – Del 1: Principer och metoder, 3.3.2",
  "definition": "tidrymd från det första utkastet till en produkt till dess slutgiltiga kvittblivning ",
  "comment": "[ISO 15226, ändrad]",
  "contributors": [
    {
      "name": "Klas Eckerberg",
      "linkedin": "https://www.linkedin.com/in/klaseckerberg/"
    }
  ],
  "synonyms": [
    "livscykel-for-en-produkt-ss-en-82045-12001-en"
  ]
}