{
  "id": "35802cd1-d651-462e-98b4-76ac509d96b1",
  "_schema": "http://schemas.nationella-riktlinjer.se/nrb-concept.2.schema.json",
  "slug": "livscykelanalys-iso-219302017-en",
  "language": "en",
  "term": "life cycle assessment",
  "source": "ISO 21930:2017",
  "source_long": "ISO 21930:2017 Sustainability in buildings and civil engineering works – Core rules for environmental product declarations of construction products and services, 3.3.2",
  "definition": "compilation and evaluation of the inputs, outputs and the potential environmental impacts of a product system throughout its life cycle",
  "comment": "Note 1 to entry: The shorter initialism, LCA, is used as the primary preferred term in this document.\r\n[SOURCE: ISO 14040:2006, 3.2, modified - Note 1 to entry has been added.]",
  "contributors": [
    {
      "name": "Klas Eckerberg",
      "linkedin": "https://www.linkedin.com/in/klaseckerberg/"
    }
  ],
  "synonyms": [
    "livscykelanalys-iso-219302017"
  ]
}