{
  "id": "e8aa0e8e-be5c-45cc-abdd-9a8036e3b8fe",
  "_schema": "http://schemas.nationella-riktlinjer.se/nrb-concept.2.schema.json",
  "slug": "livscykel-iso-219302017-en",
  "language": "en",
  "term": "life cycle",
  "source": "ISO 21930:2017",
  "source_long": "ISO 21930:2017 Sustainability in buildings and civil engineering works – Core rules for environmental product declarations of construction products and services, 3.3.1",
  "definition": "all consecutive and interlinked stages in the life of the object of consideration",
  "comment": "Note 1 to entry: For consideration of environmental impacts and environmental aspects, the life cycle  comprises all stages, from raw material acquisition or generation from natural resources to end-of-life.\r\nNote 2 to entry: Adapted from the definition of \"life cycle\" in ISO 14040:2006, 3.1.",
  "contributors": [
    {
      "name": "Klas Eckerberg",
      "linkedin": "https://www.linkedin.com/in/klaseckerberg/"
    }
  ],
  "synonyms": [
    "livscykel-iso-219302017"
  ]
}