{
  "id": "6ad274e4-a34c-1e1e-764a-c1e2e8df5f33",
  "_schema": "http://schemas.nationella-riktlinjer.se/nrb-concept.2.schema.json",
  "slug": "lod-level-of-detail-nrb-en",
  "language": "en",
  "term": "LOD - Level of Detail",
  "source": "NRB",
  "definition": "Used to describe the geometric detailing of objects in the definition of information level.",
  "comment": "Förstudie LOD SBUF 2017",
  "synonyms": [
    "lod-level-of-detail-nrb"
  ]
}