{
  "id": "007c3761-7057-4fe3-bb76-b8562efa1fc2",
  "_schema": "http://schemas.nationella-riktlinjer.se/nrb-concept.2.schema.json",
  "slug": "logistisk-vantetid-ss-en-133062010-en",
  "language": "en",
  "term": "logistic delay",
  "source": "EN 13306:2010",
  "source_long": "EN 13306:2010 Maintenance – Maintenance terminology, 9.13",
  "definition": "accumulated time when maintenance cannot be carried out due to the need to acquire maintenance resources, excluding any administrative delay",
  "comment": "Logistic delays can be due to, for example, travelling to installations, pending arrival of spare parts, specialists, test equipment and information and unsuitable environmental conditions.",
  "contributors": [
    {
      "name": "Klas Eckerberg",
      "linkedin": "https://www.linkedin.com/in/klaseckerberg/"
    }
  ],
  "synonyms": [
    "logistisk-vantetid-ss-en-133062010"
  ]
}