{
  "id": "3e0c7698-1dcf-4bd8-9616-4b3a85d7c734",
  "_schema": "http://schemas.nationella-riktlinjer.se/nrb-concept.2.schema.json",
  "slug": "main-projection-line-iso-102092012",
  "language": "en",
  "term": "main projection line",
  "source": "ISO 10209:2012",
  "source_long": "ISO 10209:2012 Technical product documentation – Vocabulary – Terms relating to technical drawings, product definition and related documentation, 3.33",
  "definition": "horizontal projection line passing through the projection centre and intersecting the vertical projection plane at right angles to the main point",
  "contributors": [
    {
      "name": "Klas Eckerberg",
      "linkedin": "https://www.linkedin.com/in/klaseckerberg/"
    }
  ]
}