{
  "id": "25996aa0-04b3-478a-bdac-bc1a5ca9d2cd",
  "_schema": "http://schemas.nationella-riktlinjer.se/nrb-concept.2.schema.json",
  "slug": "main-beam-girder-us-iso-6707-12017",
  "language": "en",
  "term": "main beam\r\ngirder, US",
  "source": "ISO 6707-1:2017",
  "source_long": "ISO 6707-1:2017 Buildings and civil engineering works – Vocabulary – Part 1: General terms, 3.3.1.37",
  "definition": "beam (3.3.1.11) that supports other beams and is not itself supported by a beam",
  "comment": "Note 1 to entry: In the US, there is a homonym for the term “girder”. See 3.3.1.12.",
  "contributors": [
    {
      "name": "Klas Eckerberg",
      "linkedin": "https://www.linkedin.com/in/klaseckerberg/"
    }
  ]
}