{
  "id": "35615b61-ff4f-44f2-bf7c-8bc7630f0e71",
  "_schema": "http://schemas.nationella-riktlinjer.se/nrb-concept.2.schema.json",
  "slug": "manufacturer-iso-6707-12017",
  "language": "en",
  "term": "manufacturer",
  "source": "ISO 6707-1:2017",
  "source_long": "ISO 6707-1:2017 Buildings and civil engineering works – Vocabulary – Part 1: General terms, 3.6.3",
  "definition": "person or organization making offsite materials (3.4.1.1), products (3.4.1.3), components (3.4.1.4), and other items",
  "contributors": [
    {
      "name": "Klas Eckerberg",
      "linkedin": "https://www.linkedin.com/in/klaseckerberg/"
    }
  ]
}