{
  "id": "4f5e3f91-4d8e-4119-bce6-132bd9f2133d",
  "_schema": "http://schemas.nationella-riktlinjer.se/nrb-concept.2.schema.json",
  "slug": "matning-ss-iso-550002014",
  "language": "sv",
  "term": "mätning",
  "source": "SS-ISO 55000:2014",
  "source_long": "SS-ISO 55000:2014, Ledningssystem för tillgångar – Översikt, principer och terminologi, 3.1.10",
  "definition": "process (3.1.19) för att fastställa ett värde",
  "contributors": [
    {
      "name": "Klas Eckerberg",
      "linkedin": "https://www.linkedin.com/in/klaseckerberg/"
    }
  ],
  "synonyms": [
    "matning-ss-iso-550002014-en"
  ]
}