{
  "id": "06229425-4340-4d64-8921-6e3e54b0d27b",
  "_schema": "http://schemas.nationella-riktlinjer.se/nrb-concept.2.schema.json",
  "slug": "measured-work-actual-work-performed-us-iso-6707-22017",
  "language": "en",
  "term": "measured work\r\nactual work performed, US",
  "source": "ISO 6707-2:2017",
  "source_long": "ISO 6707-2:2017 Buildings and civil engineering works – Vocabulary – Part 2: Contract and communication terms, 3.7.22",
  "definition": "work that is paid for on the basis of the quantities and descriptions of work",
  "contributors": [
    {
      "name": "Klas Eckerberg",
      "linkedin": "https://www.linkedin.com/in/klaseckerberg/"
    }
  ]
}