{
  "id": "53dd1340-fbc7-45c4-a667-c641b28ae64e",
  "_schema": "http://schemas.nationella-riktlinjer.se/nrb-concept.2.schema.json",
  "slug": "medelreparationstid-mrt-ss-en-133062010",
  "language": "sv",
  "term": "medelreparationstid, MRT",
  "source": "SS-EN 13306:2010",
  "source_long": "SS-EN 13306:2010, Underhåll – Terminologi, 11.4",
  "definition": "medelvärde på reparationstider",
  "comment": "Anm. till termpost: Inom området funktionssäkerhet är medelreparationstiden definierad som den matematiska uppskattningen för reparationstiden.",
  "contributors": [
    {
      "name": "Klas Eckerberg",
      "linkedin": "https://www.linkedin.com/in/klaseckerberg/"
    }
  ],
  "synonyms": [
    "medelreparationstid-mrt-ss-en-133062010-en"
  ]
}