{
  "id": "b22bbaae-1008-4554-8398-78a8abf7ce61",
  "_schema": "http://schemas.nationella-riktlinjer.se/nrb-concept.2.schema.json",
  "slug": "miljoprestanda-iso-219302017",
  "language": "sv",
  "term": "miljöprestanda",
  "source": "ISO 21930:2017",
  "source_long": "ISO 21930:2017, Sustainability in buildings and civil engineering works – Core rules for environmental product declarations of construction products and services, 3.2.9",
  "definition": "",
  "contributors": [
    {
      "name": "Klas Eckerberg",
      "linkedin": "https://www.linkedin.com/in/klaseckerberg/"
    }
  ],
  "synonyms": [
    "miljoprestanda-iso-219302017-en"
  ]
}