{
  "id": "bb3280eb-638e-49a9-a198-09a810b397a6",
  "_schema": "http://schemas.nationella-riktlinjer.se/nrb-concept.2.schema.json",
  "slug": "miljokonsekvens-iso-21931-12010-en",
  "language": "en",
  "term": "environmental impact",
  "source": "ISO 21931-1:2010",
  "source_long": "ISO 21931-1:2010 Sustainability in building construction – Framework for methods of assessment of the environmental performance of construction works – Part 1: Buildings, 3.6",
  "definition": "any change to the environment, whether adverse or beneficial, wholly or partially resulting from environmental aspects",
  "comment": "Note 1 to entry: Derived from the definitions of impact and environmental impact in ISO 15392.",
  "contributors": [
    {
      "name": "Klas Eckerberg",
      "linkedin": "https://www.linkedin.com/in/klaseckerberg/"
    }
  ],
  "synonyms": [
    "miljokonsekvens-iso-21931-12010"
  ]
}