{
  "id": "cbb03148-14aa-4b9f-8d59-e2f33987d904",
  "_schema": "http://schemas.nationella-riktlinjer.se/nrb-concept.2.schema.json",
  "slug": "mirrored-orthographic-projection-iso-102092012",
  "language": "en",
  "term": "mirrored orthographic projection",
  "source": "ISO 10209:2012",
  "source_long": "ISO 10209:2012 Technical product documentation – Vocabulary – Terms relating to technical drawings, product definition and related documentation, 3.34",
  "definition": "reproduction of the image in a mirror of an object when the mirror is parallel to the horizontal planes of this object",
  "comment": "[ISO 2594:1972]",
  "contributors": [
    {
      "name": "Klas Eckerberg",
      "linkedin": "https://www.linkedin.com/in/klaseckerberg/"
    }
  ]
}