{
  "id": "76028413-96e5-4b4a-8dea-e06126245e4d",
  "_schema": "http://schemas.nationella-riktlinjer.se/nrb-concept.2.schema.json",
  "slug": "modellfil-bygghandlingar-90-del-7-utgava-2",
  "language": "sv",
  "term": "Modellfil",
  "source": "Bygghandlingar 90 del 7 utgåva 2",
  "definition": "Fil innehållande geometrimodell. Modellfiler utgör underlag för ritningsdefinitionsfiler, som i sin tur används för att generera ritningsfiler, som kan skrivas ut till ritning.",
  "links": [
    {
      "name": "Bygghandlingar 90 del 7 utgåva 2",
      "uri": "http://www.bygghandlingar90.se"
    }
  ]
}