{
  "id": "5198ad0c-7e1a-47e7-a9bf-062f1d56945d",
  "_schema": "http://schemas.nationella-riktlinjer.se/nrb-concept.2.schema.json",
  "slug": "modernization-iso-6707-12017",
  "language": "en",
  "term": "modernization",
  "source": "ISO 6707-1:2017",
  "source_long": "ISO 6707-1:2017 Buildings and civil engineering works – Vocabulary – Part 1: General terms, 3.5.1.46",
  "definition": "improving facilities in line with current standards and expectations",
  "contributors": [
    {
      "name": "Klas Eckerberg",
      "linkedin": "https://www.linkedin.com/in/klaseckerberg/"
    }
  ]
}