{
  "id": "3c1fed2c-2afe-4d99-bbcf-af520e149df3",
  "_schema": "http://schemas.nationella-riktlinjer.se/nrb-concept.2.schema.json",
  "slug": "modell-bygghandlingar-90-del-7-utgava-2",
  "language": "sv",
  "term": "Modell",
  "source": "Bygghandlingar 90 del 7 utgåva 2",
  "definition": "”Förebild efter vilken en produkt utförs.” (TNC 98) Begreppet används i denna skrift vanligen för att beteckna CADfil innehållande modellinformation (modellfil). Modell kan innehålla alla typer av objekt, liksom texter och annan icke-grafisk information. Redovisade objekt kan i sig innehålla icke-grafisk information, eller vara kopplade till databaser som innehåller sådan information. Modeller kan beskriva befintliga förhållanden (landskapsinformation) eller redovisa projekterade förhållanden (anläggningsinformation), eller kombinationer därav.",
  "links": [
    {
      "name": "Bygghandlingar 90 del 7 utgåva 2",
      "uri": "http://www.bygghandlingar90.se"
    }
  ]
}