{
  "id": "ae38013b-1f3c-477a-9c33-5ffebaa514d7",
  "_schema": "http://schemas.nationella-riktlinjer.se/nrb-concept.2.schema.json",
  "slug": "monopitch-roof-shed-roof-us-iso-6707-12017",
  "language": "en",
  "term": "monopitch roof\r\nshed roof, US",
  "source": "ISO 6707-1:2017",
  "source_long": "ISO 6707-1:2017 Buildings and civil engineering works – Vocabulary – Part 1: General terms, 3.3.2.25",
  "definition": "pitched roof (3.3.2.24) that has only a single plane",
  "contributors": [
    {
      "name": "Klas Eckerberg",
      "linkedin": "https://www.linkedin.com/in/klaseckerberg/"
    }
  ]
}