{
  "id": "eb74fe83-9985-4827-a026-58e42b12e472",
  "_schema": "http://schemas.nationella-riktlinjer.se/nrb-concept.2.schema.json",
  "slug": "monteringsinstruktion-ss-en-iso-102092012-en",
  "language": "en",
  "term": "assembly instruction",
  "source": "ISO 10209:2012",
  "source_long": "ISO 10209:2012 Technical product documentation – Vocabulary – Terms relating to technical drawings, product definition and related documentation, 11.1",
  "definition": "document providing information of how and in what sequence the different parts shall be assembled to receive a specific end product",
  "comment": "[ISO 29845:2011]",
  "contributors": [
    {
      "name": "Klas Eckerberg",
      "linkedin": "https://www.linkedin.com/in/klaseckerberg/"
    }
  ],
  "synonyms": [
    "monteringsinstruktion-ss-en-iso-102092012"
  ]
}