{
  "id": "f1d2f9fc-3b8b-4534-8891-6760ecbbd720",
  "_schema": "http://schemas.nationella-riktlinjer.se/nrb-concept.2.schema.json",
  "slug": "movable-bridge-iso-6707-12017",
  "language": "en",
  "term": "movable bridge",
  "source": "ISO 6707-1:2017",
  "source_long": "ISO 6707-1:2017 Buildings and civil engineering works – Vocabulary – Part 1: General terms, 3.1.3.26",
  "definition": "bridge (3.1.3.19) over a waterway, the deck (3.3.1.35) of which can be moved",
  "contributors": [
    {
      "name": "Klas Eckerberg",
      "linkedin": "https://www.linkedin.com/in/klaseckerberg/"
    }
  ]
}