{
  "id": "7f53e09c-bd2b-4d58-bea7-4d4ba71676f5",
  "_schema": "http://schemas.nationella-riktlinjer.se/nrb-concept.2.schema.json",
  "slug": "mullion-iso-6707-12017",
  "language": "en",
  "term": "mullion",
  "source": "ISO 6707-1:2017",
  "source_long": "ISO 6707-1:2017 Buildings and civil engineering works – Vocabulary – Part 1: General terms, 3.3.3.22",
  "definition": "intermediate vertical member in an opening (3.3.3.1) or frame (3.3.3.19), separating lights (3.3.3.6)",
  "contributors": [
    {
      "name": "Klas Eckerberg",
      "linkedin": "https://www.linkedin.com/in/klaseckerberg/"
    }
  ]
}