{
  "id": "ff7b2bbf-ea5b-46a7-ab87-b393b93f4170",
  "_schema": "http://schemas.nationella-riktlinjer.se/nrb-concept.2.schema.json",
  "slug": "network-map-iso-102092012",
  "language": "en",
  "term": "network map",
  "source": "ISO 10209:2012",
  "source_long": "ISO 10209:2012 Technical product documentation – Vocabulary – Terms relating to technical drawings, product definition and related documentation, 11.107",
  "definition": "overview diagram showing a network on a map",
  "comment": "[ISO 15519-1:2010]",
  "contributors": [
    {
      "name": "Klas Eckerberg",
      "linkedin": "https://www.linkedin.com/in/klaseckerberg/"
    }
  ]
}