{
  "id": "e3377742-7a4f-4fcb-9674-4503608eb4c2",
  "_schema": "http://schemas.nationella-riktlinjer.se/nrb-concept.2.schema.json",
  "slug": "noise-bund-noise-barrier-us-sound-barrier-us-iso-6707-1",
  "language": "en",
  "term": "noise bund\r\nnoise barrier, US\r\nsound barrier, US",
  "source": "ISO 6707-1:2017",
  "source_long": "ISO 6707-1:2017 Buildings and civil engineering works – Vocabulary – Part 1: General terms, 3.1.3.14",
  "definition": "noise barrier (3.1.3.13) in the form of an embankment (3.1.2.3)",
  "comment": "Note 1 to entry: In the US, there is a homograph for the term “noise barrier”. See 3.1.3.13.",
  "contributors": [
    {
      "name": "Klas Eckerberg",
      "linkedin": "https://www.linkedin.com/in/klaseckerberg/"
    }
  ]
}