{
  "id": "d8e7eec3-6e4e-4b8f-8e6b-de561bec111b",
  "_schema": "http://schemas.nationella-riktlinjer.se/nrb-concept.2.schema.json",
  "slug": "nominal-value-nom-iec-61360-12017",
  "language": "en",
  "term": "nominal value\r\nnom",
  "source": "IEC 61360-1:2017",
  "source_long": "IEC 61360-1:2017 Standard data element types with associated classification scheme – Part 1: Definitions – Principles and methods, 3.1.20",
  "definition": "value of a quantity used to designate or identify an item with its value, and not necessarily corresponding to the real value of the property",
  "comment": "Note 1 to entry: Additional information about the nature of the value can be obtained from the definition of the Property information object to which the value belongs.",
  "contributors": [
    {
      "name": "Klas Eckerberg",
      "linkedin": "https://www.linkedin.com/in/klaseckerberg/"
    }
  ]
}