{
  "id": "e05f9cdf-fe43-4ae2-b73b-db1fe8b9bef2",
  "_schema": "http://schemas.nationella-riktlinjer.se/nrb-tag.1.schema.json",
  "tag_definition": "nrb-tag-definition-quality",
  "concept": "bestallare-isodis-19650-122018",
  "language": "sv",
  "review_steps": [
    {
      "name": "Granskad",
      "date": "2018-10-02",
      "author": {
        "name": "Damir Omerovic",
        "linkedin": "https://www.linkedin.com/in/damir-omerovic-45117113a/"
      }
    }
  ]
}
