{
  "id": "000e5234-2628-4fd9-95ec-ae6faf03820a",
  "_schema": "http://schemas.nationella-riktlinjer.se/nrb-tag.1.schema.json",
  "tag_definition": "nrb-tag-definition-nrb",
  "concept": "industry-foundation-classes-iso-16739-12018",
  "language": "sv",
  "review_steps": [
    {
      "name": "Kandidat",
      "date": "2019-10-15",
      "author": {
        "name": "Damir Omerovic",
        "linkedin": "https://www.linkedin.com/in/damir-omerovic-45117113a/"
      }
    }, {
      "name": "Kvalitetssäkrad",
      "date": "2019-10-15",
      "author": {
        "name": "Damir Omerovic",
        "linkedin": "https://www.linkedin.com/in/damir-omerovic-45117113a/"
      }
    }, {
      "name": "Fastställd",
      "date": "2019-10-15",
      "author": {
        "name": "Damir Omerovic",
        "linkedin": "https://www.linkedin.com/in/damir-omerovic-45117113a/"
      }
    }
  ]
}