{
  "id": "e7e1a665-535e-456c-9f00-00720ad9ee50",
  "_schema": "http://schemas.nationella-riktlinjer.se/nrb-tag.1.schema.json",
  "tag_definition": "nrb-tag-definition-nrb",
  "concept": "systemhandlingsskede-ss-en-163102013",
  "language": "sv",
  "review_steps": [
    {
      "name": "Kandidat",
      "date": "2019-11-22",
      "author": {
        "name": "Damir Omerovic",
        "linkedin": "https://www.linkedin.com/in/damir-omerovic-45117113a/"
    }
    }, {
      "name": "Kvalitetssäkrad",
      "date": "2019-11-22",
      "author": {
        "name": "Damir Omerovic",
        "linkedin": "https://www.linkedin.com/in/damir-omerovic-45117113a/"
      }
    }
  ]
}