{
  "id": "f15589cf-f9c5-42b8-b9eb-98eec44157be",
  "_schema": "http://schemas.nationella-riktlinjer.se/nrb-tag.1.schema.json",
  "tag_definition": "nrb-tag-definition-nrb",
  "concept": "riktlinje-svensk-ordbok-2009",
  "language": "sv",
  "review_steps": [
    {
      "name": "Kandidat",
      "date": "2019-11-01",
      "author": {
        "name": "Damir Omerovic",
        "linkedin": "https://www.linkedin.com/in/damir-omerovic-45117113a/"
      }
    }, {
      "name": "Kvalitetssäkrad",
      "date": "2019-11-01",
      "author": {
        "name": "Damir Omerovic",
        "linkedin": "https://www.linkedin.com/in/damir-omerovic-45117113a/"
      }
    }
  ]
}