{
  "id": "08ca20dc-b56a-43ba-9abd-aaf7d646457c",
  "_schema": "http://schemas.nationella-riktlinjer.se/nrb-tag.1.schema.json",
  "tag_definition": "nrb-tag-definition-quality",
  "concept": "modellsammanslagning-isodis-19650-122018",
  "language": "sv",
  "review_steps": [
    {
      "name": "Granskad",
      "date": "2019-10-15",
      "author": {
        "name": "Damir Omerovic",
        "linkedin": "https://www.linkedin.com/in/damir-omerovic-45117113a/"
      }
    }
  ]
}