{
  "id": "dc8c458b-62ce-48e0-9a88-f40bce021c02",
  "_schema": "http://schemas.nationella-riktlinjer.se/nrb-tag.1.schema.json",
  "tag_definition": "nrb-tag-definition-nrb",
  "concept": "bim-strateg-bim-alliance",
  "language": "sv",
  "review_steps": [
    {
      "name": "Kandidat",
      "date": "2019-11-24",
      "author": {
        "name": "Damir Omerovic",
        "linkedin": "https://www.linkedin.com/in/damir-omerovic-45117113a/"
    }
    }, {
      "name": "Kvalitetssäkrad",
      "date": "2019-11-24",
      "author": {
        "name": "Damir Omerovic",
        "linkedin": "https://www.linkedin.com/in/damir-omerovic-45117113a/"
      }
    }
  ]
}