{
  "id": "7d71d9fb-ebeb-4800-b841-383e3d9cc32d",
  "_schema": "http://schemas.nationella-riktlinjer.se/nrb-tag.1.schema.json",
  "tag_definition": "nrb-tag-definition-quality",
  "concept": "gransdragningslista-bygghandlingar-90-del-8",
  "language": "sv",
  "review_steps": [
    {
      "name": "Granskad",
      "date": "2019-11-01",
      "author": {
        "name": "Damir Omerovic",
        "linkedin": "https://www.linkedin.com/in/damir-omerovic-45117113a/"
      }
    }
  ]
}