{
  "id": "f6facb90-b011-4105-a2a8-974a24bac40c",
  "_schema": "http://schemas.nationella-riktlinjer.se/nrb-tag.1.schema.json",
  "tag_definition": "nrb-tag-definition-nrb",
  "concept": "projektinformation-iso-6707-22017",
  "language": "sv",
  "review_steps": [
    {
      "name": "Kandidat",
      "date": "2019-10-15",
      "author": {
        "name": "Damir Omerovic",
        "linkedin": "https://www.linkedin.com/in/damir-omerovic-45117113a/"
      }
    }, {
      "name": "Kvalitetssäkrad",
      "date": "2019-10-15",
      "author": {
        "name": "Damir Omerovic",
        "linkedin": "https://www.linkedin.com/in/damir-omerovic-45117113a/"
      }
    }, {
      "name": "Fastställd",
      "date": "2019-10-15",
      "author": {
        "name": "Damir Omerovic",
        "linkedin": "https://www.linkedin.com/in/damir-omerovic-45117113a/"
      }
    }
  ]
}