{
  "id": "f1202916-9e55-4276-9e16-3b55a6281c9a",
  "_schema": "http://schemas.nationella-riktlinjer.se/nrb-tag.1.schema.json",
  "tag_definition": "nrb-tag-definition-quality",
  "concept": "bygghandling-nrb",
  "language": "sv",
  "review_steps": [
    {
      "name": "Granskad",
      "date": "2019-11-12",
      "author": {
        "name": "Damir Omerovic",
        "linkedin": "https://www.linkedin.com/in/damir-omerovic-45117113a/"
      }
    }
  ]
}