{
  "id": "66a57b80-dc9c-4575-a8e9-6f49cf0e47bc",
  "_schema": "http://schemas.nationella-riktlinjer.se/nrb-tag.1.schema.json",
  "tag_definition": "nrb-tag-definition-nrb",
  "concept": "bestallare-isodis-19650-122018",
  "language": "sv",
  "review_steps": [
    {
      "name": "Kandidat",
      "date": "2019-10-02",
      "author": {
        "name": "Damir Omerovic",
        "linkedin": "https://www.linkedin.com/in/damir-omerovic-45117113a/"
      }
    }, {
      "name": "Kvalitetssäkrad",
      "date": "2019-10-02",
      "author": {
        "name": "Damir Omerovic",
        "linkedin": "https://www.linkedin.com/in/damir-omerovic-45117113a/"
      }
    }, {
      "name": "Fastställd",
      "date": "2019-10-02",
      "author": {
        "name": "Damir Omerovic",
        "linkedin": "https://www.linkedin.com/in/damir-omerovic-45117113a/"
      }
    }
  ]
}
