{
  "id": "ecee8581-0fc7-47de-9ffc-0b35088e8de7",
  "_schema": "http://schemas.nationella-riktlinjer.se/nrb-tag.1.schema.json",
  "tag_definition": "nrb-tag-definition-quality",
  "concept": "projektdokument-trafikverket-tdok-2012-35-7",
  "language": "sv",
  "review_steps": [
    {
      "name": "Granskad",
      "author": {
        "name": "Johan Asplund",
        "linkedin": "https://www.linkedin.com/in/bimjohan/"
      },
      "date": "2019-02-23"
    }
  ]
}