{
  "id": "46be473a-c4e2-44fa-97eb-bf75fc8b9935",
  "_schema": "http://schemas.nationella-riktlinjer.se/nrb-tag-definition.1.schema.json",
  "slug": "nrb-tag-definition-nrb",
  "language": "sv",
  "short_name": "Fastställd",
  "full_name": "Fastställd som en nationell riktlinje",
  "description": "Indikerar att begreppet är kvalificerat som ett fastställt enligt steg 3 i förvaltningsstadgarna för nationella riktlinjers begreppslista",
  "review_steps": [
    {
      "name": "Kandidat",
      "description": "Indikerar att begreppet är en kandidat till att prövas som ett rekommenderat begrepp"
    },
    {
      "name": "Kvalitetssäkrad",
      "description": "Begreppet kan endast passera detta steg om begreppet redan har taggen \"Kvalitetsgranskad\""
    },
    {
      "name": "Fastställd",
      "description": "Beslut fattas av förvaltningsgruppen. Ev. motivering skrivs här"
    }
  ]
}