{
  "id": "bfeb98c8-518c-430f-a45c-7de7b52bff30",
  "_schema": "http://schemas.nationella-riktlinjer.se/nrb-tag.1.schema.json",
  "tag_definition": "nrb-tag-definition-quality",
  "concept": "ytobjekt-bygghandlingar-90-del-7-utgava-2",
  "language": "sv",
  "review_steps": [
    {
      "name": "Granskad",
      "date": "2019-10-04",
      "author": {
        "name": "Damir Omerovic",
        "linkedin": "https://www.linkedin.com/in/damir-omerovic-45117113a/"
      }
    }
  ]
}