{
  "id": "880637d0-5965-4e8a-b09b-ac5c705ee79e",
  "_schema": "http://schemas.nationella-riktlinjer.se/nrb-tag.1.schema.json",
  "tag_definition": "nrb-tag-definition-quality",
  "concept": "information-isodis-19650-122018",
  "language": "sv",
  "review_steps": [
    {
      "name": "Granskad",
      "date": "2018-10-02",
      "author": {
        "name": "Damir Omerovic",
        "linkedin": "https://www.linkedin.com/in/damir-omerovic-45117113a/"
      }
    }
  ]
}
