{
  "id": "bc7fbb17-a96c-40c9-a80d-16b9308b3cfd",
  "_schema": "http://schemas.nationella-riktlinjer.se/nrb-tag.1.schema.json",
  "tag_definition": "nrb-tag-definition-nrb",
  "concept": "egenkontroll-bygghandlingar-90-del-8",
  "language": "sv",
  "review_steps": [
    {
      "name": "Kandidat",
      "date": "2019-11-01",
      "author": {
        "name": "Damir Omerovic",
        "linkedin": "https://www.linkedin.com/in/damir-omerovic-45117113a/"
      }
    }, {
      "name": "Kvalitetssäkrad",
      "date": "2019-11-01",
      "author": {
        "name": "Damir Omerovic",
        "linkedin": "https://www.linkedin.com/in/damir-omerovic-45117113a/"
      }
    }
  ]
}