{
  "id": "a1d537dc-cdc5-4f50-bc41-64423eab4812",
  "_schema": "http://schemas.nationella-riktlinjer.se/nrb-tag.1.schema.json",
  "tag_definition": "nrb-tag-definition-quality",
  "concept": "lager-bygghandlingar-90-del-7-utgava-2",
  "language": "sv",
  "review_steps": [
    {
      "name": "Granskad",
      "date": "2019-10-03",
      "author": {
        "name": "Damir Omerovic",
        "linkedin": "https://www.linkedin.com/in/damir-omerovic-45117113a/"
      }
    }
  ]
}