{
  "id": "3ea6f6f9-76d2-4288-a92e-e2f4a04af182",
  "_schema": "http://schemas.nationella-riktlinjer.se/nrb-tag.1.schema.json",
  "tag_definition": "nrb-tag-definition-quality",
  "concept": "uppdragets-informationskrav-isodis-19650-122018",
  "language": "sv",
  "review_steps": [
    {
      "name": "Granskad",
      "date": "2019-10-10",
      "author": {
        "name": "Damir Omerovic",
        "linkedin": "https://www.linkedin.com/in/damir-omerovic-45117113a/"
      }
    }
  ]
}