{
  "id": "c9836f8b-e533-4069-ba28-9eed45ec711d",
  "_schema": "http://schemas.nationella-riktlinjer.se/nrb-tag.1.schema.json",
  "tag_definition": "nrb-tag-definition-quality",
  "concept": "bim-strateg-bim-alliance",
  "language": "sv",
  "review_steps": [
    {
      "name": "Granskad",
      "date": "2019-11-24",
      "author": {
        "name": "Damir Omerovic",
        "linkedin": "https://www.linkedin.com/in/damir-omerovic-45117113a/"
      }
    }
  ]
}