{
  "id": "19d4a8f6-db91-4daa-8f8c-a6779b276e06",
  "_schema": "http://schemas.nationella-riktlinjer.se/nrb-tag.1.schema.json",
  "tag_definition": "nrb-tag-definition-quality",
  "concept": "egenskap-coclass",
  "language": "sv",
  "review_steps": [
    {
      "name": "Granskad",
      "date": "2019-10-03",
      "author": {
        "name": "Damir Omerovic",
        "linkedin": "https://www.linkedin.com/in/damir-omerovic-45117113a/"
      }
    }
  ]
}