{
  "id": "f4fc9b99-9e14-4bf0-9a7a-1c93626d0e8b",
  "_schema": "http://schemas.nationella-riktlinjer.se/nrb-tag.1.schema.json",
  "tag_definition": "nrb-tag-definition-nrb",
  "concept": "bygghandling-nrb",
  "language": "sv",
  "review_steps": [
    {
      "name": "Kandidat",
      "date": "2019-11-12",
      "author": {
        "name": "Damir Omerovic",
        "linkedin": "https://www.linkedin.com/in/damir-omerovic-45117113a/"
      }
    }, {
      "name": "Kvalitetssäkrad",
      "date": "2019-11-12",
      "author": {
        "name": "Damir Omerovic",
        "linkedin": "https://www.linkedin.com/in/damir-omerovic-45117113a/"
      }
    }
  ]
}