{
  "id": "9e53897a-ea2e-4752-87c5-866f5e6902aa",
  "_schema": "http://schemas.nationella-riktlinjer.se/nrb-concept.2.schema.json",
  "slug": "nyckelbeslutspunkt-isodis-19650-122018-en",
  "language": "en",
  "term": "key decision point",
  "source": "SS-EN ISO 19650-1:2019",
  "source_long": "ISO/DIS 19650-1.2:2018 Information management using building information modelling –\r Part 1: Concepts and principles, 3.2.14",
  "definition": "point in time during the life cycle when a decision crucial to the direction or viability of the asset is made",
  "comment": "Note 1 to entry: During a project these generally align with project stages.",
  "contributors": [
    {
      "name": "Klas Eckerberg",
      "linkedin": "https://www.linkedin.com/in/klaseckerberg/"
    }
  ],
  "synonyms": [
    "nyckelbeslutspunkt-isodis-19650-122018"
  ]
}