{
  "id": "88d1e1c1-c9b6-4415-b699-642f538d0a8d",
  "_schema": "http://schemas.nationella-riktlinjer.se/nrb-concept.2.schema.json",
  "slug": "nyckelbeslutspunkt-iso-16745-12017-en",
  "language": "en",
  "term": "key decision point",
  "source": "ISO 16745-1:2017",
  "source_long": "ISO 16745-1:2017 Sustainability in buildings and civil engineering works – Carbon metric of an existing building during use stage – Part 1: Calculation, reporting and communication, 3.27",
  "definition": "a point in time during the asset life cycle when a decision crucial to the direction or viability of the asset (3.6) or project is made",
  "contributors": [
    {
      "name": "Klas Eckerberg",
      "linkedin": "https://www.linkedin.com/in/klaseckerberg/"
    }
  ],
  "synonyms": [
    "nyckelbeslutspunkt-iso-16745-12017"
  ]
}