{
  "id": "82f3c1de-47b4-426b-86da-68dd5af14d75",
  "_schema": "http://schemas.nationella-riktlinjer.se/nrb-concept.2.schema.json",
  "slug": "objective-isots-129112012",
  "language": "en",
  "term": "objective",
  "source": "ISO/TS 12911:2012",
  "source_long": "ISO/TS 12911:2012 Framework for building information\r modelling (BIM) guidance, 3.12",
  "definition": "constraint that is measurable by examination of its constituent objectives and measures",
  "contributors": [
    {
      "name": "Klas Eckerberg",
      "linkedin": "https://www.linkedin.com/in/klaseckerberg/"
    }
  ]
}