{
  "id": "070b0edf-ac9b-40ff-82c9-47925981bf7c",
  "_schema": "http://schemas.nationella-riktlinjer.se/nrb-concept.2.schema.json",
  "slug": "objekt-trafikverket",
  "language": "sv",
  "term": "Objekt",
  "source": "Trafikverket",
  "definition": "Enhet som representerar verkliga företeelse och som behandlas i konstruktions-, implementerings-, anvädnings- och kvittbildningsprocessen. Objektet har information associerad till sig. Objekt kan omfatta såväl fysiska objekt (byggdelar) eller icke fysiska objekt (utrymmen, etappindelningar, buller, trafikflöden, fastighetsgränser m.m.), liksom relationer mellan dem. Objekt kan vara enkla eller sammansatta av en eller flera objekttyper. De objekt som representerar verkliga företeelser kategoriseras som fysiska objekt och kan exempelvis representera stolpar, beläggning mm. De objekt som inte representerar verkliga företeelser kategoriseras som abstrakta objekt och kan exempelvis representera (utrymmen, kostnader, energibehov, etappindelning och förvaltningsbehov), liksom relationen mellan dem.",
  "links": [
    {
      "name": "Trafikverket hemsida",
      "uri": "http://www.trafikverket.se/contentassets/73c90fd69e134b4fa820849d5fd6a801/ordlista-bim-1702152.pdf"
    }
  ]
}