{
  "id": "a0763ae2-ed9d-49ef-80f5-600b058743c5",
  "_schema": "http://schemas.nationella-riktlinjer.se/nrb-concept.2.schema.json",
  "slug": "objektbeteckning-ss-en-61355-12009-en",
  "language": "en",
  "term": "object designation",
  "source": "EN 61355-1:2009",
  "source_long": "EN 61355-1:2009 Classification and designation of documents for plants, systems and equipment – Part 1: Rules and classification tables, 3.13",
  "definition": "",
  "contributors": [
    {
      "name": "Klas Eckerberg",
      "linkedin": "https://www.linkedin.com/in/klaseckerberg/"
    }
  ],
  "synonyms": [
    "objektbeteckning-ss-en-61355-12009"
  ]
}