{
  "id": "6d0a1a6a-6c06-489e-b217-1405e702f128",
  "_schema": "http://schemas.nationella-riktlinjer.se/nrb-concept.2.schema.json",
  "slug": "objekt-ss-iso-12006-22015",
  "language": "sv",
  "term": "objekt",
  "source": "SS-ISO 12006-2:2015",
  "source_long": "SS-ISO 12006-2:2015, Strukturering av information om byggnadsverk – Del 2: Ramverk för klassificering (av information), 3.1.1",
  "definition": "någon del av den urskiljbara eller tänkbara världen",
  "comment": "Not 1: Ett objekt är något abstrkt eller fysiskt mot vilket tankar, känslor eller handlingar är riktade.",
  "contributors": [
    {
      "name": "Klas Eckerberg",
      "linkedin": "https://www.linkedin.com/in/klaseckerberg/"
    }
  ],
  "synonyms": [
    "objekt-ss-iso-12006-22015-en"
  ]
}