{
  "id": "fc960be7-a5a1-ff5a-ca48-28624d4b090a",
  "_schema": "http://schemas.nationella-riktlinjer.se/nrb-concept.2.schema.json",
  "slug": "objekttypskatalog-termweb-svensk-standard-ss-for-geografisk-information-i-serien-63-70-00-teknisk-rapport-tr-utgiven-av-sis",
  "language": "sv",
  "term": "Objekttypskatalog",
  "source": "SIS",
  "definition": "Förteckning över objekttyper samt deras attribut- och sambandsanalyser.",
  "comment": ">- Termweb, Svensk standard (SS), för geografisk information i\nserien 63 70 00 Teknisk rapport (TR) utgiven av SIS"
}