{
  "id": "ce5c9011-34f7-4256-8e34-acd474cf55ad",
  "_schema": "http://schemas.nationella-riktlinjer.se/nrb-concept.2.schema.json",
  "slug": "object-isofdis-81346-122017",
  "language": "en",
  "term": "object",
  "source": "ISO/FDIS 81346-12:2017",
  "source_long": "ISO/FDIS 81346-12:2017 Industrial systems, installations and equipment and industrial products – Structuring principles and reference designations – Part 12: Construction works and building services, 3.13",
  "definition": "entity treated in a process of development, implementation, usage and disposal",
  "comment": "Note 1 to entry: The object may refer to a physical or non-physical “thing”, i.e. anything that might exist, exists or did\r\nexist.\r\nNote 2 to entry: The object has information associated to it.\r\nNote 3 to entry: Object is considered any part of the perceivable or conceivable world in ISO 12006-2:2015, definition\r\n3.1.1.\r\n[SOURCE: IEC 81346-1:2009, definition 3.1, modified – Note 3 to entry has been added.]",
  "contributors": [
    {
      "name": "Klas Eckerberg",
      "linkedin": "https://www.linkedin.com/in/klaseckerberg/"
    }
  ]
}