{
  "id": "56f4ce11-bd76-4aa9-adde-5dc745f5c94d",
  "_schema": "http://schemas.nationella-riktlinjer.se/nrb-concept.2.schema.json",
  "slug": "object-iso-298452011",
  "language": "en",
  "term": "object",
  "source": "ISO 29845:2011",
  "source_long": "ISO 29845:2011 Technical product documentation – Document types, 3.1.4",
  "definition": "entity treated in the process of design, engineering, realisation, operation, maintenance and demolition",
  "comment": "[ISO 15519-1:2010, 3.3.2]",
  "contributors": [
    {
      "name": "Klas Eckerberg",
      "linkedin": "https://www.linkedin.com/in/klaseckerberg/"
    }
  ]
}