{
  "id": "6d0a1a6a-6c06-489e-b217-1405e702f128",
  "_schema": "http://schemas.nationella-riktlinjer.se/nrb-concept.2.schema.json",
  "slug": "objekt-ss-iso-12006-22015-en",
  "language": "en",
  "term": "object",
  "source": "ISO 12006-2:2015",
  "source_long": "ISO 12006-2:2015 Building construction – Organization of information about construction works – Part 2: Framework for classification, 3.1.1",
  "definition": "any part of the perceivable or conceivable world",
  "comment": "Note 1 to entry: An object is something abstract or physical toward which thought, feeling, or action is directed.",
  "contributors": [
    {
      "name": "Klas Eckerberg",
      "linkedin": "https://www.linkedin.com/in/klaseckerberg/"
    }
  ],
  "synonyms": [
    "objekt-ss-iso-12006-22015"
  ]
}