{
  "id": "82e862c4-1eb0-41a5-9971-dfe9cc84d1f0",
  "_schema": "http://schemas.nationella-riktlinjer.se/nrb-concept.2.schema.json",
  "slug": "object-iso-102092012",
  "language": "en",
  "term": "object",
  "source": "ISO 10209:2012",
  "source_long": "ISO 10209:2012 Technical product documentation – Vocabulary – Terms relating to technical drawings, product definition and related documentation, 2.51.2",
  "definition": "<industrial systems> entity treated in a process of development, implementation, usage and disposal",
  "comment": "NOTE 1 The object may refer to a physical or non-physical “thing” that might exist, exists or did exist.\r\nNOTE 2 The object has information associated to it.\r\n[IEC 81346-1:2009]",
  "contributors": [
    {
      "name": "Klas Eckerberg",
      "linkedin": "https://www.linkedin.com/in/klaseckerberg/"
    }
  ]
}