{
  "id": "a0729c4c-d613-47d0-83f0-0845d7d9182f",
  "_schema": "http://schemas.nationella-riktlinjer.se/nrb-concept.2.schema.json",
  "slug": "opening-iso-6707-12017",
  "language": "en",
  "term": "opening",
  "source": "ISO 6707-1:2017",
  "source_long": "ISO 6707-1:2017 Buildings and civil engineering works – Vocabulary – Part 1: General terms, 3.3.3.1",
  "definition": "void in a building element (3.3.5.4)",
  "contributors": [
    {
      "name": "Klas Eckerberg",
      "linkedin": "https://www.linkedin.com/in/klaseckerberg/"
    }
  ]
}