{
  "id": "b73f2ef0-370a-429b-958d-d1c49d6a494a",
  "_schema": "http://schemas.nationella-riktlinjer.se/nrb-concept.2.schema.json",
  "slug": "operational-manual-procedure-manual-us-iso-6707-22017",
  "language": "en",
  "term": "operational manual procedure manual, US",
  "source": "ISO 6707-2:2017",
  "source_long": "ISO 6707-2:2017 Buildings and civil engineering works – Vocabulary – Part 2: Contract and communication terms, 3.2.33",
  "definition": "document (3.2.5) that gives advice on the use of equipment and on operating a facility",
  "contributors": [
    {
      "name": "Klas Eckerberg",
      "linkedin": "https://www.linkedin.com/in/klaseckerberg/"
    }
  ]
}