{
  "id": "0abc659b-561d-44a6-8536-ff43cb19998c",
  "_schema": "http://schemas.nationella-riktlinjer.se/nrb-concept.2.schema.json",
  "slug": "operative-laborer-us-construction-worker-us-iso-6707-1",
  "language": "en",
  "term": "operative \r\nlaborer, US\r\nconstruction worker, US",
  "source": "ISO 6707-1:2017",
  "source_long": "ISO 6707-1:2017 Buildings and civil engineering works – Vocabulary – Part 1: General terms, 3.6.2",
  "definition": "person who carries out construction work (3.5.1.1) that involves manual work or the operation of machinery",
  "contributors": [
    {
      "name": "Klas Eckerberg",
      "linkedin": "https://www.linkedin.com/in/klaseckerberg/"
    }
  ]
}