{
  "id": "73123c1d-8712-43fe-bbd0-3bb8876ebd4e",
  "_schema": "http://schemas.nationella-riktlinjer.se/nrb-concept.2.schema.json",
  "slug": "operatorsunderhall-ss-en-133062010-en",
  "language": "en",
  "term": "operator maintenance",
  "source": "EN 13306:2010",
  "source_long": "EN 13306:2010 Maintenance – Maintenance terminology, 7.12",
  "definition": "maintenance actions carried out by an operator",
  "comment": "Such maintenance actions should be clearly defined.",
  "contributors": [
    {
      "name": "Klas Eckerberg",
      "linkedin": "https://www.linkedin.com/in/klaseckerberg/"
    }
  ],
  "synonyms": [
    "operatorsunderhall-ss-en-133062010"
  ]
}