{
  "id": "fccdb12c-1ef8-414e-a8d9-7e38d95de2d8",
  "_schema": "http://schemas.nationella-riktlinjer.se/nrb-concept.2.schema.json",
  "slug": "organization-isoiecieee-152882015",
  "language": "en",
  "term": "organization",
  "source": "ISO/IEC/IEEE 15288:2015",
  "source_long": "ISO/IEC/IEEE 15288:2015 Systems and software engineering – System life cycle processes, 4.1.27",
  "definition": "group of people and facilities with an arrangement of responsibilities, authorities and relationships",
  "comment": "EXAMPLE Company, corporation, firm, enterprise, institution, charity, sole trader, association, or parts or combination thereof.\r\nNote 1 to entry: An identified part of an organization (even as small as a single individual) or an identified group of organizations can be regarded as an organization if it has responsibilities, authorities and relationships. A body of persons organized for some specific purpose, such as a club, union, corporation, or society, is an organization.\r\n[SOURCE: ISO 9000:2005, modified – Note 1 to entry has been added]",
  "contributors": [
    {
      "name": "Klas Eckerberg",
      "linkedin": "https://www.linkedin.com/in/klaseckerberg/"
    }
  ]
}