{
  "id": "c49f69d1-ca6d-4ab3-af0c-18a7e3dd2c44",
  "_schema": "http://schemas.nationella-riktlinjer.se/nrb-concept.2.schema.json",
  "slug": "organisationens-informationskrav-isodis-19650-122018-en",
  "language": "en",
  "term": "organizational information requirements\r\nOIR",
  "source": "SS-EN ISO 19650-1:2019",
  "source_long": "ISO/DIS 19650-1.2:2018 Information management using building information modelling –\r Part 1: Concepts and principles, 3.3.3",
  "definition": "information requirements in relation to organizational objectives",
  "contributors": [
    {
      "name": "Klas Eckerberg",
      "linkedin": "https://www.linkedin.com/in/klaseckerberg/"
    }
  ],
  "synonyms": [
    "organisationens-informationskrav-isodis-19650-122018"
  ]
}