{
  "id": "95bcb2d3-2464-47e6-a25d-14bfa9b8ee0f",
  "_schema": "http://schemas.nationella-riktlinjer.se/nrb-concept.2.schema.json",
  "slug": "origin-circle-iso-102092012",
  "language": "en",
  "term": "origin circle",
  "source": "ISO 10209:2012",
  "source_long": "ISO 10209:2012 Technical product documentation – Vocabulary – Terms relating to technical drawings, product definition and related documentation, 4.9",
  "definition": "starting point of running dimensioning or coordinate dimensioning",
  "comment": "[ISO 129-1:2004]",
  "contributors": [
    {
      "name": "Klas Eckerberg",
      "linkedin": "https://www.linkedin.com/in/klaseckerberg/"
    }
  ]
}