{
  "id": "41b77503-0b1e-4b2d-bcc0-438c7c1070d2",
  "_schema": "http://schemas.nationella-riktlinjer.se/nrb-concept.2.schema.json",
  "slug": "outline-drawing-iso-298452011",
  "language": "en",
  "term": "outline drawing",
  "source": "ISO 29845:2011",
  "source_long": "ISO 29845:2011 Technical product documentation – Document types, 3.2.8",
  "definition": "drawing giving the outside peripheral envelope, overall dimensions and mass of an object",
  "comment": "NOTE Adapted from ISO 10209-1:1992.",
  "contributors": [
    {
      "name": "Klas Eckerberg",
      "linkedin": "https://www.linkedin.com/in/klaseckerberg/"
    }
  ]
}