{
  "id": "b15d678f-4eba-4387-a63f-bf5f8a527d6c",
  "_schema": "http://schemas.nationella-riktlinjer.se/nrb-concept.2.schema.json",
  "slug": "part-definition-iso-102092012",
  "language": "en",
  "term": "part definition",
  "source": "ISO 10209:2012",
  "source_long": "ISO 10209:2012 Technical product documentation – Vocabulary – Terms relating to technical drawings, product definition and related documentation, 11.116",
  "definition": "text-based document that may be supplied with a drawing image of the defined part, specifying property requirements for the part described by the document",
  "comment": "[ISO 29845:2011]",
  "contributors": [
    {
      "name": "Klas Eckerberg",
      "linkedin": "https://www.linkedin.com/in/klaseckerberg/"
    }
  ]
}