{
  "id": "b21286b7-e435-4431-9b34-b22a682fc258",
  "_schema": "http://schemas.nationella-riktlinjer.se/nrb-concept.2.schema.json",
  "slug": "partiellt-funktionsfel-ss-en-133062010",
  "language": "sv",
  "term": "partiellt funktionsfel",
  "source": "SS-EN 13306:2010",
  "source_long": "SS-EN 13306:2010, Underhåll – Terminologi, 6.4",
  "definition": "funktionsfel som innebär att en enhet endast kan utföra vissa av de krävda funktionerna",
  "comment": "Anm. till termpost: I vissa fall kan det vara möjligt att använda enheten med reducerad prestanda.",
  "contributors": [
    {
      "name": "Klas Eckerberg",
      "linkedin": "https://www.linkedin.com/in/klaseckerberg/"
    }
  ],
  "synonyms": [
    "partiellt-funktionsfel-ss-en-133062010-en"
  ]
}