{
  "id": "88466605-29b2-49a5-8dca-0e6475b23afe",
  "_schema": "http://schemas.nationella-riktlinjer.se/nrb-concept.2.schema.json",
  "slug": "particle-size-fraction-iso-6707-12017",
  "language": "en",
  "term": "particle size fraction",
  "source": "ISO 6707-1:2017",
  "source_long": "ISO 6707-1:2017 Buildings and civil engineering works – Vocabulary – Part 1: General terms, 3.7.2.53",
  "definition": "fraction of aggregate (3.4.4.6) passing the larger of two sieves and retained on the smaller",
  "contributors": [
    {
      "name": "Klas Eckerberg",
      "linkedin": "https://www.linkedin.com/in/klaseckerberg/"
    }
  ]
}