{
  "id": "38f6562a-8a31-4f35-bf21-3ac448224be2",
  "_schema": "http://schemas.nationella-riktlinjer.se/nrb-concept.2.schema.json",
  "slug": "physical-planning-iso-6707-12017",
  "language": "en",
  "term": "physical planning",
  "source": "ISO 6707-1:2017",
  "source_long": "ISO 6707-1:2017 Buildings and civil engineering works – Vocabulary – Part 1: General terms, 3.8.2",
  "definition": "preparation of proposals for the use of land (3.8.1) within a geographical area and the control of development",
  "contributors": [
    {
      "name": "Klas Eckerberg",
      "linkedin": "https://www.linkedin.com/in/klaseckerberg/"
    }
  ]
}