{
  "id": "b0219b1b-2481-4cef-a3e3-6333319bf2ec",
  "_schema": "http://schemas.nationella-riktlinjer.se/nrb-concept.2.schema.json",
  "slug": "pilaster-iso-6707-12017",
  "language": "en",
  "term": "pilaster",
  "source": "ISO 6707-1:2017",
  "source_long": "ISO 6707-1:2017 Buildings and civil engineering works – Vocabulary – Part 1: General terms, 3.3.1.55",
  "definition": "shallow, rectangular column (3.3.1.10) or pier (3.3.1.50), integrally attached to the face of a wall (3.3.2.46)",
  "comment": "Note 1 to entry: In the US, there is a homograph for the term “pilaster”. See 3.3.1.53.",
  "contributors": [
    {
      "name": "Klas Eckerberg",
      "linkedin": "https://www.linkedin.com/in/klaseckerberg/"
    }
  ]
}