{
  "id": "81364529-2f6a-4248-8a64-bbc7842ab2f4",
  "_schema": "http://schemas.nationella-riktlinjer.se/nrb-concept.2.schema.json",
  "slug": "pipe-ramming-pipe-driving-us-iso-6707-12017",
  "language": "en",
  "term": "pipe ramming\r\npipe driving, US",
  "source": "ISO 6707-1:2017",
  "source_long": "ISO 6707-1:2017 Buildings and civil engineering works – Vocabulary – Part 1: General terms, 3.5.1.14",
  "definition": "technique for installing a pipe (3.3.4.17) or duct (3.3.4.13) whereby a casing is driven through the ground (3.4.2.1) using a percussive hammer, and from within which the spoil is removed as the casing advances",
  "contributors": [
    {
      "name": "Klas Eckerberg",
      "linkedin": "https://www.linkedin.com/in/klaseckerberg/"
    }
  ]
}