{
  "id": "7065e43c-de12-4db5-9ccb-5bdca1152937",
  "_schema": "http://schemas.nationella-riktlinjer.se/nrb-concept.2.schema.json",
  "slug": "piping-and-instrumentation-diagram-pandi-diagram-iso-29845201",
  "language": "en",
  "term": "piping and instrumentation diagram P&I diagram",
  "source": "ISO 29845:2011",
  "source_long": "ISO 29845:2011 Technical product documentation – Document types, 3.2.27",
  "definition": "process flow diagram representing the technical realization of a process system by means of graphical symbols for equipment, connections and process measurement and control functions",
  "comment": "[ISO 15519-1:2010, 3.2.9]",
  "contributors": [
    {
      "name": "Klas Eckerberg",
      "linkedin": "https://www.linkedin.com/in/klaseckerberg/"
    }
  ]
}