{
  "id": "35334b79-4b66-c455-4b25-e98cd45ca074",
  "_schema": "http://schemas.nationella-riktlinjer.se/nrb-concept.2.schema.json",
  "slug": "planbeskrivning-sis",
  "language": "sv",
  "term": "Planbeskrivning",
  "source": "SIS",
  "definition": "Bilaga till plankartan och planbestämmelserna, som redovisar planens förutsättningar, planens syfte, hur planen är avsedd att genomföras, de överväganden som har legat till grund för planens utformning med hänsyn till motstående intressen och planens konsekvenser bland annat för fastighetsägare och andra berörda samt skälen för ett beslut om upphävande av strandskydd.",
  "links": [
    {
      "name": "SIS",
      "uri": "https://www.sis.se/contentassets/f91a17f266bb49cebb42ee4fc3bc743f/ss-6370402016.pdf"
    }
  ]
}