{
  "id": "171e6e24-08ce-c16e-6018-aaea14b08a77",
  "_schema": "http://schemas.nationella-riktlinjer.se/nrb-concept.2.schema.json",
  "slug": "planomrade-sis",
  "language": "sv",
  "term": "Planområde",
  "source": "SIS",
  "definition": "Summan av de geografiska områden som omfattas av en fysisk plan.",
  "links": [
    {
      "name": "SIS",
      "uri": "https://www.sis.se/contentassets/f91a17f266bb49cebb42ee4fc3bc743f/ss-6370402016.pdf"
    }
  ]
}