{
  "id": "8b87de00-85bf-450e-a0ae-2c64e8a494c5",
  "_schema": "http://schemas.nationella-riktlinjer.se/nrb-concept.2.schema.json",
  "slug": "planting-and-fittings-drawing-iso-102092012",
  "language": "en",
  "term": "planting and fittings drawing",
  "source": "ISO 10209:2012",
  "source_long": "ISO 10209:2012 Technical product documentation – Vocabulary – Terms relating to technical drawings, product definition and related documentation, 11.125",
  "definition": "drawing which specifies the scope and workmanship of plants, and loose and fixed equipment",
  "contributors": [
    {
      "name": "Klas Eckerberg",
      "linkedin": "https://www.linkedin.com/in/klaseckerberg/"
    }
  ]
}