{
  "id": "008cdbc5-c9c0-e796-8220-b2b557982a06",
  "_schema": "http://schemas.nationella-riktlinjer.se/nrb-concept.2.schema.json",
  "slug": "planritning-bygglovguiden",
  "language": "sv",
  "term": "Planritning",
  "source": "Bygglovguiden",
  "definition": "Planritningen över byggnaden - som skall bifogas bygglovansökan - skall visa en möblerad rumsindelning sett uppifrån inkl. beskrivningar av vad rummen används till t ex sovrum, kök osv. samt rumstorlekar i m2. Köksinredning samt fast inredning i hygienrum och tvättstuga skall också redovisas. Dörrars och fönsters placering skall redovisas tydligt liksom trappor och andra nivåskillnader.\nOm det gäller en till- eller ombyggnad skall också den befintliga byggnadens rum redovisas. På ritningen ska tydligt framgå vad som är befintligt och vad som är nytt. Nya väggar kan med fördel redovisas med skraffering eller i avvikande gråton. Tillbyggnaders yttermått ska anges.\nPlanritningen skall ha ett fackmannamässigt utförande."
}