{
  "id": "4e5bf532-9af2-4b36-ad79-aa86e9d0c00e",
  "_schema": "http://schemas.nationella-riktlinjer.se/nrb-concept.2.schema.json",
  "slug": "planking-and-strutting-shoring-us-iso-6707-12017",
  "language": "en",
  "term": "planking and strutting\r\nshoring, US",
  "source": "ISO 6707-1:2017",
  "source_long": "ISO 6707-1:2017 Buildings and civil engineering works – Vocabulary – Part 1: General terms, 3.5.3.9",
  "definition": "temporary support to the side or sides of an excavation (3.1.2.2)",
  "contributors": [
    {
      "name": "Klas Eckerberg",
      "linkedin": "https://www.linkedin.com/in/klaseckerberg/"
    }
  ]
}