{
  "id": "536bc0ef-9309-4039-be4f-5fc6f57d0b69",
  "_schema": "http://schemas.nationella-riktlinjer.se/nrb-concept.2.schema.json",
  "slug": "pointing-iso-6707-12017",
  "language": "en",
  "term": "pointing",
  "source": "ISO 6707-1:2017",
  "source_long": "ISO 6707-1:2017 Buildings and civil engineering works – Vocabulary – Part 1: General terms, 3.5.1.20",
  "definition": "filling a partly raked joint (3.3.5.34) between masonry units (3.4.4.49) with mortar (3.4.4.26) to provide a finish (3.3.5.2)",
  "contributors": [
    {
      "name": "Klas Eckerberg",
      "linkedin": "https://www.linkedin.com/in/klaseckerberg/"
    }
  ]
}