{
  "id": "f2cc2d50-61a9-433e-b37c-58d25c4096e8",
  "_schema": "http://schemas.nationella-riktlinjer.se/nrb-concept.2.schema.json",
  "slug": "porosity-iso-6707-12017",
  "language": "en",
  "term": "porosity",
  "source": "ISO 6707-1:2017",
  "source_long": "ISO 6707-1:2017 Buildings and civil engineering works – Vocabulary – Part 1: General terms, 3.7.3.14",
  "definition": "characteristic (3.7.1.4) possessed by a material (3.4.1.2) of having pores or other voids, usually measured as the ratio of voids to the total volume",
  "contributors": [
    {
      "name": "Klas Eckerberg",
      "linkedin": "https://www.linkedin.com/in/klaseckerberg/"
    }
  ]
}