{
  "id": "7f7805f8-f722-4fcf-901c-9d5e00a57ff7",
  "_schema": "http://schemas.nationella-riktlinjer.se/nrb-concept.2.schema.json",
  "slug": "portal-frame-iso-6707-12017",
  "language": "en",
  "term": "portal frame",
  "source": "ISO 6707-1:2017",
  "source_long": "ISO 6707-1:2017 Buildings and civil engineering works – Vocabulary – Part 1: General terms, 3.3.1.72",
  "definition": "frame (3.3.1.70) composed of two columns (3.3.1.10) rigidly connected by a beam (3.3.1.11) across the column tops",
  "contributors": [
    {
      "name": "Klas Eckerberg",
      "linkedin": "https://www.linkedin.com/in/klaseckerberg/"
    }
  ]
}