{
  "id": "976d05d7-8fd3-45d6-b6a6-e7c430289b95",
  "_schema": "http://schemas.nationella-riktlinjer.se/nrb-concept.2.schema.json",
  "slug": "power-iso-6707-12017",
  "language": "en",
  "term": "power",
  "source": "ISO 6707-1:2017",
  "source_long": "ISO 6707-1:2017 Buildings and civil engineering works – Vocabulary – Part 1: General terms, 3.8.11",
  "definition": "rate of transfer of energy (3.8.10)",
  "contributors": [
    {
      "name": "Klas Eckerberg",
      "linkedin": "https://www.linkedin.com/in/klaseckerberg/"
    }
  ]
}