{
  "id": "3861d786-61e2-4424-853b-62167a142e2c",
  "_schema": "http://schemas.nationella-riktlinjer.se/nrb-concept.2.schema.json",
  "slug": "pre-design-process-iso-6707-22017",
  "language": "en",
  "term": "pre-design process",
  "source": "ISO 6707-2:2017",
  "source_long": "ISO 6707-2:2017 Buildings and civil engineering works – Vocabulary – Part 2: Contract and communication terms, 3.2.37",
  "definition": "design process (3.2.36) determining properties for the design process",
  "contributors": [
    {
      "name": "Klas Eckerberg",
      "linkedin": "https://www.linkedin.com/in/klaseckerberg/"
    }
  ]
}