{
  "id": "b94f6ce9-b680-4e61-8bce-f836b7834d5b",
  "_schema": "http://schemas.nationella-riktlinjer.se/nrb-concept.2.schema.json",
  "slug": "pressure-tapping-iso-6707-12017",
  "language": "en",
  "term": "pressure tapping",
  "source": "ISO 6707-1:2017",
  "source_long": "ISO 6707-1:2017 Buildings and civil engineering works – Vocabulary – Part 1: General terms, 3.3.4.62",
  "definition": "connection to a water heater used to attach pressure-measuring equipment",
  "contributors": [
    {
      "name": "Klas Eckerberg",
      "linkedin": "https://www.linkedin.com/in/klaseckerberg/"
    }
  ]
}