{
  "id": "3b35b482-1a98-649e-afe3-14f3d6a24458",
  "_schema": "http://schemas.nationella-riktlinjer.se/nrb-concept.2.schema.json",
  "slug": "process-bygghandlingar-90-del-8",
  "language": "sv",
  "term": "process",
  "source": "Bygghandlingar 90 del 8, omarbetad utgåva",
  "definition": "Aktiviteter med en insats (input) som bearbetas med resurser och efter givna förutsättningar (kontroller) för att lämna ifrån sig ett utfall (output).",
  "links": [
    {
      "name": "Bygghandlingar 90 del 8, omarbetad utgåva",
      "uri": "http://www.bygghandlingar90.se"
    }
  ],
  "synonyms": [
    "process-bygghandlingar-90-del-8-en"
  ]
}