{
  "id": "02757455-a7b7-4327-ad90-d1ef0fa9bb62",
  "_schema": "http://schemas.nationella-riktlinjer.se/nrb-concept.2.schema.json",
  "slug": "product-life-cycle-iso-102092012",
  "language": "en",
  "term": "product life cycle",
  "source": "ISO 10209:2012",
  "source_long": "ISO 10209:2012 Technical product documentation – Vocabulary – Terms relating to technical drawings, product definition and related documentation, 12.22.2",
  "definition": "period of time from the first idea to the ultimate disposal of a product",
  "comment": "[ISO 15226:1999]",
  "contributors": [
    {
      "name": "Klas Eckerberg",
      "linkedin": "https://www.linkedin.com/in/klaseckerberg/"
    }
  ]
}