{
  "id": "5d85ab90-bf3a-4b97-b2bc-f4d0b58722ad",
  "_schema": "http://schemas.nationella-riktlinjer.se/nrb-concept.2.schema.json",
  "slug": "produktionshandlingsskede-ss-en-163102013",
  "language": "sv",
  "term": "produktionshandlingsskede",
  "inflections": ["produktionshandlingsskedet", "produktionshandlingsskeden", "produktionshandlingsskedena"],
  "abbrevation": "ph",
  "source": "SS-EN 16310:2013",
  "definition": "Projektering för tillverkning.",
  "comment": "Baserad på SS-EN 16310:2013 - Engineering services – Terminology to describe engineering services for buildings, infrastructure and industrial facilities."
}