{
  "id": "b5859ef7-7a85-4cd1-afce-4b4a85c636f9",
  "_schema": "http://schemas.nationella-riktlinjer.se/nrb-concept.2.schema.json",
  "slug": "product-ifc-4",
  "language": "en",
  "term": "product",
  "source": "IFC 4",
  "source_long": "IFC 4 Industry Foundation Classes Release 4, ",
  "definition": "physical or conceptual object that occurs in space",
  "comment": "NOTE  It is specialization of the general term object.",
  "contributors": [
    {
      "name": "Klas Eckerberg",
      "linkedin": "https://www.linkedin.com/in/klaseckerberg/"
    }
  ]
}