{
  "id": "2235a2fa-da7f-4901-a2be-e2c19ec14d44",
  "_schema": "http://schemas.nationella-riktlinjer.se/nrb-concept.2.schema.json",
  "slug": "projekt-ss-en-61355-12009",
  "language": "sv",
  "term": "projekt",
  "source": "SS-EN 61355-1:2009",
  "source_long": "SS-EN 61355-1:2009, Klassificering och beteckning av dokumentslag för anläggningar, system och utrustning – Del 1: Regler och klassificering, 3.12",
  "definition": "generisk term för summan av ekonomiska, tekniska eller andra aktiviteter som hänger samman med ett visst objekt",
  "contributors": [
    {
      "name": "Klas Eckerberg",
      "linkedin": "https://www.linkedin.com/in/klaseckerberg/"
    }
  ],
  "synonyms": [
    "projekt-ss-en-61355-12009-en"
  ]
}