{
  "id": "4cd6b980-ac49-43d8-97ea-1c68b8aa4331",
  "_schema": "http://schemas.nationella-riktlinjer.se/nrb-concept.2.schema.json",
  "slug": "projection-centre-iso-102092012",
  "language": "en",
  "term": "projection centre",
  "source": "ISO 10209:2012",
  "source_long": "ISO 10209:2012 Technical product documentation – Vocabulary – Terms relating to technical drawings, product definition and related documentation, 3.52",
  "definition": "point from which all projection lines originate",
  "contributors": [
    {
      "name": "Klas Eckerberg",
      "linkedin": "https://www.linkedin.com/in/klaseckerberg/"
    }
  ]
}