{
  "id": "52ceeebb-6624-44ef-acd8-3efdd9268da8",
  "_schema": "http://schemas.nationella-riktlinjer.se/nrb-concept.2.schema.json",
  "slug": "projection-angle-iso-102092012",
  "language": "en",
  "term": "projection angle",
  "source": "ISO 10209:2012",
  "source_long": "ISO 10209:2012 Technical product documentation – Vocabulary – Terms relating to technical drawings, product definition and related documentation, 3.51",
  "definition": "angle formed by the projection plane and the horizon plane",
  "contributors": [
    {
      "name": "Klas Eckerberg",
      "linkedin": "https://www.linkedin.com/in/klaseckerberg/"
    }
  ]
}