{
  "id": "9d7a41ef-d0a4-4950-a1bb-f311b5b987d1",
  "_schema": "http://schemas.nationella-riktlinjer.se/nrb-concept.2.schema.json",
  "slug": "projekt-ss-iso-222632008",
  "language": "sv",
  "term": "projekt",
  "source": "SS-ISO 22263:2008",
  "source_long": "SS-ISO 22263:2008, Strukturering av information om byggnadsverk – Ramverk för hantering av processinformation (ISO 22263:2008, IDT), 2.10",
  "definition": "unik process, bestående av en uppsättning koordinerade och styrda aktiviteter med start och slutdatum, genomförda för att uppnå objektivt uppfyllande av specifika krav, inkluderande tids, kostnads och resursramar",
  "comment": "ANM. Anpassning utifrån ISO 9000:2005, 3.4.3.",
  "contributors": [
    {
      "name": "Klas Eckerberg",
      "linkedin": "https://www.linkedin.com/in/klaseckerberg/"
    }
  ],
  "synonyms": [
    "projekt-ss-iso-222632008-en"
  ]
}