{
  "id": "efb948c1-e5cd-4533-b041-f1808768a15b",
  "_schema": "http://schemas.nationella-riktlinjer.se/nrb-concept.2.schema.json",
  "slug": "projektsponsor-iso-16745-12017-en",
  "language": "en",
  "term": "project sponsor",
  "source": "ISO 16745-1:2017",
  "source_long": "ISO 16745-1:2017 Sustainability in buildings and civil engineering works – Carbon metric of an existing building during use stage – Part 1: Calculation, reporting and communication, 3.37",
  "definition": "person or organization that provides the financial resources for the project",
  "comment": "[SOURCE: Adapted from ISO/IEC/IEEE 24765:2010, 3.2838]",
  "contributors": [
    {
      "name": "Klas Eckerberg",
      "linkedin": "https://www.linkedin.com/in/klaseckerberg/"
    }
  ],
  "synonyms": [
    "projektsponsor-iso-16745-12017"
  ]
}