{
  "id": "59a9f1f7-b296-45ad-9ee1-c207ce1ae5ea",
  "_schema": "http://schemas.nationella-riktlinjer.se/nrb-concept.2.schema.json",
  "slug": "projektinformationskrav-isodis-19650-122018-en",
  "language": "en",
  "term": "project information requirements\r\nPIR",
  "source": "SS-EN ISO 19650-1:2019",
  "source_long": "ISO/DIS 19650-1.2:2018 Information management using building information modelling –\r Part 1: Concepts and principles, 3.3.5",
  "definition": "information requirements in relation to the delivery of an asset",
  "contributors": [
    {
      "name": "Klas Eckerberg",
      "linkedin": "https://www.linkedin.com/in/klaseckerberg/"
    }
  ],
  "synonyms": [
    "projektinformationskrav-isodis-19650-122018"
  ]
}