{
  "id": "ea850d3d-2169-4ce1-b1c4-e92092507edf",
  "_schema": "http://schemas.nationella-riktlinjer.se/nrb-concept.2.schema.json",
  "slug": "protection-iso-6707-12017",
  "language": "en",
  "term": "protection",
  "source": "ISO 6707-1:2017",
  "source_long": "ISO 6707-1:2017 Buildings and civil engineering works – Vocabulary – Part 1: General terms, 3.7.3.88",
  "definition": "prevention of environmental and accidental damage that could affect function",
  "contributors": [
    {
      "name": "Klas Eckerberg",
      "linkedin": "https://www.linkedin.com/in/klaseckerberg/"
    }
  ]
}