{
  "id": "12dced5b-125f-4401-b38d-5e64c9cae403",
  "_schema": "http://schemas.nationella-riktlinjer.se/nrb-concept.2.schema.json",
  "slug": "quantity-iec-61360-12017",
  "language": "en",
  "term": "quantity",
  "source": "IEC 61360-1:2017",
  "source_long": "IEC 61360-1:2017 Standard data element types with associated classification scheme – Part 1: Definitions – Principles and methods, 3.1.26",
  "definition": "property of a phenomenon, body, or substance, where the property has a magnitude that can be expressed by means of a number and a reference",
  "comment": "Note 1 to entry: The generic concept “quantity” can be divided into several levels of specific concepts, as shown in Table 1. The left hand side of the table shows specific concepts under “quantity”. These are generic concepts for the individual quantities in the right hand column.\r\nNote 2 to entry: A reference can be a measurement unit, a measurement procedure, a reference material, or a \r\ncombination of them.\r\nNote 3 to entry: Symbols for quantities are given in the IEC 80000 and ISO 80000 series. The symbols for quantities are written in italics. A given symbol can indicate different quantities.\r\nNote 4 to entry: A quantity as defined here is a scalar. However, a vector or a tensor, the components of which are quantities, is also considered to be a quantity.\r\nNote 5 to entry: The concept “quantity” can be generically divided into, for example, “physical quantity”, “chemical quantity”, and “biological quantity”, or “base quantity” and “derived quantity”.\r\nNote 6 to entry: Adapted from ISO/IEC Guide 99:2007, definition 1.1, in which there is an additional note.\r\n[SOURCE: ISO 80000-1:2009, 3.1]",
  "contributors": [
    {
      "name": "Klas Eckerberg",
      "linkedin": "https://www.linkedin.com/in/klaseckerberg/"
    }
  ]
}