{
  "id": "b507cb5f-0a72-4c41-8847-79110215f7b6",
  "_schema": "http://schemas.nationella-riktlinjer.se/nrb-concept.2.schema.json",
  "slug": "record-isoiecieee-152892015",
  "language": "en",
  "term": "record",
  "source": "ISO/IEC/IEEE 15289:2015",
  "source_long": "ISO/IEC/IEEE 15289:2015 Systems and software engineering – Content of life-cycle information items (documentation), 5.22",
  "definition": "set of related data items treated as a unit",
  "contributors": [
    {
      "name": "Klas Eckerberg",
      "linkedin": "https://www.linkedin.com/in/klaseckerberg/"
    }
  ]
}