{
  "id": "5796c287-f264-4143-bd8b-c2c491db4935",
  "_schema": "http://schemas.nationella-riktlinjer.se/nrb-concept.2.schema.json",
  "slug": "reduction-scale-iso-102092012",
  "language": "en",
  "term": "reduction scale",
  "source": "ISO 10209:2012",
  "source_long": "ISO 10209:2012 Technical product documentation – Vocabulary – Terms relating to technical drawings, product definition and related documentation, 3.56",
  "definition": "scale where the ratio is smaller than 1:1",
  "comment": "[ISO 5455:1979]",
  "contributors": [
    {
      "name": "Klas Eckerberg",
      "linkedin": "https://www.linkedin.com/in/klaseckerberg/"
    }
  ]
}