{
  "id": "3f0a2c2c-9f11-401b-82ac-a33f0d713672",
  "_schema": "http://schemas.nationella-riktlinjer.se/nrb-concept.2.schema.json",
  "slug": "referensbeteckning-ss-en-81346-12010",
  "language": "sv",
  "term": "referensbeteckning",
  "source": "SS-EN 81346-1:2010",
  "source_long": "SS-EN 81346-1:2010, Industriella system, installationer och utrustning och industriella produkter – Struktureringsprinciper och referensbeteckningar – Del 1: Grundläggande regler, 3.11",
  "definition": "identifierare för ett visst objekt bildat med avseende på det system i vilket objektet ingår, baserad på en eller flera aspekter av det systemet",
  "contributors": [
    {
      "name": "Klas Eckerberg",
      "linkedin": "https://www.linkedin.com/in/klaseckerberg/"
    }
  ],
  "synonyms": [
    "referensbeteckning-ss-en-81346-12010-en"
  ]
}