{
  "id": "ccc01d09-5df7-4bf1-9278-0bb851b30e09",
  "_schema": "http://schemas.nationella-riktlinjer.se/nrb-concept.2.schema.json",
  "slug": "registerkarta-lantmateriet",
  "language": "sv",
  "term": "registerkarta",
  "source": "Lantmäteriet",
  "definition": "Ingår i fastighetsregistrets allmänna del. I den digitala registerkartan lagras fastighetsindelningen inklusive den administrativa indelningen, officialrättigheter och gemensamhetsanläggningar. Registerkartan har inte någon rättsverkan. Det är förrättningsakten med tillhörande förrättningskarta som har rättsverkan.",
  "comment": "För mer information, besök:",
  "links": [
    {
      "name": "Lantmäteriet",
      "uri": "https://www.lantmateriet.se/sv/Fastigheter/Fastighetsinformation/Fastighetsregistret/Registerkartan/"
    }
  ]
}