{
  "id": "f14ce698-e174-4b85-8233-767b04888c37",
  "_schema": "http://schemas.nationella-riktlinjer.se/nrb-concept.2.schema.json",
  "slug": "representation-iso-102092012",
  "language": "en",
  "term": "representation",
  "source": "ISO 10209:2012",
  "source_long": "ISO 10209:2012 Technical product documentation – Vocabulary – Terms relating to technical drawings, product definition and related documentation, 3.59",
  "definition": "presentation of drawn information relating to any type of technical drawing",
  "contributors": [
    {
      "name": "Klas Eckerberg",
      "linkedin": "https://www.linkedin.com/in/klaseckerberg/"
    }
  ]
}