{
  "id": "a7b53570-70eb-4b58-a84b-275b251c33e7",
  "_schema": "http://schemas.nationella-riktlinjer.se/nrb-concept.2.schema.json",
  "slug": "request-isoiecieee-152892015",
  "language": "en",
  "term": "request",
  "source": "ISO/IEC/IEEE 15289:2015",
  "source_long": "ISO/IEC/IEEE 15289:2015 Systems and software engineering – Content of life-cycle information items (documentation), 5.24",
  "definition": "information item that initiates a defined course of action or change to fulfill a need",
  "contributors": [
    {
      "name": "Klas Eckerberg",
      "linkedin": "https://www.linkedin.com/in/klaseckerberg/"
    }
  ]
}