{
  "id": "05e7a409-d9cc-4e29-a910-4f415f02fe2a",
  "_schema": "http://schemas.nationella-riktlinjer.se/nrb-concept.2.schema.json",
  "slug": "resource-occurrence-ifc-4",
  "language": "en",
  "term": "resource occurrence",
  "source": "IFC 4",
  "source_long": "IFC 4 Industry Foundation Classes Release 4, ",
  "definition": "entity with inherent financial cost, which may be passed onto processes, products, and controls to which it is assigned",
  "contributors": [
    {
      "name": "Klas Eckerberg",
      "linkedin": "https://www.linkedin.com/in/klaseckerberg/"
    }
  ]
}