{
  "id": "11e31a0b-a1af-4c53-b132-7bfa567545b0",
  "_schema": "http://schemas.nationella-riktlinjer.se/nrb-concept.2.schema.json",
  "slug": "reuse-dismantling-drawing-iso-102092012",
  "language": "en",
  "term": "reuse dismantling drawing",
  "source": "ISO 10209:2012",
  "source_long": "ISO 10209:2012 Technical product documentation – Vocabulary – Terms relating to technical drawings, product definition and related documentation, 11.136",
  "definition": "drawing which shows how a building shall be dismantled for reuse",
  "contributors": [
    {
      "name": "Klas Eckerberg",
      "linkedin": "https://www.linkedin.com/in/klaseckerberg/"
    }
  ]
}