{
  "id": "e69509a4-8a87-4d77-a494-b68833016f62",
  "_schema": "http://schemas.nationella-riktlinjer.se/nrb-concept.2.schema.json",
  "slug": "ritningsfil-bygghandlingar-90-del-7-utgava-2",
  "language": "sv",
  "term": "Ritningsfil",
  "source": "Bygghandlingar 90 del 7 utgåva 2",
  "definition": "En digital ritning, vid CAD-projektering skapad utifrån en ritningsdefinitionsfil. Vanliga filformat är PDF och DWF. Ritningsfiler kan vara strukturerade, till exempel lagerindelade, och kan därmed ha icke låst information. Helt ostrukturerade eller låsta ritningsfiler bör benämnas publiceringsfil.",
  "links": [
    {
      "name": "Bygghandlingar 90 del 7 utgåva 2",
      "uri": "http://www.bygghandlingar90.se"
    }
  ]
}