{
  "id": "69f7c5c3-9552-468b-9105-629ddff1b794",
  "_schema": "http://schemas.nationella-riktlinjer.se/nrb-concept.2.schema.json",
  "slug": "road-safety-barrier-barricade-us-iso-6707-12017",
  "language": "en",
  "term": "road safety barrier\r\nbarricade, US",
  "source": "ISO 6707-1:2017",
  "source_long": "ISO 6707-1:2017 Buildings and civil engineering works – Vocabulary – Part 1: General terms, 3.1.3.41",
  "definition": "vehicle restraint system (3.1.3.38) alongside a carriageway (3.1.3.35) in the form of a continuous low wall (3.3.2.46) or similar construction (3.3.5.6)",
  "comment": "Note 1 to entry: In the US, there is a homograph for the term “barricade”. See 3.1.3.38.",
  "contributors": [
    {
      "name": "Klas Eckerberg",
      "linkedin": "https://www.linkedin.com/in/klaseckerberg/"
    }
  ]
}