{
  "id": "c3f46ba7-806f-4730-ade9-1ed3eaac66fc",
  "_schema": "http://schemas.nationella-riktlinjer.se/nrb-concept.2.schema.json",
  "slug": "roofing-iso-6707-12017",
  "language": "en",
  "term": "roofing",
  "source": "ISO 6707-1:2017",
  "source_long": "ISO 6707-1:2017 Buildings and civil engineering works – Vocabulary – Part 1: General terms, 3.3.2.22",
  "definition": "upper layer or layers of a roof (3.3.2.21) that provides a weatherproof surface",
  "contributors": [
    {
      "name": "Klas Eckerberg",
      "linkedin": "https://www.linkedin.com/in/klaseckerberg/"
    }
  ]
}