{
  "id": "8cd4b3ae-eb3a-4590-8de6-629a820d5bb1",
  "_schema": "http://schemas.nationella-riktlinjer.se/nrb-concept.2.schema.json",
  "slug": "roundabout-rotary-us-iso-6707-12017",
  "language": "en",
  "term": "roundabout\r\nrotary, US",
  "source": "ISO 6707-1:2017",
  "source_long": "ISO 6707-1:2017 Buildings and civil engineering works – Vocabulary – Part 1: General terms, 3.1.3.71",
  "definition": "portion of a road (3.1.3.1), usually at a junction, on which traffic (3.8.5) moves in one direction around   a central element",
  "contributors": [
    {
      "name": "Klas Eckerberg",
      "linkedin": "https://www.linkedin.com/in/klaseckerberg/"
    }
  ]
}