{
  "id": "ab86a5bf-4dce-4319-a2dc-bab9b9fbc32d",
  "_schema": "http://schemas.nationella-riktlinjer.se/nrb-concept.2.schema.json",
  "slug": "rutnatsmodell-bygghandlingar-90-del-7-utgava-2",
  "language": "sv",
  "term": "Rutnätsmodell",
  "source": "Bygghandlingar 90 del 7 utgåva 2",
  "definition": "”Digital terrängmodell där modellytan utgörs av höjder i ett interpolerat rutnät, ibland med hjälp av s.k. progressiv sampling.” ( SIS-TS 21144 :2007 ) Sammansatt ytobjekt bestående av rektanglar som förbinder punkter. Rutnätsmodeller över markytor görs vanligen med kvadratiska rutor. Indata är vanligen från höjdmodell. Rutnätsmodeller används vanligen för grövre representationer av ytor och för redovisning av flacka områden. Även vissa vägmodeller byggs upp av rutnät (rektanglar). Rutnätsmodeller är också användbara vid visualisering med perspektivbilder, och vid redovisning av schakt- och fyllnadsområden.",
  "comment": "Synonym ’gittermodell’",
  "links": [
    {
      "name": "Bygghandlingar 90 del 7 utgåva 2",
      "uri": "http://www.bygghandlingar90.se"
    }
  ],
  "synonyms": [
    "rutnatsmodell-bygghandlingar-90-del-7-utgava-2-en"
  ]
}