{
  "id": "94aa9777-c3d9-4ef8-98cd-ddcea11610e9",
  "_schema": "http://schemas.nationella-riktlinjer.se/nrb-concept.2.schema.json",
  "slug": "samordning-bim-alliance",
  "language": "sv",
  "term": "samordning",
  "inflections": ["samordningen", "samordnas", "samordnar"],
  "source": "BIM Alliance",
  "definition": "Arbetsplatsdispositionsmodeller där till exempel utrymmeskrav för bodar, räckvidder för kranar och transportvägar läggs in.",
  "links": [
    {
      "name": "BIM Alliance",
      "uri": "https://www.bimalliance.se/library/2688/rollbeskrivning_bim_v2.pdf"
    }
  ]
}