{
  "id": "46c4a570-9a60-4fc4-8214-d3fa5ff3ef14",
  "_schema": "http://schemas.nationella-riktlinjer.se/nrb-concept.2.schema.json",
  "slug": "samverkande-produktionsprocess-iso-219302017-en",
  "language": "en",
  "term": "joint co-production process",
  "source": "ISO 21930:2017",
  "source_long": "ISO 21930:2017 Sustainability in buildings and civil engineering works – Core rules for environmental product declarations of construction products and services, 3.4.8",
  "definition": "process of producing a product and one or more co-products or by-products where the proportion of outputs is not commonly changed or cannot be varied",
  "contributors": [
    {
      "name": "Klas Eckerberg",
      "linkedin": "https://www.linkedin.com/in/klaseckerberg/"
    }
  ],
  "synonyms": [
    "samverkande-produktionsprocess-iso-219302017"
  ]
}