{
  "id": "de4b8d33-098c-443a-9d5c-c35743a418d8",
  "_schema": "http://schemas.nationella-riktlinjer.se/nrb-concept.2.schema.json",
  "slug": "schablondata-iso-219302017-en",
  "language": "en",
  "term": "proxy data",
  "source": "ISO 21930:2017",
  "source_long": "ISO 21930:2017 Sustainability in buildings and civil engineering works – Core rules for environmental product declarations of construction products and services, 3.5.5",
  "definition": "approximate data used if no system specific or generic data are available",
  "comment": "EXAMPLE: Data for production of acetic acid used in lieu of data for production of formic acid or selection of a generic data set of electricity from one region to represent another region.\r\nNote 1 to entry: Data can be site specific or average.",
  "contributors": [
    {
      "name": "Klas Eckerberg",
      "linkedin": "https://www.linkedin.com/in/klaseckerberg/"
    }
  ],
  "synonyms": [
    "schablondata-iso-219302017"
  ]
}