{
  "id": "a23a3a38-0a56-4883-ba9c-ad020d86388e",
  "_schema": "http://schemas.nationella-riktlinjer.se/nrb-concept.2.schema.json",
  "slug": "screen-dwarf-wall-us-iso-6707-12017",
  "language": "en",
  "term": "screen\r\ndwarf wall, US",
  "source": "ISO 6707-1:2017",
  "source_long": "ISO 6707-1:2017 Buildings and civil engineering works – Vocabulary – Part 1: General terms, 3.3.2.52",
  "definition": "partition (3.3.2.47), sometimes self-supporting, which might not extend fully from floor (3.3.2.10) to ceiling (3.3.2.18), and which provides a degree of visual privacy or protection or both",
  "comment": "Note 1 to entry: There are homographs for the term “screen”. See 3.3.2.53 and 3.5.3.18.",
  "contributors": [
    {
      "name": "Klas Eckerberg",
      "linkedin": "https://www.linkedin.com/in/klaseckerberg/"
    }
  ]
}