{
  "id": "d80823e6-5144-d9ff-1a87-ec907d7e998c",
  "_schema": "http://schemas.nationella-riktlinjer.se/nrb-concept.2.schema.json",
  "slug": "sektionsritning-bygglovguiden",
  "language": "sv",
  "term": "Sektionsritning",
  "source": "Bygglovguiden",
  "definition": "Genomskärning genom huset som visar konstruktionen, grundläggningssättet, rumshöjder, bjälklagens placering och takkonstruktionen. Sektionen skall måttsättas så att rumshöjderna och byggnadshöjden framgår. På planritningen visar man med en streckad linje genom huset var sektionen är tagen. "
}