{
  "id": "41e3fa89-ce1d-49f7-98e2-b801a9956f17",
  "_schema": "http://schemas.nationella-riktlinjer.se/nrb-concept.2.schema.json",
  "slug": "sekundar-produkt-iso-219302017",
  "language": "sv",
  "term": "sekundär produkt",
  "source": "ISO 21930:2017",
  "source_long": "ISO 21930:2017, Sustainability in buildings and civil engineering works – Core rules for environmental product declarations of construction products and services, 3.4.6",
  "definition": "",
  "contributors": [
    {
      "name": "Klas Eckerberg",
      "linkedin": "https://www.linkedin.com/in/klaseckerberg/"
    }
  ],
  "synonyms": [
    "sekundar-produkt-iso-219302017-en"
  ]
}