{
  "id": "fa275092-4e8e-4c81-891d-9a946042e089",
  "_schema": "http://schemas.nationella-riktlinjer.se/nrb-concept.2.schema.json",
  "slug": "sequential-tendering-sequential-bidding-us-iso-6707-22017",
  "language": "en",
  "term": "sequential tendering\r\nsequential bidding, US",
  "source": "ISO 6707-2:2017",
  "source_long": "ISO 6707-2:2017 Buildings and civil engineering works – Vocabulary – Part 2: Contract and communication terms, 3.5.7",
  "definition": "tendering (3.5.1) in which only pre-planned elements are priced in detail so that construction work on site can start before the design is complete",
  "contributors": [
    {
      "name": "Klas Eckerberg",
      "linkedin": "https://www.linkedin.com/in/klaseckerberg/"
    }
  ]
}