{
  "id": "066f215a-fc21-4df5-bac0-5877ae481dc9",
  "_schema": "http://schemas.nationella-riktlinjer.se/nrb-concept.2.schema.json",
  "slug": "serial-number-en-62507-12011",
  "language": "en",
  "term": "serial number",
  "source": "EN 62507-1:2011",
  "source_long": "EN 62507-1:2011 Identification systems enabling unambiguous information interchange – Requirements – Part 1: Principles and methods, 3.20",
  "definition": "identification number assigned to an individual specimen of objects or an object type",
  "comment": "NOTE In most industrial applications a serial number is used for tracing the different individual specimen of a product type during their life times, e.g. the individual cars manufactured of a specific car type.\r\nIn other cases the serial number is used as a running number in order to differentiate among different objects or among different objects within a given domain.",
  "contributors": [
    {
      "name": "Klas Eckerberg",
      "linkedin": "https://www.linkedin.com/in/klaseckerberg/"
    }
  ]
}