{
  "id": "4eb7ce87-f30d-4a2e-98ad-0f55ebc5e5ff",
  "_schema": "http://schemas.nationella-riktlinjer.se/nrb-concept.2.schema.json",
  "slug": "service-life-iso-6707-12017",
  "language": "en",
  "term": "service life",
  "source": "ISO 6707-1:2017",
  "source_long": "ISO 6707-1:2017 Buildings and civil engineering works – Vocabulary – Part 1: General terms, 3.7.3.84",
  "definition": "period of time after installation during which a facility or its component parts meet or exceed the performance requirements (3.7.1.14)",
  "comment": "[SOURCE: ISO 15686-1:2011, 3.25]",
  "contributors": [
    {
      "name": "Klas Eckerberg",
      "linkedin": "https://www.linkedin.com/in/klaseckerberg/"
    }
  ]
}