{
  "id": "6b0fb7bc-097a-451d-852b-6a9eb52b5e73",
  "_schema": "http://schemas.nationella-riktlinjer.se/nrb-concept.2.schema.json",
  "slug": "shaft-iso-6707-12017",
  "language": "en",
  "term": "shaft",
  "source": "ISO 6707-1:2017",
  "source_long": "ISO 6707-1:2017 Buildings and civil engineering works – Vocabulary – Part 1: General terms, 3.1.2.13",
  "definition": "vertical or steeply inclined excavation (3.1.2.2), usually of limited cross-section in relation to its depth (3.7.2.7)",
  "contributors": [
    {
      "name": "Klas Eckerberg",
      "linkedin": "https://www.linkedin.com/in/klaseckerberg/"
    }
  ]
}