{
  "id": "9dafce57-30cc-4b27-ae67-401e827e7aa7",
  "_schema": "http://schemas.nationella-riktlinjer.se/nrb-concept.2.schema.json",
  "slug": "sidbeteckning-ss-en-61355-12009-en",
  "language": "en",
  "term": "document page designation",
  "source": "EN 61355-1:2009",
  "source_long": "EN 61355-1:2009 Classification and designation of documents for plants, systems and equipment – Part 1: Rules and classification tables, 3.16",
  "definition": "",
  "contributors": [
    {
      "name": "Klas Eckerberg",
      "linkedin": "https://www.linkedin.com/in/klaseckerberg/"
    }
  ],
  "synonyms": [
    "sidbeteckning-ss-en-61355-12009"
  ]
}