{
  "id": "e6fceac3-a8eb-40cd-bcee-87ba341d03d7",
  "_schema": "http://schemas.nationella-riktlinjer.se/nrb-concept.2.schema.json",
  "slug": "signal-list-iso-102092012",
  "language": "en",
  "term": "signal list",
  "source": "ISO 10209:2012",
  "source_long": "ISO 10209:2012 Technical product documentation – Vocabulary – Terms relating to technical drawings, product definition and related documentation, 11.141",
  "definition": "list providing information about signals defined as input or output of functional units",
  "comment": "[ISO 29845:2011]",
  "contributors": [
    {
      "name": "Klas Eckerberg",
      "linkedin": "https://www.linkedin.com/in/klaseckerberg/"
    }
  ]
}