{
  "id": "fa4c5fda-d173-4a96-8cec-380229fe1beb",
  "_schema": "http://schemas.nationella-riktlinjer.se/nrb-concept.2.schema.json",
  "slug": "sill-subsill-us-iso-6707-12017",
  "language": "en",
  "term": "sill\r\nsubsill, US",
  "source": "ISO 6707-1:2017",
  "source_long": "ISO 6707-1:2017 Buildings and civil engineering works – Vocabulary – Part 1: General terms, 3.3.3.44",
  "definition": "construction (3.3.5.6) that provides a seating for a window frame (3.3.3.21) or door frame (3.3.3.20)",
  "comment": "Note 1 to entry: There is a homograph for the term “sill”. See 3.3.3.42.",
  "contributors": [
    {
      "name": "Klas Eckerberg",
      "linkedin": "https://www.linkedin.com/in/klaseckerberg/"
    }
  ]
}