{
  "id": "2c2a9d36-4be4-4672-a02d-cc87937e2f71",
  "_schema": "http://schemas.nationella-riktlinjer.se/nrb-concept.2.schema.json",
  "slug": "siluettmodell-bygghandlingar-90-del-7-utgava-2-en",
  "language": "en",
  "term": "DSM: Digital Surface Model",
  "source": "Bygghandlingar 90 del 7 utgåva 2",
  "definition": "",
  "links": [
    {
      "name": "Bygghandlingar 90 del 7 utgåva 2",
      "uri": "http://ww.bygghandlingar90.se"
    }
  ],
  "synonyms": [
    "siluettmodell-bygghandlingar-90-del-7-utgava-2"
  ]
}