{
  "id": "75d0f660-2617-472c-bc43-1ab80024c17d",
  "_schema": "http://schemas.nationella-riktlinjer.se/nrb-concept.2.schema.json",
  "slug": "sketch-plan-stage-schematic-design-phase-us-conceptual-st",
  "language": "en",
  "term": "sketch plan stage\r\nschematic design phase, US\r\nconceptual stage, US",
  "source": "ISO 6707-2:2017",
  "source_long": "ISO 6707-2:2017 Buildings and civil engineering works – Vocabulary – Part 2: Contract and communication terms, 3.3.9",
  "definition": "stage (3.3.4) at which alternative outline proposals are evaluated and a preferred solution produced sufficiently to obtain client (3.8.2), user and statutory approval, and then developed into a design solution fully integrated with constructional, structural and service requirements",
  "comment": "Note 1 to entry: In the UK, it is usual to divide this stage into two: outline design stage, and final sketch or scheme design stage.",
  "contributors": [
    {
      "name": "Klas Eckerberg",
      "linkedin": "https://www.linkedin.com/in/klaseckerberg/"
    }
  ]
}