{
  "id": "a520e445-7af3-4a55-afd6-e3abe9e7b448",
  "_schema": "http://schemas.nationella-riktlinjer.se/nrb-concept.2.schema.json",
  "slug": "smart-planering-for-byggande-gml-xml",
  "language": "sv",
  "term": "GML (XML)",
  "source": "Smart planering för byggande",
  "definition": "Geographic Markup Language - XML-baserat sätt att representera geografiska data. Extensible Markup Language - av organisationen W3C standardiserad samling regler för att specifiera kodning av data SIS termdatabas ekvator GML är OGC- och ISO-standard.",
  "comment": "SIS termdatabas ekvator, GML är OGC- och ISO-standard.",
  "links": [
    {
      "name": "Smart planering för byggande",
      "uri": "http://www.smartbuilt.se/library/3999/bilaga-7-180401-smart_planering-bilaga_7_begrepp.pdf"
    }
  ],
  "contributors": [
    {
      "name": "Salih Sen",
      "linkedin": "https://linkedin.com/in/salih-sen-b0232126"
    }
  ]
}