{
  "id": "1033536c-fef3-4511-95db-b1393d3a6129",
  "_schema": "http://schemas.nationella-riktlinjer.se/nrb-concept.2.schema.json",
  "slug": "software-item-isoiecieee-152892015",
  "language": "en",
  "term": "software item",
  "source": "ISO/IEC/IEEE 15289:2015",
  "source_long": "ISO/IEC/IEEE 15289:2015 Systems and software engineering – Content of life-cycle information items (documentation), 5.26",
  "definition": "identifiable part of a software product",
  "comment": "EXAMPLE identification and descriptions of the software product, software life-cycle data, archive and release data, and instructions for building the executable object code",
  "contributors": [
    {
      "name": "Klas Eckerberg",
      "linkedin": "https://www.linkedin.com/in/klaseckerberg/"
    }
  ]
}