{
  "id": "596381e8-b5f4-47bc-8763-dcf1b7ea5488",
  "_schema": "http://schemas.nationella-riktlinjer.se/nrb-concept.2.schema.json",
  "slug": "soil-earth-us-iso-6707-12017",
  "language": "en",
  "term": "soil\r\nearth, US",
  "source": "ISO 6707-1:2017",
  "source_long": "ISO 6707-1:2017 Buildings and civil engineering works – Vocabulary – Part 1: General terms, 3.4.2.2",
  "definition": "mineral material (3.4.1.2) that results from the weathering (3.7.3.70) of rock or decay of vegetation",
  "contributors": [
    {
      "name": "Klas Eckerberg",
      "linkedin": "https://www.linkedin.com/in/klaseckerberg/"
    }
  ]
}