{
  "id": "1c3cc234-0ad9-4a2d-bdd9-ef6f15b508c3",
  "_schema": "http://schemas.nationella-riktlinjer.se/nrb-concept.2.schema.json",
  "slug": "space-envelope-drawing-iso-102092012",
  "language": "en",
  "term": "space envelope drawing",
  "source": "ISO 10209:2012",
  "source_long": "ISO 10209:2012 Technical product documentation – Vocabulary – Terms relating to technical drawings, product definition and related documentation, 11.145",
  "definition": "drawing showing the maximum space which can be occupied for an intended design solution and the geometrically significant interfaces of components and assemblies which are not yet designed in detail",
  "comment": "[ISO 29845:2011]",
  "contributors": [
    {
      "name": "Klas Eckerberg",
      "linkedin": "https://www.linkedin.com/in/klaseckerberg/"
    }
  ]
}