{
  "id": "3ae673d1-1a5a-4f3e-a704-f271629d96c4",
  "_schema": "http://schemas.nationella-riktlinjer.se/nrb-concept.2.schema.json",
  "slug": "specifier-iso-6707-12017",
  "language": "en",
  "term": "specifier",
  "source": "ISO 6707-1:2017",
  "source_long": "ISO 6707-1:2017 Buildings and civil engineering works – Vocabulary – Part 1: General terms, 3.6.4",
  "definition": "person or organization preparing a product (3.4.1.3) specification or specification of works as part of the contract documents",
  "contributors": [
    {
      "name": "Klas Eckerberg",
      "linkedin": "https://www.linkedin.com/in/klaseckerberg/"
    }
  ]
}