{
  "id": "6f5f7471-f449-4bd6-adac-c96defaf4ca1",
  "_schema": "http://schemas.nationella-riktlinjer.se/nrb-concept.2.schema.json",
  "slug": "spirit-level-iso-6707-12017",
  "language": "en",
  "term": "spirit level",
  "source": "ISO 6707-1:2017",
  "source_long": "ISO 6707-1:2017 Buildings and civil engineering works – Vocabulary – Part 1: General terms, 3.5.3.19",
  "definition": "device for indicating or checking horizontal or vertical planes, which consists of one or more sealed tubes (3.4.1.11) made of glass (3.4.1.6) containing a liquid and a trapped air bubble, mounted in a frame (3.3.1.70)",
  "contributors": [
    {
      "name": "Klas Eckerberg",
      "linkedin": "https://www.linkedin.com/in/klaseckerberg/"
    }
  ]
}