{
  "id": "05a5e7cd-5fa7-4d3e-88de-df66f32a5325",
  "_schema": "http://schemas.nationella-riktlinjer.se/nrb-concept.2.schema.json",
  "slug": "spreader-beam-iso-6707-12017",
  "language": "en",
  "term": "spreader beam",
  "source": "ISO 6707-1:2017",
  "source_long": "ISO 6707-1:2017 Buildings and civil engineering works – Vocabulary – Part 1: General terms, 3.3.1.42",
  "definition": "beam (3.3.1.11) designed to distribute concentrated loads (3.7.3.19)",
  "contributors": [
    {
      "name": "Klas Eckerberg",
      "linkedin": "https://www.linkedin.com/in/klaseckerberg/"
    }
  ]
}