{
  "id": "c9dd15fd-2269-4385-ae0c-d020d4746625",
  "_schema": "http://schemas.nationella-riktlinjer.se/nrb-concept.2.schema.json",
  "slug": "stanchion-iso-6707-12017",
  "language": "en",
  "term": "stanchion",
  "source": "ISO 6707-1:2017",
  "source_long": "ISO 6707-1:2017 Buildings and civil engineering works – Vocabulary – Part 1: General terms, 3.3.1.47",
  "definition": "metal column (3.3.1.10) that serves as a post (3.3.1.52) in a guardrail system",
  "contributors": [
    {
      "name": "Klas Eckerberg",
      "linkedin": "https://www.linkedin.com/in/klaseckerberg/"
    }
  ]
}