{
  "id": "4c625c18-c45d-4033-a1e5-b78f46bd2bca",
  "_schema": "http://schemas.nationella-riktlinjer.se/nrb-concept.2.schema.json",
  "slug": "steel-framed-building-iso-6707-12017",
  "language": "en",
  "term": "steel-framed building",
  "source": "ISO 6707-1:2017",
  "source_long": "ISO 6707-1:2017 Buildings and civil engineering works – Vocabulary – Part 1: General terms, 3.1.4.15",
  "definition": "framed building (3.1.4.14) in which steel is the main structural material (3.4.1.2)",
  "contributors": [
    {
      "name": "Klas Eckerberg",
      "linkedin": "https://www.linkedin.com/in/klaseckerberg/"
    }
  ]
}