{
  "id": "19b8ebfc-b73b-4087-9a10-e7d302b1d373",
  "_schema": "http://schemas.nationella-riktlinjer.se/nrb-concept.2.schema.json",
  "slug": "strategisk-plan-for-forvaltning-av-tillgangar-strategic-ass",
  "language": "sv",
  "term": "strategisk plan för förvaltning av tillgångar (Strategic Asset Management Plan) SAMP",
  "source": "SS-ISO 55000:2014",
  "source_long": "SS-ISO 55000:2014, Ledningssystem för tillgångar – Översikt, principer och terminologi, 3.3.2",
  "definition": "dokumenterad information (3.1.6) som anger hur organisationens mål (3.1.14) ska omvandlas till mål (3.1.12) för förvaltning av tillgångar (3.3.1), metoden för att utveckla tillgångsförvaltnings planer (3.3.3), och anger rollen som ledningssystemet för tillgångar (3.4.3) har för att främja att de uppsatta målen för förvaltning av tillgångar uppnås",
  "comment": "Anm. 1 till termpost: En strategisk plan för förvaltning av tillgångar härleds från organisationsplanen (3.1.15).\r\nAnm. 2 till termpost: En strategisk plan för förvaltning av tillgångar kan ingå i, eller vara en underordnad plan till, organisationsplanen.",
  "contributors": [
    {
      "name": "Klas Eckerberg",
      "linkedin": "https://www.linkedin.com/in/klaseckerberg/"
    }
  ],
  "synonyms": [
    "strategisk-plan-for-forvaltning-av-tillgangar-strategic-ass-en"
  ]
}