{
  "id": "6b6cd0b5-4c51-4b43-a32e-363076998bbe",
  "_schema": "http://schemas.nationella-riktlinjer.se/nrb-concept.2.schema.json",
  "slug": "structure-iso-6707-12017",
  "language": "en",
  "term": "structure",
  "source": "ISO 6707-1:2017",
  "source_long": "ISO 6707-1:2017 Buildings and civil engineering works – Vocabulary – Part 1: General terms, 3.3.1.2",
  "definition": "organized combination of connected parts designed to provide some measure (3.7.1.7) of rigidity",
  "comment": "Note 1 to entry: There is a homograph for the term “structure”. See 3.1.1.4.",
  "contributors": [
    {
      "name": "Klas Eckerberg",
      "linkedin": "https://www.linkedin.com/in/klaseckerberg/"
    }
  ]
}