{
  "id": "28e0a0bd-04e8-4148-97ef-08cb91580c71",
  "_schema": "http://schemas.nationella-riktlinjer.se/nrb-concept.2.schema.json",
  "slug": "subclass-iec-61360-12017",
  "language": "en",
  "term": "subclass",
  "source": "IEC 61360-1:2017",
  "source_long": "IEC 61360-1:2017 Standard data element types with associated classification scheme – Part 1: Definitions – Principles and methods, 3.1.28",
  "definition": "class that is one step below another class in a class inclusion hierarchy",
  "comment": "Note 1 to entry: In the common ISO 13584/IEC 61360 dictionary model, class inclusion hierarchies are defined by the is-a relationship. They can also be established by the case-of relationships.\r\n[SOURCE: IEC 61360-2:2012, 3.43]",
  "contributors": [
    {
      "name": "Klas Eckerberg",
      "linkedin": "https://www.linkedin.com/in/klaseckerberg/"
    }
  ]
}