{
  "id": "38ed9611-9c60-4a0e-be48-e3be8111955a",
  "_schema": "http://schemas.nationella-riktlinjer.se/nrb-concept.2.schema.json",
  "slug": "superclass-iec-61360-12017",
  "language": "en",
  "term": "superclass",
  "source": "IEC 61360-1:2017",
  "source_long": "IEC 61360-1:2017 Standard data element types with associated classification scheme – Part 1: Definitions – Principles and methods, 3.1.29",
  "definition": "class that is one step above another class in a class inclusion hierarchy",
  "comment": "Note 1 to entry: In the common ISO 13584/IEC 61360 dictionary model, class inclusion hierarchies are defined by the is-a relationship. They can also be established by the case-of relationships.\r\nNote 2 to entry: In the common ISO 13584/IEC 61360 dictionary model, a class has at most one superclass specified by means of an is-a relationship.\r\n[SOURCE: IEC 61360-2:2012, 3.44]",
  "contributors": [
    {
      "name": "Klas Eckerberg",
      "linkedin": "https://www.linkedin.com/in/klaseckerberg/"
    }
  ]
}