{
  "id": "993c265e-f2bf-4a2e-8dbf-fee49fdca80d",
  "_schema": "http://schemas.nationella-riktlinjer.se/nrb-concept.2.schema.json",
  "slug": "supplier-iso-6707-22017",
  "language": "en",
  "term": "supplier",
  "source": "ISO 6707-2:2017",
  "source_long": "ISO 6707-2:2017 Buildings and civil engineering works – Vocabulary – Part 2: Contract and communication terms, 3.8.30",
  "definition": "person or organization (3.1.2) supplying materials or products",
  "contributors": [
    {
      "name": "Klas Eckerberg",
      "linkedin": "https://www.linkedin.com/in/klaseckerberg/"
    }
  ]
}