{
  "id": "820ac0c7-a118-4a26-a1d6-d70ecc884bff",
  "_schema": "http://schemas.nationella-riktlinjer.se/nrb-concept.2.schema.json",
  "slug": "supplier-drawing-iso-102092012",
  "language": "en",
  "term": "supplier drawing",
  "source": "ISO 10209:2012",
  "source_long": "ISO 10209:2012 Technical product documentation – Vocabulary – Terms relating to technical drawings, product definition and related documentation, 11.152",
  "definition": "drawing defining a part developed and owned by an external supplier",
  "comment": "[ISO 29845:2011]",
  "contributors": [
    {
      "name": "Klas Eckerberg",
      "linkedin": "https://www.linkedin.com/in/klaseckerberg/"
    }
  ]
}