{
  "id": "f3d78b29-17a7-47f7-9c4b-88ac5b550489",
  "_schema": "http://schemas.nationella-riktlinjer.se/nrb-concept.2.schema.json",
  "slug": "systemgrans-iso-16745-12017",
  "language": "sv",
  "term": "systemgräns",
  "source": "ISO 16745-1:2017",
  "source_long": "ISO 16745-1:2017, Sustainability in buildings and civil engineering works – Carbon metric of an existing building during use stage – Part 1: Calculation, reporting and communication, 3.18",
  "definition": "",
  "contributors": [
    {
      "name": "Klas Eckerberg",
      "linkedin": "https://www.linkedin.com/in/klaseckerberg/"
    }
  ],
  "synonyms": [
    "systemgrans-iso-16745-12017-en"
  ]
}