{
  "id": "39975984-443f-47b7-bcac-6149426cd986",
  "_schema": "http://schemas.nationella-riktlinjer.se/nrb-concept.2.schema.json",
  "slug": "system-ss-en-61355-12009-en",
  "language": "en",
  "term": "system",
  "source": "EN 61355-1:2009",
  "source_long": "EN 61355-1:2009 Classification and designation of documents for plants, systems and equipment – Part 1: Rules and classification tables, 3.9",
  "definition": "",
  "contributors": [
    {
      "name": "Klas Eckerberg",
      "linkedin": "https://www.linkedin.com/in/klaseckerberg/"
    }
  ],
  "synonyms": [
    "system-ss-en-61355-12009"
  ]
}