{
  "id": "255e931f-2dc0-4579-82b0-27e82a64daa8",
  "_schema": "http://schemas.nationella-riktlinjer.se/nrb-concept.2.schema.json",
  "slug": "taglinje-bygghandlingar-90-del-7-utgava-2",
  "language": "sv",
  "term": "Tåglinje",
  "source": "Bygghandlingar 90 del 7 utgåva 2",
  "definition": "Se allmän linje.",
  "links": [
    {
      "name": "Bygghandlingar 90 del 7 utgåva 2",
      "uri": "http://www.bygghandlingar90.se"
    }
  ]
}