{
  "id": "e10e83ee-a5e5-47e8-86f1-7b4484e62b67",
  "_schema": "http://schemas.nationella-riktlinjer.se/nrb-concept.2.schema.json",
  "slug": "tap-faucet-us-draw-off-tap-gb-iso-6707-12017",
  "language": "en",
  "term": "tap\r\nfaucet, US\r\ndraw-off tap, GB",
  "source": "ISO 6707-1:2017",
  "source_long": "ISO 6707-1:2017 Buildings and civil engineering works – Vocabulary – Part 1: General terms, 3.3.4.61",
  "definition": "small-diameter, manually operated valve (3.3.4.54) with a free outlet, from which water is drawn",
  "contributors": [
    {
      "name": "Klas Eckerberg",
      "linkedin": "https://www.linkedin.com/in/klaseckerberg/"
    }
  ]
}