{
  "id": "c80b0036-181f-4209-87f4-b45e4dfea9e5",
  "_schema": "http://schemas.nationella-riktlinjer.se/nrb-concept.2.schema.json",
  "slug": "tender-sum-contract-amount-us-iso-6707-22017",
  "language": "en",
  "term": "tender sum\r\ncontract amount, US",
  "source": "ISO 6707-2:2017",
  "source_long": "ISO 6707-2:2017 Buildings and civil engineering works – Vocabulary – Part 2: Contract and communication terms, 3.5.10",
  "definition": "sum stated in a tender (3.2.21)",
  "comment": "Note 1 to entry: In the US, there is a homograph for the term “contract amount”. See 3.5.31.",
  "contributors": [
    {
      "name": "Klas Eckerberg",
      "linkedin": "https://www.linkedin.com/in/klaseckerberg/"
    }
  ]
}