{
  "id": "8026dd7f-56f5-427b-a93f-915c0e5d8bab",
  "_schema": "http://schemas.nationella-riktlinjer.se/nrb-concept.2.schema.json",
  "slug": "term-gs1",
  "language": "sv",
  "term": "term",
  "source": "GS1",
  "source_long": "GS1, Handledning artikelinformation, GDSN Release 3.1.4",
  "definition": "avgränsad information om en artikel",
  "comment": "Motsvarar egenskap enligt TNC.\r\nInformationen i Artikelinformation beskrivs med hjälp av termer. Varje term beskriver en viss del av Artikelinformation, som till exempel artikelns höjd, artikelns bredd eller varumärket för artikeln. En term består av ett termnamn, ett termnummer och en definition. Till exempel har termen som beskriver artikelns höjd följande termnummer, termnamn och definition:\r\n- Termnummer: T4019\r\n- Termnamn: Artikelns höjd, värde\r\n- Definition: Artikelns mått i vertikalled från artikelns lägsta punkt till dess högsta punkt, inklusive emballage.\r\nTermnumret är unikt för termen och gör det lätt att hålla reda på termen även om den av någon anledning skulle byta namn. exempel en schampoflaska, en låda med 6 schampoflaskor eller en pall med lådor med schampoflaskor.",
  "contributors": [
    {
      "name": "Klas Eckerberg",
      "linkedin": "https://www.linkedin.com/in/klaseckerberg/"
    }
  ]
}