{
  "id": "664599ba-4bc0-41e1-888d-52f04d3ac39f",
  "_schema": "http://schemas.nationella-riktlinjer.se/nrb-concept.2.schema.json",
  "slug": "terminal-line-iso-102092012",
  "language": "en",
  "term": "terminal line",
  "source": "ISO 10209:2012",
  "source_long": "ISO 10209:2012 Technical product documentation – Vocabulary – Terms relating to technical drawings, product definition and related documentation, 5.12",
  "definition": "line of a graphical symbol ending at a connect node",
  "comment": "[ISO 14617-1:2005]",
  "contributors": [
    {
      "name": "Klas Eckerberg",
      "linkedin": "https://www.linkedin.com/in/klaseckerberg/"
    }
  ]
}