{
  "id": "9706c9cc-7bd4-4373-8110-625f2e8b312c",
  "_schema": "http://schemas.nationella-riktlinjer.se/nrb-concept.2.schema.json",
  "slug": "thermal-insulation-material-thermal-insulating-material-us-",
  "language": "en",
  "term": "thermal insulation material thermal insulating material, US",
  "source": "ISO 6707-1:2017",
  "source_long": "ISO 6707-1:2017 Buildings and civil engineering works – Vocabulary – Part 1: General terms, 3.4.4.32",
  "definition": "material (3.4.1.1) that is intended to reduce heat transfer and that derives its insulation properties from its chemical nature and/or its physical structure [SOURCE: ISO 9229:2007, 2.1.1]",
  "contributors": [
    {
      "name": "Klas Eckerberg",
      "linkedin": "https://www.linkedin.com/in/klaseckerberg/"
    }
  ]
}