{
  "id": "fe8d55ea-c0ba-4cf4-9a89-a63f94906cf8",
  "_schema": "http://schemas.nationella-riktlinjer.se/nrb-concept.2.schema.json",
  "slug": "tid-for-avhjalpande-underhall-ss-en-133062010-en",
  "language": "en",
  "term": "corrective maintenance time",
  "source": "EN 13306:2010",
  "source_long": "EN 13306:2010 Maintenance – Maintenance terminology, 9.9",
  "definition": "part of the maintenance time when active maintenance is carried out on an item, excluding logistic delays",
  "contributors": [
    {
      "name": "Klas Eckerberg",
      "linkedin": "https://www.linkedin.com/in/klaseckerberg/"
    }
  ],
  "synonyms": [
    "tid-for-avhjalpande-underhall-ss-en-133062010"
  ]
}