{
  "id": "02b743a3-63e6-4316-a973-103842d78f81",
  "_schema": "http://schemas.nationella-riktlinjer.se/nrb-concept.2.schema.json",
  "slug": "tid-for-aktivt-underhall-ss-en-133062010-en",
  "language": "en",
  "term": "active maintenance time",
  "source": "EN 13306:2010",
  "source_long": "EN 13306:2010 Maintenance – Maintenance terminology, 9.10",
  "definition": "part of the maintenance time when active maintenance is carried out on an item, excluding logistic delays",
  "contributors": [
    {
      "name": "Klas Eckerberg",
      "linkedin": "https://www.linkedin.com/in/klaseckerberg/"
    }
  ],
  "synonyms": [
    "tid-for-aktivt-underhall-ss-en-133062010"
  ]
}