{
  "id": "e201a181-72db-4c77-ab13-2f07aa2daacc",
  "_schema": "http://schemas.nationella-riktlinjer.se/nrb-concept.2.schema.json",
  "slug": "tid-for-aktivt-forebyggande-underhall-ss-en-133062010",
  "language": "sv",
  "term": "tid för aktivt förebyggande underhåll",
  "source": "SS-EN 13306:2010",
  "source_long": "SS-EN 13306:2010, Underhåll – Terminologi, 9.12",
  "definition": "tidsintervall när en aktiv förebyggande underhållsåtgärd utförs",
  "comment": "Anm. till termpost: All teknisk väntetid är borträknad från tid för aktiv förebyggande underhåll.",
  "contributors": [
    {
      "name": "Klas Eckerberg",
      "linkedin": "https://www.linkedin.com/in/klaseckerberg/"
    }
  ],
  "synonyms": [
    "tid-for-aktivt-forebyggande-underhall-ss-en-133062010-en"
  ]
}