{
  "id": "4f06daff-e3c4-41f2-befe-ee397d94286c",
  "_schema": "http://schemas.nationella-riktlinjer.se/nrb-concept.2.schema.json",
  "slug": "tie-tie-rod-us-iso-6707-12017",
  "language": "en",
  "term": "tie\r\ntie rod, US",
  "source": "ISO 6707-1:2017",
  "source_long": "ISO 6707-1:2017 Buildings and civil engineering works – Vocabulary – Part 1: General terms, 3.3.1.22",
  "definition": "structural member (3.3.1.3) intended to resist axial forces (3.7.3.22) acting in tension",
  "comment": "Note 1 to entry: In the US, there is a homograph for the term “tie”. See 3.1.3.10.",
  "contributors": [
    {
      "name": "Klas Eckerberg",
      "linkedin": "https://www.linkedin.com/in/klaseckerberg/"
    }
  ]
}