{
  "id": "7a4ee5eb-6a5b-4720-9830-7cccbd68c54e",
  "_schema": "http://schemas.nationella-riktlinjer.se/nrb-concept.2.schema.json",
  "slug": "tile-iso-6707-12017",
  "language": "en",
  "term": "tile",
  "source": "ISO 6707-1:2017",
  "source_long": "ISO 6707-1:2017 Buildings and civil engineering works – Vocabulary – Part 1: General terms, 3.3.2.6",
  "definition": "small, thin, flat, or shaped component (3.4.1.4) used to form a covering",
  "contributors": [
    {
      "name": "Klas Eckerberg",
      "linkedin": "https://www.linkedin.com/in/klaseckerberg/"
    }
  ]
}