{
  "id": "9cd22c4b-82be-491d-b76a-d53114ddccea",
  "_schema": "http://schemas.nationella-riktlinjer.se/nrb-concept.2.schema.json",
  "slug": "tillgang-ss-iso-550002014-en",
  "language": "en",
  "term": "asset",
  "source": "ISO 55000:2014",
  "source_long": "ISO 55000:2014 Asset management – Overview, principles and terminology, 3.2.1",
  "definition": "item, thing or entity that has potential or actual value to an organization (3.1.13)",
  "comment": "Note 1 to entry: Value can be tangible or intangible, financial or non-financial, and includes consideration of risks (3.1.21) and liabilities. It can be positive or negative at different stages of the asset life (3.2.2).\r\nNote 2 to entry: Physical assets usually refer to equipment, inventory and properties owned by the organization. Physical assets are the opposite of intangible assets, which are non-physical assets such as leases, brands, digital assets, use rights, licences, intellectual property rights, reputation or agreements.\r\nNote 3 to entry: A grouping of assets referred to as an asset system (3.2.5) could also be considered as an asset.",
  "contributors": [
    {
      "name": "Klas Eckerberg",
      "linkedin": "https://www.linkedin.com/in/klaseckerberg/"
    }
  ],
  "synonyms": [
    "tillgang-ss-iso-550002014"
  ]
}