{
  "id": "3937f29d-2da1-4826-ac6f-ab19b3f5a067",
  "_schema": "http://schemas.nationella-riktlinjer.se/nrb-concept.2.schema.json",
  "slug": "tillgangsinformationsmodell-isodis-19650-122018-en",
  "language": "en",
  "term": "asset information model\r\nAIM",
  "source": "SS-EN ISO 19650-1:2019",
  "source_long": "ISO/DIS 19650-1.2:2018 Information management using building information modelling –\r Part 1: Concepts and principles, 3.3.9",
  "definition": "information model relating to the operational phase",
  "contributors": [
    {
      "name": "Klas Eckerberg",
      "linkedin": "https://www.linkedin.com/in/klaseckerberg/"
    }
  ],
  "synonyms": [
    "tillgangsinformationsmodell-isodis-19650-122018"
  ]
}