{
  "id": "6a068391-60e2-4f37-96aa-66ee78bbac37",
  "_schema": "http://schemas.nationella-riktlinjer.se/nrb-concept.2.schema.json",
  "slug": "tillgangs-livstid-ss-iso-550002014",
  "language": "sv",
  "term": "tillgångs livstid",
  "source": "SS-ISO 55000:2014",
  "source_long": "SS-ISO 55000:2014, Ledningssystem för tillgångar – Översikt, principer och terminologi, 3.2.2",
  "definition": "period från att en tillgång (3.2.1) skapas till att tillgången kasseras",
  "contributors": [
    {
      "name": "Klas Eckerberg",
      "linkedin": "https://www.linkedin.com/in/klaseckerberg/"
    }
  ],
  "synonyms": [
    "tillgangs-livstid-ss-iso-550002014-en"
  ]
}