{
  "id": "eed8d7cb-6e72-4ca1-b6da-a06d4bb042ac",
  "_schema": "http://schemas.nationella-riktlinjer.se/nrb-concept.2.schema.json",
  "slug": "tillgang-till-tjanster-iso-153922008",
  "language": "sv",
  "term": "tillgång till tjänster",
  "source": "ISO 15392:2008",
  "source_long": "ISO 15392:2008, Sustainability in building construction – General principles, 3.1",
  "definition": "tillgänglighet till tjänster utanför byggnaden",
  "comment": "Not 1: Tjänster kan inkludera transport, parkering, underhållning, hälso- och sjukvård, vatten- och energiförsörjning etc.",
  "contributors": [
    {
      "name": "Klas Eckerberg",
      "linkedin": "https://www.linkedin.com/in/klaseckerberg/"
    }
  ],
  "synonyms": [
    "tillgang-till-tjanster-iso-153922008-en"
  ]
}