{
  "id": "72c9f3ca-8a6f-4bf8-9f83-04f22ad87e95",
  "_schema": "http://schemas.nationella-riktlinjer.se/nrb-concept.2.schema.json",
  "slug": "trade-off-isoiecieee-152882015",
  "language": "en",
  "term": "trade-off",
  "source": "ISO/IEC/IEEE 15288:2015",
  "source_long": "ISO/IEC/IEEE 15288:2015 Systems and software engineering – System life cycle processes, 4.1.51",
  "definition": "decision-making actions that select from various requirements and alternative solutions on the basis of net benefit to the stakeholders",
  "contributors": [
    {
      "name": "Klas Eckerberg",
      "linkedin": "https://www.linkedin.com/in/klaseckerberg/"
    }
  ]
}