{
  "id": "2dd99d45-3856-843b-e93a-4311ab71c4d8",
  "_schema": "http://schemas.nationella-riktlinjer.se/nrb-concept.2.schema.json",
  "slug": "tradhojdsmodell-lantmateriet",
  "language": "sv",
  "term": "trädhöjdsmodell",
  "source": "Lantmäteriet",
  "definition": "(Relativ) höjdmodell som beskriver trädens höjd över markytan.",
  "links": [
    {
      "name": "Lantmäteriet",
      "uri": "https://www.lantmateriet.se/contentassets/09beca90518544ec8ba14f17305e7f6f/ramverk-for-nationella-geodata-i-3d.pdf"
    }
  ]
}