{
  "id": "1e938b91-5d0f-4a3f-abd5-6207b19fbe49",
  "_schema": "http://schemas.nationella-riktlinjer.se/nrb-concept.2.schema.json",
  "slug": "traffic-and-parking-plan-iso-102092012",
  "language": "en",
  "term": "traffic and parking plan",
  "source": "ISO 10209:2012",
  "source_long": "ISO 10209:2012 Technical product documentation – Vocabulary – Terms relating to technical drawings, product definition and related documentation, 11.162",
  "definition": "drawing which shows routes of traffic movement and areas for parking",
  "contributors": [
    {
      "name": "Klas Eckerberg",
      "linkedin": "https://www.linkedin.com/in/klaseckerberg/"
    }
  ]
}