{
  "id": "c8afdaaa-1018-46de-941b-8297fc4315f6",
  "_schema": "http://schemas.nationella-riktlinjer.se/nrb-concept.2.schema.json",
  "slug": "transparent-iso-219302017",
  "language": "sv",
  "term": "transparent",
  "source": "ISO 21930:2017",
  "source_long": "ISO 21930:2017, Sustainability in buildings and civil engineering works – Core rules for environmental product declarations of construction products and services, 3.3.10",
  "definition": "",
  "contributors": [
    {
      "name": "Klas Eckerberg",
      "linkedin": "https://www.linkedin.com/in/klaseckerberg/"
    }
  ],
  "synonyms": [
    "transparent-iso-219302017-en"
  ]
}