{
  "id": "e36252e6-3450-4ed2-9864-4f86c99e857e",
  "_schema": "http://schemas.nationella-riktlinjer.se/nrb-concept.2.schema.json",
  "slug": "transparens-iso-21931-12010",
  "language": "sv",
  "term": "transparens",
  "source": "ISO 21931-1:2010",
  "source_long": "ISO 21931-1:2010, Sustainability in building construction – Framework for methods of assessment of the environmental performance of construction works – Part 1: Buildings, 3.19",
  "definition": "",
  "contributors": [
    {
      "name": "Klas Eckerberg",
      "linkedin": "https://www.linkedin.com/in/klaseckerberg/"
    }
  ],
  "synonyms": [
    "transparens-iso-21931-12010-en"
  ]
}