{
  "id": "6784e1c5-10c9-4c34-9227-b56e0b89dd7c",
  "_schema": "http://schemas.nationella-riktlinjer.se/nrb-concept.2.schema.json",
  "slug": "two-point-perspective-iso-102092012",
  "language": "en",
  "term": "two-point perspective",
  "source": "ISO 10209:2012",
  "source_long": "ISO 10209:2012 Technical product documentation – Vocabulary – Terms relating to technical drawings, product definition and related documentation, 3.68",
  "definition": "perspective representation of an object placed with its vertical faces inclined to, and its horizontal faces at right angles to, the projection plane",
  "contributors": [
    {
      "name": "Klas Eckerberg",
      "linkedin": "https://www.linkedin.com/in/klaseckerberg/"
    }
  ]
}