{
  "id": "3e487aaf-0ccf-4481-8a9f-dc915e7092f4",
  "_schema": "http://schemas.nationella-riktlinjer.se/nrb-concept.2.schema.json",
  "slug": "typ-av-fel-ss-en-133062010-en",
  "language": "en",
  "term": "failure mode",
  "source": "EN 13306:2010",
  "source_long": "EN 13306:2010 Maintenance – Maintenance terminology, 5.2",
  "definition": "manner in which the inability of an item to perform a required function occurs",
  "comment": "NOTE 1 The use of the term \"fault mode\" is deprecated.\r\nNOTE 2 A failure mode may be defined by the function lost or the state transition that occurred.",
  "contributors": [
    {
      "name": "Klas Eckerberg",
      "linkedin": "https://www.linkedin.com/in/klaseckerberg/"
    }
  ],
  "synonyms": [
    "typ-av-fel-ss-en-133062010"
  ]
}