{
  "id": "89ed5507-7ee3-4bd6-8f3d-3e60f50e62d0",
  "_schema": "http://schemas.nationella-riktlinjer.se/nrb-concept.2.schema.json",
  "slug": "typsektion-bygghandlingar-90-del-7-utgava-2",
  "language": "sv",
  "term": "Typsektion",
  "source": "Bygghandlingar 90 del 7 utgåva 2",
  "definition": "”Grafiskt redovisad (väg)sektion som anger typisk trafikteknisk utformning för visst väg- eller gatuavsnitt.” (TNC 61: Kommunalteknisk ordlista, 1976)",
  "links": [
    {
      "name": "Bygghandlingar 90 del 7 utgåva 2",
      "uri": "http://www.bygghandlingar90.se"
    }
  ]
}