{
  "id": "c98982d5-f6f1-45d9-9c35-65ec1af97c39",
  "_schema": "http://schemas.nationella-riktlinjer.se/nrb-concept.2.schema.json",
  "slug": "undercut-iso-102092012",
  "language": "en",
  "term": "Undercut",
  "source": "ISO 10209:2012",
  "source_long": "ISO 10209:2012 Technical product documentation – Vocabulary – Terms relating to technical drawings, product definition and related documentation, 2.85",
  "definition": "deviation inside the ideal geometrical shape of an internal edge",
  "comment": "[ISO 13715:2000]",
  "contributors": [
    {
      "name": "Klas Eckerberg",
      "linkedin": "https://www.linkedin.com/in/klaseckerberg/"
    }
  ]
}