{
  "id": "d47d8dcf-7374-4899-ab94-38f69064d702",
  "_schema": "http://schemas.nationella-riktlinjer.se/nrb-concept.2.schema.json",
  "slug": "underhallets-stodfunktioner-ss-en-133062010-en",
  "language": "en",
  "term": "maintenance support",
  "source": "EN 13306:2010",
  "source_long": "EN 13306:2010 Maintenance – Maintenance terminology, 10.1",
  "definition": "provision of resources, services and management necessary to carry out maintenance",
  "comment": "The provision may include, for example, personnel, test equipment, workrooms, spare parts, documentation, tools, etc.",
  "contributors": [
    {
      "name": "Klas Eckerberg",
      "linkedin": "https://www.linkedin.com/in/klaseckerberg/"
    }
  ],
  "synonyms": [
    "underhallets-stodfunktioner-ss-en-133062010"
  ]
}