{
  "id": "614b3593-0ec5-4320-a2a1-db57028fbe54",
  "_schema": "http://schemas.nationella-riktlinjer.se/nrb-concept.2.schema.json",
  "slug": "underhallsniva-ss-en-133062010",
  "language": "sv",
  "term": "underhållsnivå",
  "source": "SS-EN 13306:2010",
  "source_long": "SS-EN 13306:2010, Underhåll – Terminologi, 7.13",
  "definition": "kategorisering av underhåll baserad på komplexitet",
  "comment": "Underhållsåtgärder delas in i nivåer med ökande grad av komplexitet.",
  "contributors": [
    {
      "name": "Klas Eckerberg",
      "linkedin": "https://www.linkedin.com/in/klaseckerberg/"
    }
  ],
  "synonyms": [
    "underhallsniva-ss-en-133062010-en"
  ]
}