{
  "id": "d40bf71f-8cc9-4717-9003-8b10d0be2a42",
  "_schema": "http://schemas.nationella-riktlinjer.se/nrb-concept.2.schema.json",
  "slug": "underkategori-pcr-iso-219302017-en",
  "language": "en",
  "term": "sub-category PCR",
  "source": "ISO 21930:2017",
  "source_long": "ISO 21930:2017 Sustainability in buildings and civil engineering works – Core rules for environmental product declarations of construction products and services, 3.1.5",
  "definition": "set of specific rules, requirements and guidelines, which provide additional, consistent requirements to the core PCR, for developing EPDs for sub-categories of the overall product category of construction products",
  "comment": "Note 1 to entry: A sub-category PCR is meant to be used together with this document.",
  "contributors": [
    {
      "name": "Klas Eckerberg",
      "linkedin": "https://www.linkedin.com/in/klaseckerberg/"
    }
  ],
  "synonyms": [
    "underkategori-pcr-iso-219302017"
  ]
}