{
  "id": "2793d087-cc8d-429c-9f2e-ff333705ef28",
  "_schema": "http://schemas.nationella-riktlinjer.se/nrb-concept.2.schema.json",
  "slug": "underhallsinstruktion-bim-alliance",
  "language": "sv",
  "term": "underhållsinstruktion",
  "inflections": ["underhållsinstruktioner", "underhållinstruktionen", "underhållsinstruktionerna", "underhållsinstruktionernas", "underhållsinstruktionens"], 
 "source": "BIM Alliance",
  "definition": "Med underhållsinstruktioner avses instruktioner för att sköta underhållet av byggnader och anläggningar. En underhållsinstruktion beskriver vilka komponenter som ska underhållas och när detta ska göras. Underhållsinstruktionerna framställs oftast av entreprenör.",
  "links": [
    {
      "name": "BIM Alliance",
      "uri": "https://www.bimalliance.se/library/2271/riktlinje_digitala_leveranser_for_forvaltning.pdf"
    }
  ]
}