{
  "id": "6fd5708a-ffb0-428c-b4ac-58fe69261c27",
  "_schema": "http://schemas.nationella-riktlinjer.se/nrb-concept.2.schema.json",
  "slug": "underground-railway-subway-us-iso-6707-12017",
  "language": "en",
  "term": "underground railway\r\nsubway, US",
  "source": "ISO 6707-1:2017",
  "source_long": "ISO 6707-1:2017 Buildings and civil engineering works – Vocabulary – Part 1: General terms, 3.1.3.6",
  "definition": "railway (3.1.3.3) that operates mainly below ground level (3.7.2.67)",
  "contributors": [
    {
      "name": "Klas Eckerberg",
      "linkedin": "https://www.linkedin.com/in/klaseckerberg/"
    }
  ]
}