{
  "id": "4138d2b0-c02d-4040-8750-8b8925600847",
  "_schema": "http://schemas.nationella-riktlinjer.se/nrb-concept.2.schema.json",
  "slug": "underhallsstrategi-ss-en-133062010",
  "language": "sv",
  "term": "underhållsstrategi",
  "source": "SS-EN 13306:2010",
  "source_long": "SS-EN 13306:2010, Underhåll – Terminologi, 2.4",
  "definition": "av ledningen angiven inriktning för att nå målen för underhåll",
  "comment": "Anm. till termpost: Exempel kan vara utkontraktering (outsourcing) av underhåll, resurstilldelning m.m.",
  "contributors": [
    {
      "name": "Klas Eckerberg",
      "linkedin": "https://www.linkedin.com/in/klaseckerberg/"
    }
  ],
  "synonyms": [
    "underhallsstrategi-ss-en-133062010-en"
  ]
}