{
  "id": "c44df406-0aa8-494b-b7ae-8f37eb14c4b2",
  "_schema": "http://schemas.nationella-riktlinjer.se/nrb-concept.2.schema.json",
  "slug": "upprakning-ifc-4-en",
  "language": "en",
  "term": "enumeration",
  "source": "IFC 4",
  "source_long": "IFC 4 Industry Foundation Classes Release 4, ",
  "definition": "construct that allows an attribute value to be one of multiple predefined values identified by name",
  "comment": "NOTE 1  Similar to the \"Enumeration\" construct as defined in [ISO 10303-11].\r\nNOTE 2  Similar in concept to \"enum\" in common programming languages.",
  "contributors": [
    {
      "name": "Klas Eckerberg",
      "linkedin": "https://www.linkedin.com/in/klaseckerberg/"
    }
  ],
  "synonyms": [
    "upprakning-ifc-4"
  ]
}