{
  "id": "2b8a071f-ff0e-41b9-a4c0-2ec2606e9733",
  "_schema": "http://schemas.nationella-riktlinjer.se/nrb-concept.2.schema.json",
  "slug": "utrymme-isodis-19650-122018-en",
  "language": "en",
  "term": "space",
  "source": "SS-EN ISO 19650-1:2019",
  "source_long": "ISO/DIS 19650-1.2:2018 Information management using building information modelling –\r Part 1: Concepts and principles, 3.1.2",
  "definition": "limited three-dimensional extent defined physically or notionally",
  "comment": "[SOURCE: ISO 12006-2:2015, 3.1.8]",
  "contributors": [
    {
      "name": "Klas Eckerberg",
      "linkedin": "https://www.linkedin.com/in/klaseckerberg/"
    }
  ],
  "synonyms": [
    "utrymme-isodis-19650-122018"
  ]
}