{
  "id": "e9a6c003-466d-4b65-bdea-870a56d94ce4",
  "_schema": "http://schemas.nationella-riktlinjer.se/nrb-concept.2.schema.json",
  "slug": "variationsvidd-sis-ts-211442016",
  "language": "sv",
  "term": "variationsvidd",
  "source": "SIS-TS 21144:2016",
  "source_long": "SIS-TS 21144:2016, Byggmätning – Specifikationer vid framställning och kontroll av digitala markmodeller, 3.12",
  "definition": "anger skillnaden mellan största och minsta värde i en serie av observationer eller avvikelser i en sammanhängande serie av mått som ska utvärderas",
  "contributors": [
    {
      "name": "Klas Eckerberg",
      "linkedin": "https://www.linkedin.com/in/klaseckerberg/"
    }
  ]
}