{
  "id": "330d4a06-0954-49c5-b9d8-9a36c0bb6f87",
  "_schema": "http://schemas.nationella-riktlinjer.se/nrb-concept.2.schema.json",
  "slug": "vaxthusgasreservoar-iso-16745-12017",
  "language": "sv",
  "term": "växthusgasreservoar",
  "source": "ISO 16745-1:2017",
  "source_long": "ISO 16745-1:2017, Sustainability in buildings and civil engineering works – Carbon metric of an existing building during use stage – Part 1: Calculation, reporting and communication, 3.13",
  "definition": "",
  "contributors": [
    {
      "name": "Klas Eckerberg",
      "linkedin": "https://www.linkedin.com/in/klaseckerberg/"
    }
  ],
  "synonyms": [
    "vaxthusgasreservoar-iso-16745-12017-en"
  ]
}