{
  "id": "3e670e5c-fd77-4b92-aba3-95c7984ccdeb",
  "_schema": "http://schemas.nationella-riktlinjer.se/nrb-concept.2.schema.json",
  "slug": "ventilation-iso-16745-12017",
  "language": "sv",
  "term": "ventilation",
  "source": "ISO 16745-1:2017",
  "source_long": "ISO 16745-1:2017, Sustainability in buildings and civil engineering works – Carbon metric of an existing building during use stage – Part 1: Calculation, reporting and communication, 3.2",
  "definition": "",
  "contributors": [
    {
      "name": "Klas Eckerberg",
      "linkedin": "https://www.linkedin.com/in/klaseckerberg/"
    }
  ],
  "synonyms": [
    "ventilation-iso-16745-12017-en"
  ]
}