{
  "id": "cc9afbbb-c123-4439-8d8c-426d06a0ac20",
  "_schema": "http://schemas.nationella-riktlinjer.se/nrb-concept.2.schema.json",
  "slug": "view-en-61987-102010",
  "language": "en",
  "term": "view",
  "source": "EN 61987-10:2010",
  "source_long": "EN 61987-10:2010 Industrial-process measurement and control – Data structures and elements in process equipment catalogues – Part 10: Lists of properties (LOPs) for industrial-process measurement and control for electronic data exchange – Fundamentals, 3.1.29",
  "definition": "personalized subset of a list of properties for a device type",
  "comment": "NOTE 1 Only those properties or blocks of properties that have been selected in the view for a given list of properties will actually be displayed.\r\nNOTE 2 The transaction data are determined by the list of properties and not by the view.",
  "contributors": [
    {
      "name": "Klas Eckerberg",
      "linkedin": "https://www.linkedin.com/in/klaseckerberg/"
    }
  ]
}