{
  "id": "dba94704-70c2-42fe-8f5a-bc31ac0a80bc",
  "_schema": "http://schemas.nationella-riktlinjer.se/nrb-concept.2.schema.json",
  "slug": "visible-property-iec-61360-12017",
  "language": "en",
  "term": "visible property",
  "source": "IEC 61360-1:2017",
  "source_long": "IEC 61360-1:2017 Standard data element types with associated classification scheme – Part 1: Definitions – Principles and methods, 3.1.31",
  "definition": "property that has a definition meaningful in the scope of a given characterization class, but that does not necessarily apply to the various products belonging to this class",
  "comment": "Note 1 to entry: Meaningful in the scope of a given characterization class means that a human observer is able to \r\ndetermine, for any product of the characterization class, whether the property applies, and, if it applies, to which product aspect it corresponds.\r\nNote 2 to entry: The concept of a visible property allows sharing the definition of a property among product characterization classes where this property does not necessarily apply.\r\nEXAMPLE The non-threaded length property is meaningful for any class of screw but it applies only to those screws that have a non-threaded part. It can be defined as visible at the screw level, while becoming applicable only in some subclasses.\r\nNote 3 to entry: All the visible properties of a superclass that is a product characterization class are also visible properties for its subclasses.\r\nNote 4 to entry: To facilitate integration of component libraries and electronic catalogues based on ISO 13584-24:2003 and ISO 13584-25, these parts of ISO 13584 request that only properties that are applicable to a class be used to characterize their instances in component libraries and electronic catalogues.\r\nNote 5 to entry: This definition of a visible property supersedes the previous definition from ISO 13584-24:2003 that was the following: “a property that is defined for some class of products and that does not necessarily apply to the different products of this class of products”.\r\n[SOURCE: IEC 61360-2:2012, 3.46]",
  "contributors": [
    {
      "name": "Klas Eckerberg",
      "linkedin": "https://www.linkedin.com/in/klaseckerberg/"
    }
  ]
}