{
  "id": "be0a3108-792a-4e5c-8eae-728de04c2419",
  "_schema": "http://schemas.nationella-riktlinjer.se/nrb-concept.2.schema.json",
  "slug": "wall-plate-top-plate-us-iso-6707-12017",
  "language": "en",
  "term": "wall plate\r\ntop plate, US",
  "source": "ISO 6707-1:2017",
  "source_long": "ISO 6707-1:2017 Buildings and civil engineering works – Vocabulary – Part 1: General terms, 3.3.1.56",
  "definition": "structural member (3.3.1.3) along the top of a wall (3.3.2.46) or built into its length (3.7.2.10), which distributes the forces (3.7.3.22) from joists (3.3.1.15), rafters (3.3.1.43), or roof trusses (3.3.1.45)",
  "contributors": [
    {
      "name": "Klas Eckerberg",
      "linkedin": "https://www.linkedin.com/in/klaseckerberg/"
    }
  ]
}