{
  "id": "754ab8ba-59eb-4d81-86ea-d00bf4821050",
  "_schema": "http://schemas.nationella-riktlinjer.se/nrb-concept.2.schema.json",
  "slug": "water-engineering-iso-6707-12017",
  "language": "en",
  "term": "water engineering",
  "source": "ISO 6707-1:2017",
  "source_long": "ISO 6707-1:2017 Buildings and civil engineering works – Vocabulary – Part 1: General terms, 3.5.1.11",
  "definition": "engineering that deals with the flow (3.7.3.41), control, treatment, and utilization of water",
  "contributors": [
    {
      "name": "Klas Eckerberg",
      "linkedin": "https://www.linkedin.com/in/klaseckerberg/"
    }
  ]
}