{
  "id": "10f92076-0e54-46f8-8982-5c1c4b07dd76",
  "_schema": "http://schemas.nationella-riktlinjer.se/nrb-concept.2.schema.json",
  "slug": "weathering-iso-6707-12017",
  "language": "en",
  "term": "weathering",
  "source": "ISO 6707-1:2017",
  "source_long": "ISO 6707-1:2017 Buildings and civil engineering works – Vocabulary – Part 1: General terms, 3.7.3.70",
  "definition": "change in colour or texture (3.7.3.66) or composition at the surface as a result of action by the elements",
  "contributors": [
    {
      "name": "Klas Eckerberg",
      "linkedin": "https://www.linkedin.com/in/klaseckerberg/"
    }
  ]
}