{
  "id": "ee4cf492-48c4-4383-9e45-5ab407618be2",
  "_schema": "http://schemas.nationella-riktlinjer.se/nrb-concept.2.schema.json",
  "slug": "window-furniture-window-hardware-us-iso-6707-12017",
  "language": "en",
  "term": "window furniture\r\nwindow hardware, US",
  "source": "ISO 6707-1:2017",
  "source_long": "ISO 6707-1:2017 Buildings and civil engineering works – Vocabulary – Part 1: General terms, 3.3.5.48",
  "definition": "fittings (3.3.5.54) for a window (3.3.3.5)",
  "contributors": [
    {
      "name": "Klas Eckerberg",
      "linkedin": "https://www.linkedin.com/in/klaseckerberg/"
    }
  ]
}