{
  "id": "e861c29d-de86-412f-a612-2fdb0a8ffb7c",
  "_schema": "http://schemas.nationella-riktlinjer.se/nrb-concept.2.schema.json",
  "slug": "window-board-iso-6707-12017",
  "language": "en",
  "term": "window board",
  "source": "ISO 6707-1:2017",
  "source_long": "ISO 6707-1:2017 Buildings and civil engineering works – Vocabulary – Part 1: General terms, 3.3.3.46",
  "definition": "horizontal board fitted internally to a sill (3.3.3.42)",
  "contributors": [
    {
      "name": "Klas Eckerberg",
      "linkedin": "https://www.linkedin.com/in/klaseckerberg/"
    }
  ]
}