{
  "id": "0b9eef08-4ac7-40eb-b3c0-b70ef752ade8",
  "_schema": "http://schemas.nationella-riktlinjer.se/nrb-concept.2.schema.json",
  "slug": "wood-iso-6707-12017",
  "language": "en",
  "term": "wood",
  "source": "ISO 6707-1:2017",
  "source_long": "ISO 6707-1:2017 Buildings and civil engineering works – Vocabulary – Part 1: General terms, 3.4.3.1",
  "definition": "lignocellulosic substance between the pith (3.4.3.4) and bark (3.4.3.3) of a tree or shrub",
  "comment": "Note 1 to entry: Internationally, the terms wood and timber (3.4.3.2) are often used interchangeably to represent the basic material (3.4.1.2) used to form wood products.\r\n[SOURCE: ISO 24294:2013, 3.1, modified — Note 1 to entry was deleted; existing Note 2 to entry becomes the new Note 1 to entry.]",
  "contributors": [
    {
      "name": "Klas Eckerberg",
      "linkedin": "https://www.linkedin.com/in/klaseckerberg/"
    }
  ]
}